%!PS-Adobe-2.0 EPSF-2.0
%%Title: nonrandom1.tex
%%Creator: gnuplot 4.6 patchlevel 3
%%CreationDate: Wed Apr  2 16:35:07 2014
%%DocumentFonts: 
%%BoundingBox: 50 50 410 302
%%EndComments
%%BeginProlog
/gnudict 256 dict def
gnudict begin
%
% The following true/false flags may be edited by hand if desired.
% The unit line width and grayscale image gamma correction may also be changed.
%
/Color false def
/Blacktext true def
/Solid false def
/Dashlength 1 def
/Landscape false def
/Level1 false def
/Rounded false def
/ClipToBoundingBox false def
/SuppressPDFMark false def
/TransparentPatterns false def
/gnulinewidth 5.000 def
/userlinewidth gnulinewidth def
/Gamma 1.0 def
/BackgroundColor {-1.000 -1.000 -1.000} def
%
/vshift -73 def
/dl1 {
  10.0 Dashlength mul mul
  Rounded { currentlinewidth 0.75 mul sub dup 0 le { pop 0.01 } if } if
} def
/dl2 {
  10.0 Dashlength mul mul
  Rounded { currentlinewidth 0.75 mul add } if
} def
/hpt_ 31.5 def
/vpt_ 31.5 def
/hpt hpt_ def
/vpt vpt_ def
/doclip {
  ClipToBoundingBox {
    newpath 50 50 moveto 410 50 lineto 410 302 lineto 50 302 lineto closepath
    clip
  } if
} def
%
% Gnuplot Prolog Version 4.6 (September 2012)
%
%/SuppressPDFMark true def
%
/M {moveto} bind def
/L {lineto} bind def
/R {rmoveto} bind def
/V {rlineto} bind def
/N {newpath moveto} bind def
/Z {closepath} bind def
/C {setrgbcolor} bind def
/f {rlineto fill} bind def
/g {setgray} bind def
/Gshow {show} def   % May be redefined later in the file to support UTF-8
/vpt2 vpt 2 mul def
/hpt2 hpt 2 mul def
/Lshow {currentpoint stroke M 0 vshift R 
	Blacktext {gsave 0 setgray show grestore} {show} ifelse} def
/Rshow {currentpoint stroke M dup stringwidth pop neg vshift R
	Blacktext {gsave 0 setgray show grestore} {show} ifelse} def
/Cshow {currentpoint stroke M dup stringwidth pop -2 div vshift R 
	Blacktext {gsave 0 setgray show grestore} {show} ifelse} def
/UP {dup vpt_ mul /vpt exch def hpt_ mul /hpt exch def
  /hpt2 hpt 2 mul def /vpt2 vpt 2 mul def} def
/DL {Color {setrgbcolor Solid {pop []} if 0 setdash}
 {pop pop pop 0 setgray Solid {pop []} if 0 setdash} ifelse} def
/BL {stroke userlinewidth 2 mul setlinewidth
	Rounded {1 setlinejoin 1 setlinecap} if} def
/AL {stroke userlinewidth 2 div setlinewidth
	Rounded {1 setlinejoin 1 setlinecap} if} def
/UL {dup gnulinewidth mul /userlinewidth exch def
	dup 1 lt {pop 1} if 10 mul /udl exch def} def
/PL {stroke userlinewidth setlinewidth
	Rounded {1 setlinejoin 1 setlinecap} if} def
3.8 setmiterlimit
% Default Line colors
/LCw {1 1 1} def
/LCb {0 0 0} def
/LCa {0 0 0} def
/LC0 {1 0 0} def
/LC1 {0 1 0} def
/LC2 {0 0 1} def
/LC3 {1 0 1} def
/LC4 {0 1 1} def
/LC5 {1 1 0} def
/LC6 {0 0 0} def
/LC7 {1 0.3 0} def
/LC8 {0.5 0.5 0.5} def
% Default Line Types
/LTw {PL [] 1 setgray} def
/LTb {BL [] LCb DL} def
/LTa {AL [1 udl mul 2 udl mul] 0 setdash LCa setrgbcolor} def
/LT0 {PL [] LC0 DL} def
/LT1 {PL [4 dl1 2 dl2] LC1 DL} def
/LT2 {PL [2 dl1 3 dl2] LC2 DL} def
/LT3 {PL [1 dl1 1.5 dl2] LC3 DL} def
/LT4 {PL [6 dl1 2 dl2 1 dl1 2 dl2] LC4 DL} def
/LT5 {PL [3 dl1 3 dl2 1 dl1 3 dl2] LC5 DL} def
/LT6 {PL [2 dl1 2 dl2 2 dl1 6 dl2] LC6 DL} def
/LT7 {PL [1 dl1 2 dl2 6 dl1 2 dl2 1 dl1 2 dl2] LC7 DL} def
/LT8 {PL [2 dl1 2 dl2 2 dl1 2 dl2 2 dl1 2 dl2 2 dl1 4 dl2] LC8 DL} def
/Pnt {stroke [] 0 setdash gsave 1 setlinecap M 0 0 V stroke grestore} def
/Dia {stroke [] 0 setdash 2 copy vpt add M
  hpt neg vpt neg V hpt vpt neg V
  hpt vpt V hpt neg vpt V closepath stroke
  Pnt} def
/Pls {stroke [] 0 setdash vpt sub M 0 vpt2 V
  currentpoint stroke M
  hpt neg vpt neg R hpt2 0 V stroke
 } def
/Box {stroke [] 0 setdash 2 copy exch hpt sub exch vpt add M
  0 vpt2 neg V hpt2 0 V 0 vpt2 V
  hpt2 neg 0 V closepath stroke
  Pnt} def
/Crs {stroke [] 0 setdash exch hpt sub exch vpt add M
  hpt2 vpt2 neg V currentpoint stroke M
  hpt2 neg 0 R hpt2 vpt2 V stroke} def
/TriU {stroke [] 0 setdash 2 copy vpt 1.12 mul add M
  hpt neg vpt -1.62 mul V
  hpt 2 mul 0 V
  hpt neg vpt 1.62 mul V closepath stroke
  Pnt} def
/Star {2 copy Pls Crs} def
/BoxF {stroke [] 0 setdash exch hpt sub exch vpt add M
  0 vpt2 neg V hpt2 0 V 0 vpt2 V
  hpt2 neg 0 V closepath fill} def
/TriUF {stroke [] 0 setdash vpt 1.12 mul add M
  hpt neg vpt -1.62 mul V
  hpt 2 mul 0 V
  hpt neg vpt 1.62 mul V closepath fill} def
/TriD {stroke [] 0 setdash 2 copy vpt 1.12 mul sub M
  hpt neg vpt 1.62 mul V
  hpt 2 mul 0 V
  hpt neg vpt -1.62 mul V closepath stroke
  Pnt} def
/TriDF {stroke [] 0 setdash vpt 1.12 mul sub M
  hpt neg vpt 1.62 mul V
  hpt 2 mul 0 V
  hpt neg vpt -1.62 mul V closepath fill} def
/DiaF {stroke [] 0 setdash vpt add M
  hpt neg vpt neg V hpt vpt neg V
  hpt vpt V hpt neg vpt V closepath fill} def
/Pent {stroke [] 0 setdash 2 copy gsave
  translate 0 hpt M 4 {72 rotate 0 hpt L} repeat
  closepath stroke grestore Pnt} def
/PentF {stroke [] 0 setdash gsave
  translate 0 hpt M 4 {72 rotate 0 hpt L} repeat
  closepath fill grestore} def
/Circle {stroke [] 0 setdash 2 copy
  hpt 0 360 arc stroke Pnt} def
/CircleF {stroke [] 0 setdash hpt 0 360 arc fill} def
/C0 {BL [] 0 setdash 2 copy moveto vpt 90 450 arc} bind def
/C1 {BL [] 0 setdash 2 copy moveto
	2 copy vpt 0 90 arc closepath fill
	vpt 0 360 arc closepath} bind def
/C2 {BL [] 0 setdash 2 copy moveto
	2 copy vpt 90 180 arc closepath fill
	vpt 0 360 arc closepath} bind def
/C3 {BL [] 0 setdash 2 copy moveto
	2 copy vpt 0 180 arc closepath fill
	vpt 0 360 arc closepath} bind def
/C4 {BL [] 0 setdash 2 copy moveto
	2 copy vpt 180 270 arc closepath fill
	vpt 0 360 arc closepath} bind def
/C5 {BL [] 0 setdash 2 copy moveto
	2 copy vpt 0 90 arc
	2 copy moveto
	2 copy vpt 180 270 arc closepath fill
	vpt 0 360 arc} bind def
/C6 {BL [] 0 setdash 2 copy moveto
	2 copy vpt 90 270 arc closepath fill
	vpt 0 360 arc closepath} bind def
/C7 {BL [] 0 setdash 2 copy moveto
	2 copy vpt 0 270 arc closepath fill
	vpt 0 360 arc closepath} bind def
/C8 {BL [] 0 setdash 2 copy moveto
	2 copy vpt 270 360 arc closepath fill
	vpt 0 360 arc closepath} bind def
/C9 {BL [] 0 setdash 2 copy moveto
	2 copy vpt 270 450 arc closepath fill
	vpt 0 360 arc closepath} bind def
/C10 {BL [] 0 setdash 2 copy 2 copy moveto vpt 270 360 arc closepath fill
	2 copy moveto
	2 copy vpt 90 180 arc closepath fill
	vpt 0 360 arc closepath} bind def
/C11 {BL [] 0 setdash 2 copy moveto
	2 copy vpt 0 180 arc closepath fill
	2 copy moveto
	2 copy vpt 270 360 arc closepath fill
	vpt 0 360 arc closepath} bind def
/C12 {BL [] 0 setdash 2 copy moveto
	2 copy vpt 180 360 arc closepath fill
	vpt 0 360 arc closepath} bind def
/C13 {BL [] 0 setdash 2 copy moveto
	2 copy vpt 0 90 arc closepath fill
	2 copy moveto
	2 copy vpt 180 360 arc closepath fill
	vpt 0 360 arc closepath} bind def
/C14 {BL [] 0 setdash 2 copy moveto
	2 copy vpt 90 360 arc closepath fill
	vpt 0 360 arc} bind def
/C15 {BL [] 0 setdash 2 copy vpt 0 360 arc closepath fill
	vpt 0 360 arc closepath} bind def
/Rec {newpath 4 2 roll moveto 1 index 0 rlineto 0 exch rlineto
	neg 0 rlineto closepath} bind def
/Square {dup Rec} bind def
/Bsquare {vpt sub exch vpt sub exch vpt2 Square} bind def
/S0 {BL [] 0 setdash 2 copy moveto 0 vpt rlineto BL Bsquare} bind def
/S1 {BL [] 0 setdash 2 copy vpt Square fill Bsquare} bind def
/S2 {BL [] 0 setdash 2 copy exch vpt sub exch vpt Square fill Bsquare} bind def
/S3 {BL [] 0 setdash 2 copy exch vpt sub exch vpt2 vpt Rec fill Bsquare} bind def
/S4 {BL [] 0 setdash 2 copy exch vpt sub exch vpt sub vpt Square fill Bsquare} bind def
/S5 {BL [] 0 setdash 2 copy 2 copy vpt Square fill
	exch vpt sub exch vpt sub vpt Square fill Bsquare} bind def
/S6 {BL [] 0 setdash 2 copy exch vpt sub exch vpt sub vpt vpt2 Rec fill Bsquare} bind def
/S7 {BL [] 0 setdash 2 copy exch vpt sub exch vpt sub vpt vpt2 Rec fill
	2 copy vpt Square fill Bsquare} bind def
/S8 {BL [] 0 setdash 2 copy vpt sub vpt Square fill Bsquare} bind def
/S9 {BL [] 0 setdash 2 copy vpt sub vpt vpt2 Rec fill Bsquare} bind def
/S10 {BL [] 0 setdash 2 copy vpt sub vpt Square fill 2 copy exch vpt sub exch vpt Square fill
	Bsquare} bind def
/S11 {BL [] 0 setdash 2 copy vpt sub vpt Square fill 2 copy exch vpt sub exch vpt2 vpt Rec fill
	Bsquare} bind def
/S12 {BL [] 0 setdash 2 copy exch vpt sub exch vpt sub vpt2 vpt Rec fill Bsquare} bind def
/S13 {BL [] 0 setdash 2 copy exch vpt sub exch vpt sub vpt2 vpt Rec fill
	2 copy vpt Square fill Bsquare} bind def
/S14 {BL [] 0 setdash 2 copy exch vpt sub exch vpt sub vpt2 vpt Rec fill
	2 copy exch vpt sub exch vpt Square fill Bsquare} bind def
/S15 {BL [] 0 setdash 2 copy Bsquare fill Bsquare} bind def
/D0 {gsave translate 45 rotate 0 0 S0 stroke grestore} bind def
/D1 {gsave translate 45 rotate 0 0 S1 stroke grestore} bind def
/D2 {gsave translate 45 rotate 0 0 S2 stroke grestore} bind def
/D3 {gsave translate 45 rotate 0 0 S3 stroke grestore} bind def
/D4 {gsave translate 45 rotate 0 0 S4 stroke grestore} bind def
/D5 {gsave translate 45 rotate 0 0 S5 stroke grestore} bind def
/D6 {gsave translate 45 rotate 0 0 S6 stroke grestore} bind def
/D7 {gsave translate 45 rotate 0 0 S7 stroke grestore} bind def
/D8 {gsave translate 45 rotate 0 0 S8 stroke grestore} bind def
/D9 {gsave translate 45 rotate 0 0 S9 stroke grestore} bind def
/D10 {gsave translate 45 rotate 0 0 S10 stroke grestore} bind def
/D11 {gsave translate 45 rotate 0 0 S11 stroke grestore} bind def
/D12 {gsave translate 45 rotate 0 0 S12 stroke grestore} bind def
/D13 {gsave translate 45 rotate 0 0 S13 stroke grestore} bind def
/D14 {gsave translate 45 rotate 0 0 S14 stroke grestore} bind def
/D15 {gsave translate 45 rotate 0 0 S15 stroke grestore} bind def
/DiaE {stroke [] 0 setdash vpt add M
  hpt neg vpt neg V hpt vpt neg V
  hpt vpt V hpt neg vpt V closepath stroke} def
/BoxE {stroke [] 0 setdash exch hpt sub exch vpt add M
  0 vpt2 neg V hpt2 0 V 0 vpt2 V
  hpt2 neg 0 V closepath stroke} def
/TriUE {stroke [] 0 setdash vpt 1.12 mul add M
  hpt neg vpt -1.62 mul V
  hpt 2 mul 0 V
  hpt neg vpt 1.62 mul V closepath stroke} def
/TriDE {stroke [] 0 setdash vpt 1.12 mul sub M
  hpt neg vpt 1.62 mul V
  hpt 2 mul 0 V
  hpt neg vpt -1.62 mul V closepath stroke} def
/PentE {stroke [] 0 setdash gsave
  translate 0 hpt M 4 {72 rotate 0 hpt L} repeat
  closepath stroke grestore} def
/CircE {stroke [] 0 setdash 
  hpt 0 360 arc stroke} def
/Opaque {gsave closepath 1 setgray fill grestore 0 setgray closepath} def
/DiaW {stroke [] 0 setdash vpt add M
  hpt neg vpt neg V hpt vpt neg V
  hpt vpt V hpt neg vpt V Opaque stroke} def
/BoxW {stroke [] 0 setdash exch hpt sub exch vpt add M
  0 vpt2 neg V hpt2 0 V 0 vpt2 V
  hpt2 neg 0 V Opaque stroke} def
/TriUW {stroke [] 0 setdash vpt 1.12 mul add M
  hpt neg vpt -1.62 mul V
  hpt 2 mul 0 V
  hpt neg vpt 1.62 mul V Opaque stroke} def
/TriDW {stroke [] 0 setdash vpt 1.12 mul sub M
  hpt neg vpt 1.62 mul V
  hpt 2 mul 0 V
  hpt neg vpt -1.62 mul V Opaque stroke} def
/PentW {stroke [] 0 setdash gsave
  translate 0 hpt M 4 {72 rotate 0 hpt L} repeat
  Opaque stroke grestore} def
/CircW {stroke [] 0 setdash 
  hpt 0 360 arc Opaque stroke} def
/BoxFill {gsave Rec 1 setgray fill grestore} def
/Density {
  /Fillden exch def
  currentrgbcolor
  /ColB exch def /ColG exch def /ColR exch def
  /ColR ColR Fillden mul Fillden sub 1 add def
  /ColG ColG Fillden mul Fillden sub 1 add def
  /ColB ColB Fillden mul Fillden sub 1 add def
  ColR ColG ColB setrgbcolor} def
/BoxColFill {gsave Rec PolyFill} def
/PolyFill {gsave Density fill grestore grestore} def
/h {rlineto rlineto rlineto gsave closepath fill grestore} bind def
%
% PostScript Level 1 Pattern Fill routine for rectangles
% Usage: x y w h s a XX PatternFill
%	x,y = lower left corner of box to be filled
%	w,h = width and height of box
%	  a = angle in degrees between lines and x-axis
%	 XX = 0/1 for no/yes cross-hatch
%
/PatternFill {gsave /PFa [ 9 2 roll ] def
  PFa 0 get PFa 2 get 2 div add PFa 1 get PFa 3 get 2 div add translate
  PFa 2 get -2 div PFa 3 get -2 div PFa 2 get PFa 3 get Rec
  TransparentPatterns {} {gsave 1 setgray fill grestore} ifelse
  clip
  currentlinewidth 0.5 mul setlinewidth
  /PFs PFa 2 get dup mul PFa 3 get dup mul add sqrt def
  0 0 M PFa 5 get rotate PFs -2 div dup translate
  0 1 PFs PFa 4 get div 1 add floor cvi
	{PFa 4 get mul 0 M 0 PFs V} for
  0 PFa 6 get ne {
	0 1 PFs PFa 4 get div 1 add floor cvi
	{PFa 4 get mul 0 2 1 roll M PFs 0 V} for
 } if
  stroke grestore} def
%
/languagelevel where
 {pop languagelevel} {1} ifelse
 2 lt
	{/InterpretLevel1 true def}
	{/InterpretLevel1 Level1 def}
 ifelse
%
% PostScript level 2 pattern fill definitions
%
/Level2PatternFill {
/Tile8x8 {/PaintType 2 /PatternType 1 /TilingType 1 /BBox [0 0 8 8] /XStep 8 /YStep 8}
	bind def
/KeepColor {currentrgbcolor [/Pattern /DeviceRGB] setcolorspace} bind def
<< Tile8x8
 /PaintProc {0.5 setlinewidth pop 0 0 M 8 8 L 0 8 M 8 0 L stroke} 
>> matrix makepattern
/Pat1 exch def
<< Tile8x8
 /PaintProc {0.5 setlinewidth pop 0 0 M 8 8 L 0 8 M 8 0 L stroke
	0 4 M 4 8 L 8 4 L 4 0 L 0 4 L stroke}
>> matrix makepattern
/Pat2 exch def
<< Tile8x8
 /PaintProc {0.5 setlinewidth pop 0 0 M 0 8 L
	8 8 L 8 0 L 0 0 L fill}
>> matrix makepattern
/Pat3 exch def
<< Tile8x8
 /PaintProc {0.5 setlinewidth pop -4 8 M 8 -4 L
	0 12 M 12 0 L stroke}
>> matrix makepattern
/Pat4 exch def
<< Tile8x8
 /PaintProc {0.5 setlinewidth pop -4 0 M 8 12 L
	0 -4 M 12 8 L stroke}
>> matrix makepattern
/Pat5 exch def
<< Tile8x8
 /PaintProc {0.5 setlinewidth pop -2 8 M 4 -4 L
	0 12 M 8 -4 L 4 12 M 10 0 L stroke}
>> matrix makepattern
/Pat6 exch def
<< Tile8x8
 /PaintProc {0.5 setlinewidth pop -2 0 M 4 12 L
	0 -4 M 8 12 L 4 -4 M 10 8 L stroke}
>> matrix makepattern
/Pat7 exch def
<< Tile8x8
 /PaintProc {0.5 setlinewidth pop 8 -2 M -4 4 L
	12 0 M -4 8 L 12 4 M 0 10 L stroke}
>> matrix makepattern
/Pat8 exch def
<< Tile8x8
 /PaintProc {0.5 setlinewidth pop 0 -2 M 12 4 L
	-4 0 M 12 8 L -4 4 M 8 10 L stroke}
>> matrix makepattern
/Pat9 exch def
/Pattern1 {PatternBgnd KeepColor Pat1 setpattern} bind def
/Pattern2 {PatternBgnd KeepColor Pat2 setpattern} bind def
/Pattern3 {PatternBgnd KeepColor Pat3 setpattern} bind def
/Pattern4 {PatternBgnd KeepColor Landscape {Pat5} {Pat4} ifelse setpattern} bind def
/Pattern5 {PatternBgnd KeepColor Landscape {Pat4} {Pat5} ifelse setpattern} bind def
/Pattern6 {PatternBgnd KeepColor Landscape {Pat9} {Pat6} ifelse setpattern} bind def
/Pattern7 {PatternBgnd KeepColor Landscape {Pat8} {Pat7} ifelse setpattern} bind def
} def
%
%
%End of PostScript Level 2 code
%
/PatternBgnd {
  TransparentPatterns {} {gsave 1 setgray fill grestore} ifelse
} def
%
% Substitute for Level 2 pattern fill codes with
% grayscale if Level 2 support is not selected.
%
/Level1PatternFill {
/Pattern1 {0.250 Density} bind def
/Pattern2 {0.500 Density} bind def
/Pattern3 {0.750 Density} bind def
/Pattern4 {0.125 Density} bind def
/Pattern5 {0.375 Density} bind def
/Pattern6 {0.625 Density} bind def
/Pattern7 {0.875 Density} bind def
} def
%
% Now test for support of Level 2 code
%
Level1 {Level1PatternFill} {Level2PatternFill} ifelse
%
/Symbol-Oblique /Symbol findfont [1 0 .167 1 0 0] makefont
dup length dict begin {1 index /FID eq {pop pop} {def} ifelse} forall
currentdict end definefont pop
Level1 SuppressPDFMark or 
{} {
/SDict 10 dict def
systemdict /pdfmark known not {
  userdict /pdfmark systemdict /cleartomark get put
} if
SDict begin [
  /Title (nonrandom1.tex)
  /Subject (gnuplot plot)
  /Creator (gnuplot 4.6 patchlevel 3)
  /Author (mg)
%  /Producer (gnuplot)
%  /Keywords ()
  /CreationDate (Wed Apr  2 16:35:07 2014)
  /DOCINFO pdfmark
end
} ifelse
end
%%EndProlog
%%Page: 1 1
gnudict begin
gsave
doclip
50 50 translate
0.050 0.050 scale
0 setgray
newpath
1.000 UL
LTb
1078 704 M
5725 0 R
1078 1111 M
5725 0 R
1078 1518 M
5725 0 R
1078 1925 M
5725 0 R
1078 2332 M
5725 0 R
1078 2740 M
5725 0 R
1078 3147 M
5725 0 R
1078 3554 M
5725 0 R
1078 3961 M
5725 0 R
1078 4368 M
5725 0 R
1078 4775 M
5725 0 R
1078 704 M
0 4071 R
1653 704 M
0 4071 R
2229 704 M
0 4071 R
2804 704 M
0 4071 R
3380 704 M
0 4071 R
3955 704 M
0 4071 R
4530 704 M
0 4071 R
5106 704 M
0 4071 R
5681 704 M
0 4071 R
6256 704 M
0 4071 R
stroke
1078 4775 N
0 -4071 V
5725 0 V
0 4071 V
-5725 0 V
Z stroke
1.000 UP
1.000 UL
LTb
1.000 UL
LT0
0.76 0.83 0.85 C LTb
LT0
0.76 0.83 0.85 C 1.000 5948 1262 591 110 BoxColFill
5948 1262 N
591 0 V
0 110 V
-591 0 V
0 -110 V
Z stroke
LT0
0.76 0.83 0.85 C 1078 1048 N 0 -1203 29 527 0 921 h
1107 1293 N 0 -1261 29 388 0 1203 h
1136 1623 N 0 -1339 28 169 0 1261 h
1164 1714 N 0 -1218 29 341 0 1339 h
1193 2176 N 0 -1008 29 146 0 1218 h
1222 2532 N 0 -764 29 114 0 1008 h
1251 2890 N 0 -1079 28 35 0 764 h
1279 2610 N 0 -1141 29 58 0 1079 h
1308 2606 N 0 -823 29 32 0 1141 h
1337 2956 N 0 -1765 29 17 0 823 h
1366 2031 N 0 -1444 28 137 0 1765 h
1394 2489 N 0 -869 29 38 0 1444 h
1423 3102 N 0 -1573 29 129 0 869 h
1452 2527 N 0 -1162 29 36 0 1573 h
1481 2974 N 0 -836 29 -48 0 1162 h
1510 3252 N 0 -756 28 -2 0 836 h
1538 3330 N 0 -625 29 -81 0 756 h
1567 3380 N 0 -807 29 68 0 625 h
1596 3266 N 0 -1068 29 101 0 807 h
1625 3106 N 0 -650 28 -125 0 1068 h
1653 3399 N 0 -1098 29 58 0 650 h
1682 3009 N 0 -1298 29 79 0 1098 h
1711 2888 N 0 -1197 29 10 0 1298 h
1740 2999 N 0 -935 28 -131 0 1197 h
1768 3130 N 0 -912 29 53 0 935 h
1797 3206 N 0 -707 29 0 0 912 h
1826 3411 N 0 -951 29 43 0 707 h
1855 3210 N 0 -716 29 -22 0 951 h
1884 3423 N 0 -1219 28 81 0 716 h
1912 3001 N 0 -487 29 -198 0 1219 h
1941 3535 N 0 -1140 29 224 0 487 h
1970 3106 N 0 -1550 29 122 0 1140 h
1999 2818 N 0 -1209 28 -126 0 1550 h
2027 3033 N 0 -815 29 -33 0 1209 h
2056 3394 N 0 -990 29 63 0 815 h
2085 3282 N 0 -857 29 0 0 990 h
2114 3415 N 0 -971 28 8 0 857 h
2142 3309 N 0 -500 29 -139 0 971 h
2171 3641 N 0 -1195 29 214 0 500 h
2200 3160 N 0 -705 29 -127 0 1195 h
2229 3523 N 0 -1018 29 27 0 705 h
2258 3237 N 0 -1248 28 103 0 1018 h
2286 3110 N 0 -1243 29 32 0 1248 h
2315 3147 N 0 -1019 29 -67 0 1243 h
2344 3304 N 0 -791 29 -111 0 1019 h
2373 3421 N 0 -935 28 77 0 791 h
2401 3354 N 0 -1033 29 15 0 935 h
2430 3271 N 0 -988 29 -11 0 1033 h
2459 3305 N 0 -574 29 -131 0 988 h
2488 3588 N 0 -788 28 99 0 574 h
2516 3473 N 0 -851 29 -9 0 788 h
2545 3401 N 0 -1065 29 82 0 851 h
2574 3269 N 0 -870 29 -81 0 1065 h
2603 3383 N 0 -905 29 10 0 870 h
2632 3358 N 0 -1274 28 108 0 905 h
2660 3097 N 0 -552 29 -240 0 1274 h
2689 3579 N 0 -829 29 139 0 552 h
2718 3441 N 0 -546 29 -129 0 829 h
2747 3595 N 0 -1189 28 185 0 546 h
2775 3137 N 0 -635 29 -135 0 1189 h
2804 3556 N 0 -746 29 31 0 635 h
2833 3476 N 0 -628 29 -30 0 746 h
2862 3564 N 0 -912 28 106 0 628 h
2890 3386 N 0 -552 29 -134 0 912 h
2919 3612 N 0 -741 29 38 0 552 h
2948 3461 N 0 -798 29 43 0 741 h
2977 3447 N 0 -799 29 -4 0 798 h
3006 3442 N 0 -937 28 38 0 799 h
3034 3342 N 0 -920 29 -24 0 937 h
3063 3335 N 0 -703 29 -77 0 920 h
3092 3475 N 0 -548 29 -32 0 703 h
3121 3598 N 0 -622 28 65 0 548 h
3149 3589 N 0 -887 29 100 0 622 h
3178 3424 N 0 -847 29 20 0 887 h
3207 3484 N 0 -1635 29 110 0 847 h
3236 2806 N 0 -629 28 -200 0 1635 h
3264 3612 N 0 -720 29 48 0 629 h
3293 3569 N 0 -498 29 -96 0 720 h
3322 3695 N 0 -769 29 110 0 498 h
3351 3534 N 0 -898 29 41 0 769 h
3380 3446 N 0 -960 28 -14 0 898 h
3408 3370 N 0 -667 29 -55 0 960 h
3437 3608 N 0 -963 29 58 0 667 h
3466 3370 N 0 -593 29 -91 0 963 h
3495 3649 N 0 -538 28 -20 0 593 h
3523 3684 N 0 -697 29 9 0 538 h
3552 3534 N 0 -793 29 53 0 697 h
3581 3491 N 0 -593 29 -39 0 793 h
3610 3652 N 0 -936 28 67 0 593 h
3638 3376 N 0 -741 29 -21 0 936 h
3667 3550 N 0 -622 29 -42 0 741 h
3696 3627 N 0 -647 29 14 0 622 h
3725 3616 N 0 -876 29 80 0 647 h
3754 3467 N 0 -699 28 -78 0 876 h
3782 3566 N 0 -799 29 -13 0 699 h
3811 3453 N 0 -768 29 25 0 799 h
3840 3509 N 0 -651 29 -42 0 768 h
3869 3584 N 0 -828 28 76 0 651 h
3897 3483 N 0 -723 29 -14 0 828 h
3926 3574 N 0 -797 29 -17 0 723 h
3955 3483 N 0 -513 29 -86 0 797 h
3984 3681 N 0 -291 28 -92 0 513 h
4012 3811 N 0 -664 29 139 0 291 h
4041 3577 N 0 -972 29 52 0 664 h
4070 3321 N 0 -659 29 -40 0 972 h
4099 3594 N 0 -299 28 -117 0 659 h
4127 3837 N 0 -629 29 108 0 299 h
4156 3615 N 0 -552 29 -44 0 629 h
4185 3648 N 0 -1139 29 148 0 552 h
4214 3209 N 0 -423 29 -180 0 1139 h
4243 3745 N 0 -656 28 61 0 423 h
4271 3573 N 0 -1138 29 158 0 656 h
4300 3249 N 0 -787 29 -95 0 1138 h
4329 3505 N 0 -903 29 11 0 787 h
4358 3400 N 0 -719 28 -39 0 903 h
4386 3545 N 0 -584 29 -41 0 719 h
4415 3639 N 0 -936 29 92 0 584 h
4444 3379 N 0 -690 29 -84 0 936 h
4473 3541 N 0 -775 28 47 0 690 h
4501 3503 N 0 -1030 29 72 0 775 h
4530 3320 N 0 -757 29 -48 0 1030 h
4559 3545 N 0 -454 29 -134 0 757 h
4588 3714 N 0 -489 29 33 0 454 h
4617 3712 N 0 -585 28 43 0 489 h
4645 3659 N 0 -889 29 89 0 585 h
4674 3444 N 0 -950 29 8 0 889 h
4703 3391 N 0 -700 29 -93 0 950 h
4732 3548 N 0 -582 28 -42 0 700 h
4760 3624 N 0 -742 29 84 0 582 h
4789 3548 N 0 -815 29 -3 0 742 h
4818 3472 N 0 -963 29 49 0 815 h
4847 3373 N 0 -932 28 -28 0 963 h
4875 3376 N 0 -824 29 3 0 932 h
4904 3487 N 0 -988 29 31 0 824 h
4933 3354 N 0 -489 29 -143 0 988 h
4962 3710 N 0 -719 29 107 0 489 h
4991 3587 N 0 -631 28 -57 0 719 h
5019 3618 N 0 -706 29 39 0 631 h
5048 3582 N 0 -266 29 -184 0 706 h
5077 3838 N 0 -604 29 115 0 266 h
5106 3615 N 0 -540 28 7 0 604 h
5134 3686 N 0 -762 29 62 0 540 h
5163 3526 N 0 -613 29 -42 0 762 h
5192 3633 N 0 -497 29 -28 0 613 h
5221 3721 N 0 -743 28 41 0 497 h
5249 3516 N 0 -365 29 -115 0 743 h
5278 3779 N 0 -837 29 133 0 365 h
5307 3440 N 0 -660 29 -51 0 837 h
5336 3566 N 0 -914 29 101 0 660 h
5365 3413 N 0 -693 28 -108 0 914 h
5393 3526 N 0 -588 29 6 0 693 h
5422 3637 N 0 -943 29 117 0 588 h
5451 3399 N 0 -742 29 -74 0 943 h
5480 3526 N 0 -657 28 -37 0 742 h
5508 3574 N 0 -828 29 64 0 657 h
5537 3467 N 0 -967 29 7 0 828 h
5566 3335 N 0 -773 29 -34 0 967 h
5595 3495 N 0 -916 28 34 0 773 h
5623 3386 N 0 -710 29 -31 0 916 h
5652 3561 N 0 -553 29 -52 0 710 h
5681 3666 N 0 -764 29 42 0 553 h
5710 3497 N 0 -806 29 42 0 764 h
5739 3497 N 0 -715 28 -13 0 806 h
5767 3575 N 0 -989 29 53 0 715 h
5796 3354 N 0 -204 29 -255 0 989 h
5825 3884 N 0 -735 29 199 0 204 h
5854 3552 N 0 -592 28 -81 0 735 h
5882 3614 N 0 -914 29 92 0 592 h
5911 3384 N 0 -1187 29 124 0 914 h
5940 3235 N 0 -616 29 -165 0 1187 h
5969 3641 N 0 -781 28 41 0 616 h
5997 3517 N 0 -992 29 22 0 781 h
6026 3328 N 0 -852 29 -4 0 992 h
6055 3464 N 0 -939 29 5 0 852 h
6084 3382 N 0 -642 29 -73 0 939 h
6113 3606 N 0 -921 28 86 0 642 h
6141 3413 N 0 -743 29 -76 0 921 h
6170 3515 N 0 -872 29 -29 0 743 h
6199 3357 N 0 -896 29 70 0 872 h
6228 3403 N 0 -658 28 -45 0 896 h
6256 3596 N 0 -825 29 66 0 658 h
6285 3495 N 0 -1124 29 37 0 825 h
6314 3233 N 0 -780 29 -75 0 1124 h
6343 3502 N 0 -614 28 -48 0 780 h
6371 3620 N 0 -648 29 13 0 614 h
6400 3599 N 0 -823 29 54 0 648 h
6429 3478 N 0 -821 29 -29 0 823 h
6458 3451 N 0 -1074 29 74 0 821 h
6487 3272 N 0 -757 28 -23 0 1074 h
6515 3566 N 0 -844 29 -8 0 757 h
6544 3471 N 0 -436 29 -125 0 844 h
6573 3754 N 0 -671 29 61 0 436 h
6602 3580 N 0 -574 28 -25 0 671 h
6630 3652 N 0 -606 29 11 0 574 h
6659 3631 N 0 -875 29 55 0 606 h
6688 3417 N 0 -762 29 -8 0 875 h
6717 3522 N 0 -341 28 -172 0 762 h
6745 3771 N 0 -647 29 115 0 341 h
6774 3580 N 0 -736 29 45 0 647 h
3.000 UL
LT0
0.47 0.60 0.71 C LTb
LT0
0.47 0.60 0.71 C 5948 1097 M
591 0 V
1078 1509 M
29 385 V
29 360 V
28 130 V
29 401 V
29 251 V
29 236 V
28 -122 V
29 26 V
29 191 V
29 -454 V
28 298 V
29 325 V
29 -222 V
29 241 V
29 115 V
28 38 V
29 -15 V
29 -23 V
29 -30 V
28 84 V
29 -166 V
29 -21 V
29 61 V
28 -1 V
29 65 V
29 103 V
29 -80 V
29 96 V
28 -170 V
29 168 V
29 -103 V
29 -83 V
28 44 V
29 165 V
29 -25 V
29 66 V
28 -49 V
29 97 V
29 -133 V
29 118 V
29 -130 V
28 -12 V
29 34 V
29 46 V
29 3 V
28 4 V
29 -33 V
29 11 V
29 76 V
28 -8 V
29 -40 V
29 -25 V
29 16 V
29 -7 V
28 -77 V
29 121 V
29 0 V
29 13 V
28 -136 V
29 141 V
29 -24 V
29 29 V
28 -36 V
29 46 V
29 -56 V
29 14 V
29 -5 V
28 -30 V
29 -16 V
29 31 V
29 46 V
28 28 V
29 -32 V
29 39 V
29 -283 V
28 302 V
29 3 V
29 15 V
29 -25 V
29 -24 V
28 -45 V
29 92 V
29 -91 V
29 94 V
28 8 V
29 -71 V
29 5 V
29 61 V
28 -104 V
29 76 V
29 18 V
29 2 V
29 -35 V
28 10 V
29 -62 V
29 40 V
29 17 V
28 -13 V
29 39 V
29 -54 V
29 56 V
28 19 V
stroke 4012 3957 M
29 -48 V
29 -102 V
29 116 V
28 63 V
29 -56 V
29 -6 V
29 -145 V
29 177 V
28 -55 V
29 -83 V
29 81 V
29 -47 V
28 52 V
29 27 V
29 -84 V
29 39 V
28 5 V
29 -56 V
29 88 V
29 18 V
29 15 V
28 -5 V
29 -63 V
29 -22 V
29 32 V
28 17 V
29 4 V
29 -40 V
29 -24 V
28 -13 V
29 57 V
29 -51 V
29 107 V
29 -9 V
28 -12 V
29 1 V
29 36 V
29 -54 V
28 39 V
29 -49 V
29 32 V
29 30 V
28 -81 V
29 73 V
29 -103 V
29 38 V
29 -26 V
28 2 V
29 59 V
29 -61 V
29 27 V
28 5 V
29 -21 V
29 -62 V
29 62 V
28 -37 V
29 72 V
29 26 V
29 -63 V
29 21 V
28 32 V
29 -83 V
29 137 V
29 -66 V
28 -10 V
29 -69 V
29 -13 V
29 121 V
28 -41 V
29 -84 V
29 66 V
29 -39 V
29 76 V
28 -54 V
29 13 V
29 -93 V
29 58 V
28 74 V
29 -17 V
29 -113 V
29 97 V
28 35 V
29 -4 V
29 -33 V
29 -28 V
29 -53 V
28 135 V
29 -51 V
29 79 V
29 -57 V
28 24 V
29 -5 V
29 -80 V
29 49 V
28 38 V
29 -37 V
29 0 V
stroke
LT0
0.27 0.31 0.31 C LTb
LT0
0.27 0.31 0.31 C 5948 877 M
591 0 V
1078 3151 M
29 0 V
29 346 V
28 0 V
29 0 V
29 0 V
29 110 V
28 0 V
29 0 V
29 187 V
29 12 V
28 0 V
29 0 V
29 0 V
29 0 V
29 0 V
28 0 V
29 0 V
29 0 V
29 4 V
28 0 V
29 0 V
29 0 V
29 69 V
28 0 V
29 0 V
29 0 V
29 4 V
29 82 V
28 0 V
29 0 V
29 0 V
29 0 V
28 0 V
29 0 V
29 0 V
29 0 V
28 0 V
29 0 V
29 0 V
29 0 V
29 0 V
28 0 V
29 0 V
29 0 V
29 0 V
28 0 V
29 0 V
29 0 V
29 0 V
28 0 V
29 0 V
29 0 V
29 0 V
29 0 V
28 0 V
29 0 V
29 0 V
29 0 V
28 0 V
29 0 V
29 0 V
29 0 V
28 0 V
29 0 V
29 0 V
29 0 V
29 45 V
28 0 V
29 0 V
29 0 V
29 0 V
28 0 V
29 0 V
29 0 V
29 0 V
28 0 V
29 0 V
29 0 V
29 0 V
29 0 V
28 0 V
29 0 V
29 0 V
29 4 V
28 0 V
29 0 V
29 0 V
29 0 V
28 0 V
29 0 V
29 0 V
29 0 V
29 0 V
28 0 V
29 0 V
29 0 V
29 0 V
28 0 V
29 0 V
29 0 V
29 0 V
28 0 V
stroke 4012 4014 M
29 0 V
29 0 V
29 0 V
28 0 V
29 0 V
29 0 V
29 0 V
29 0 V
28 0 V
29 0 V
29 0 V
29 0 V
28 0 V
29 0 V
29 0 V
29 0 V
28 0 V
29 0 V
29 0 V
29 0 V
29 0 V
28 0 V
29 0 V
29 0 V
29 0 V
28 0 V
29 0 V
29 0 V
29 0 V
28 0 V
29 0 V
29 0 V
29 0 V
29 0 V
28 0 V
29 0 V
29 0 V
29 0 V
28 0 V
29 0 V
29 0 V
29 0 V
28 0 V
29 0 V
29 0 V
29 0 V
29 0 V
28 0 V
29 0 V
29 0 V
29 0 V
28 0 V
29 0 V
29 0 V
29 0 V
28 0 V
29 0 V
29 0 V
29 0 V
29 0 V
28 0 V
29 0 V
29 0 V
29 0 V
28 0 V
29 0 V
29 0 V
29 0 V
28 0 V
29 0 V
29 0 V
29 0 V
29 0 V
28 0 V
29 0 V
29 0 V
29 0 V
28 0 V
29 0 V
29 0 V
29 0 V
28 0 V
29 0 V
29 0 V
29 0 V
29 0 V
28 0 V
29 0 V
29 0 V
29 0 V
28 0 V
29 0 V
29 0 V
29 0 V
28 0 V
29 0 V
29 0 V
stroke
1.000 UL
LTb
1078 4775 N
0 -4071 V
5725 0 V
0 4071 V
-5725 0 V
Z stroke
1.000 UP
1.000 UL
LTb
stroke
grestore
end
showpage
%%Trailer
