%!PS-Adobe-2.0 EPSF-2.0
%%Title: nonrandom2.tex
%%Creator: gnuplot 4.6 patchlevel 3
%%CreationDate: Wed Apr  2 16:36:30 2014
%%DocumentFonts: 
%%BoundingBox: 50 50 410 302
%%EndComments
%%BeginProlog
/gnudict 256 dict def
gnudict begin
%
% The following true/false flags may be edited by hand if desired.
% The unit line width and grayscale image gamma correction may also be changed.
%
/Color false def
/Blacktext true def
/Solid false def
/Dashlength 1 def
/Landscape false def
/Level1 false def
/Rounded false def
/ClipToBoundingBox false def
/SuppressPDFMark false def
/TransparentPatterns false def
/gnulinewidth 5.000 def
/userlinewidth gnulinewidth def
/Gamma 1.0 def
/BackgroundColor {-1.000 -1.000 -1.000} def
%
/vshift -73 def
/dl1 {
  10.0 Dashlength mul mul
  Rounded { currentlinewidth 0.75 mul sub dup 0 le { pop 0.01 } if } if
} def
/dl2 {
  10.0 Dashlength mul mul
  Rounded { currentlinewidth 0.75 mul add } if
} def
/hpt_ 31.5 def
/vpt_ 31.5 def
/hpt hpt_ def
/vpt vpt_ def
/doclip {
  ClipToBoundingBox {
    newpath 50 50 moveto 410 50 lineto 410 302 lineto 50 302 lineto closepath
    clip
  } if
} def
%
% Gnuplot Prolog Version 4.6 (September 2012)
%
%/SuppressPDFMark true def
%
/M {moveto} bind def
/L {lineto} bind def
/R {rmoveto} bind def
/V {rlineto} bind def
/N {newpath moveto} bind def
/Z {closepath} bind def
/C {setrgbcolor} bind def
/f {rlineto fill} bind def
/g {setgray} bind def
/Gshow {show} def   % May be redefined later in the file to support UTF-8
/vpt2 vpt 2 mul def
/hpt2 hpt 2 mul def
/Lshow {currentpoint stroke M 0 vshift R 
	Blacktext {gsave 0 setgray show grestore} {show} ifelse} def
/Rshow {currentpoint stroke M dup stringwidth pop neg vshift R
	Blacktext {gsave 0 setgray show grestore} {show} ifelse} def
/Cshow {currentpoint stroke M dup stringwidth pop -2 div vshift R 
	Blacktext {gsave 0 setgray show grestore} {show} ifelse} def
/UP {dup vpt_ mul /vpt exch def hpt_ mul /hpt exch def
  /hpt2 hpt 2 mul def /vpt2 vpt 2 mul def} def
/DL {Color {setrgbcolor Solid {pop []} if 0 setdash}
 {pop pop pop 0 setgray Solid {pop []} if 0 setdash} ifelse} def
/BL {stroke userlinewidth 2 mul setlinewidth
	Rounded {1 setlinejoin 1 setlinecap} if} def
/AL {stroke userlinewidth 2 div setlinewidth
	Rounded {1 setlinejoin 1 setlinecap} if} def
/UL {dup gnulinewidth mul /userlinewidth exch def
	dup 1 lt {pop 1} if 10 mul /udl exch def} def
/PL {stroke userlinewidth setlinewidth
	Rounded {1 setlinejoin 1 setlinecap} if} def
3.8 setmiterlimit
% Default Line colors
/LCw {1 1 1} def
/LCb {0 0 0} def
/LCa {0 0 0} def
/LC0 {1 0 0} def
/LC1 {0 1 0} def
/LC2 {0 0 1} def
/LC3 {1 0 1} def
/LC4 {0 1 1} def
/LC5 {1 1 0} def
/LC6 {0 0 0} def
/LC7 {1 0.3 0} def
/LC8 {0.5 0.5 0.5} def
% Default Line Types
/LTw {PL [] 1 setgray} def
/LTb {BL [] LCb DL} def
/LTa {AL [1 udl mul 2 udl mul] 0 setdash LCa setrgbcolor} def
/LT0 {PL [] LC0 DL} def
/LT1 {PL [4 dl1 2 dl2] LC1 DL} def
/LT2 {PL [2 dl1 3 dl2] LC2 DL} def
/LT3 {PL [1 dl1 1.5 dl2] LC3 DL} def
/LT4 {PL [6 dl1 2 dl2 1 dl1 2 dl2] LC4 DL} def
/LT5 {PL [3 dl1 3 dl2 1 dl1 3 dl2] LC5 DL} def
/LT6 {PL [2 dl1 2 dl2 2 dl1 6 dl2] LC6 DL} def
/LT7 {PL [1 dl1 2 dl2 6 dl1 2 dl2 1 dl1 2 dl2] LC7 DL} def
/LT8 {PL [2 dl1 2 dl2 2 dl1 2 dl2 2 dl1 2 dl2 2 dl1 4 dl2] LC8 DL} def
/Pnt {stroke [] 0 setdash gsave 1 setlinecap M 0 0 V stroke grestore} def
/Dia {stroke [] 0 setdash 2 copy vpt add M
  hpt neg vpt neg V hpt vpt neg V
  hpt vpt V hpt neg vpt V closepath stroke
  Pnt} def
/Pls {stroke [] 0 setdash vpt sub M 0 vpt2 V
  currentpoint stroke M
  hpt neg vpt neg R hpt2 0 V stroke
 } def
/Box {stroke [] 0 setdash 2 copy exch hpt sub exch vpt add M
  0 vpt2 neg V hpt2 0 V 0 vpt2 V
  hpt2 neg 0 V closepath stroke
  Pnt} def
/Crs {stroke [] 0 setdash exch hpt sub exch vpt add M
  hpt2 vpt2 neg V currentpoint stroke M
  hpt2 neg 0 R hpt2 vpt2 V stroke} def
/TriU {stroke [] 0 setdash 2 copy vpt 1.12 mul add M
  hpt neg vpt -1.62 mul V
  hpt 2 mul 0 V
  hpt neg vpt 1.62 mul V closepath stroke
  Pnt} def
/Star {2 copy Pls Crs} def
/BoxF {stroke [] 0 setdash exch hpt sub exch vpt add M
  0 vpt2 neg V hpt2 0 V 0 vpt2 V
  hpt2 neg 0 V closepath fill} def
/TriUF {stroke [] 0 setdash vpt 1.12 mul add M
  hpt neg vpt -1.62 mul V
  hpt 2 mul 0 V
  hpt neg vpt 1.62 mul V closepath fill} def
/TriD {stroke [] 0 setdash 2 copy vpt 1.12 mul sub M
  hpt neg vpt 1.62 mul V
  hpt 2 mul 0 V
  hpt neg vpt -1.62 mul V closepath stroke
  Pnt} def
/TriDF {stroke [] 0 setdash vpt 1.12 mul sub M
  hpt neg vpt 1.62 mul V
  hpt 2 mul 0 V
  hpt neg vpt -1.62 mul V closepath fill} def
/DiaF {stroke [] 0 setdash vpt add M
  hpt neg vpt neg V hpt vpt neg V
  hpt vpt V hpt neg vpt V closepath fill} def
/Pent {stroke [] 0 setdash 2 copy gsave
  translate 0 hpt M 4 {72 rotate 0 hpt L} repeat
  closepath stroke grestore Pnt} def
/PentF {stroke [] 0 setdash gsave
  translate 0 hpt M 4 {72 rotate 0 hpt L} repeat
  closepath fill grestore} def
/Circle {stroke [] 0 setdash 2 copy
  hpt 0 360 arc stroke Pnt} def
/CircleF {stroke [] 0 setdash hpt 0 360 arc fill} def
/C0 {BL [] 0 setdash 2 copy moveto vpt 90 450 arc} bind def
/C1 {BL [] 0 setdash 2 copy moveto
	2 copy vpt 0 90 arc closepath fill
	vpt 0 360 arc closepath} bind def
/C2 {BL [] 0 setdash 2 copy moveto
	2 copy vpt 90 180 arc closepath fill
	vpt 0 360 arc closepath} bind def
/C3 {BL [] 0 setdash 2 copy moveto
	2 copy vpt 0 180 arc closepath fill
	vpt 0 360 arc closepath} bind def
/C4 {BL [] 0 setdash 2 copy moveto
	2 copy vpt 180 270 arc closepath fill
	vpt 0 360 arc closepath} bind def
/C5 {BL [] 0 setdash 2 copy moveto
	2 copy vpt 0 90 arc
	2 copy moveto
	2 copy vpt 180 270 arc closepath fill
	vpt 0 360 arc} bind def
/C6 {BL [] 0 setdash 2 copy moveto
	2 copy vpt 90 270 arc closepath fill
	vpt 0 360 arc closepath} bind def
/C7 {BL [] 0 setdash 2 copy moveto
	2 copy vpt 0 270 arc closepath fill
	vpt 0 360 arc closepath} bind def
/C8 {BL [] 0 setdash 2 copy moveto
	2 copy vpt 270 360 arc closepath fill
	vpt 0 360 arc closepath} bind def
/C9 {BL [] 0 setdash 2 copy moveto
	2 copy vpt 270 450 arc closepath fill
	vpt 0 360 arc closepath} bind def
/C10 {BL [] 0 setdash 2 copy 2 copy moveto vpt 270 360 arc closepath fill
	2 copy moveto
	2 copy vpt 90 180 arc closepath fill
	vpt 0 360 arc closepath} bind def
/C11 {BL [] 0 setdash 2 copy moveto
	2 copy vpt 0 180 arc closepath fill
	2 copy moveto
	2 copy vpt 270 360 arc closepath fill
	vpt 0 360 arc closepath} bind def
/C12 {BL [] 0 setdash 2 copy moveto
	2 copy vpt 180 360 arc closepath fill
	vpt 0 360 arc closepath} bind def
/C13 {BL [] 0 setdash 2 copy moveto
	2 copy vpt 0 90 arc closepath fill
	2 copy moveto
	2 copy vpt 180 360 arc closepath fill
	vpt 0 360 arc closepath} bind def
/C14 {BL [] 0 setdash 2 copy moveto
	2 copy vpt 90 360 arc closepath fill
	vpt 0 360 arc} bind def
/C15 {BL [] 0 setdash 2 copy vpt 0 360 arc closepath fill
	vpt 0 360 arc closepath} bind def
/Rec {newpath 4 2 roll moveto 1 index 0 rlineto 0 exch rlineto
	neg 0 rlineto closepath} bind def
/Square {dup Rec} bind def
/Bsquare {vpt sub exch vpt sub exch vpt2 Square} bind def
/S0 {BL [] 0 setdash 2 copy moveto 0 vpt rlineto BL Bsquare} bind def
/S1 {BL [] 0 setdash 2 copy vpt Square fill Bsquare} bind def
/S2 {BL [] 0 setdash 2 copy exch vpt sub exch vpt Square fill Bsquare} bind def
/S3 {BL [] 0 setdash 2 copy exch vpt sub exch vpt2 vpt Rec fill Bsquare} bind def
/S4 {BL [] 0 setdash 2 copy exch vpt sub exch vpt sub vpt Square fill Bsquare} bind def
/S5 {BL [] 0 setdash 2 copy 2 copy vpt Square fill
	exch vpt sub exch vpt sub vpt Square fill Bsquare} bind def
/S6 {BL [] 0 setdash 2 copy exch vpt sub exch vpt sub vpt vpt2 Rec fill Bsquare} bind def
/S7 {BL [] 0 setdash 2 copy exch vpt sub exch vpt sub vpt vpt2 Rec fill
	2 copy vpt Square fill Bsquare} bind def
/S8 {BL [] 0 setdash 2 copy vpt sub vpt Square fill Bsquare} bind def
/S9 {BL [] 0 setdash 2 copy vpt sub vpt vpt2 Rec fill Bsquare} bind def
/S10 {BL [] 0 setdash 2 copy vpt sub vpt Square fill 2 copy exch vpt sub exch vpt Square fill
	Bsquare} bind def
/S11 {BL [] 0 setdash 2 copy vpt sub vpt Square fill 2 copy exch vpt sub exch vpt2 vpt Rec fill
	Bsquare} bind def
/S12 {BL [] 0 setdash 2 copy exch vpt sub exch vpt sub vpt2 vpt Rec fill Bsquare} bind def
/S13 {BL [] 0 setdash 2 copy exch vpt sub exch vpt sub vpt2 vpt Rec fill
	2 copy vpt Square fill Bsquare} bind def
/S14 {BL [] 0 setdash 2 copy exch vpt sub exch vpt sub vpt2 vpt Rec fill
	2 copy exch vpt sub exch vpt Square fill Bsquare} bind def
/S15 {BL [] 0 setdash 2 copy Bsquare fill Bsquare} bind def
/D0 {gsave translate 45 rotate 0 0 S0 stroke grestore} bind def
/D1 {gsave translate 45 rotate 0 0 S1 stroke grestore} bind def
/D2 {gsave translate 45 rotate 0 0 S2 stroke grestore} bind def
/D3 {gsave translate 45 rotate 0 0 S3 stroke grestore} bind def
/D4 {gsave translate 45 rotate 0 0 S4 stroke grestore} bind def
/D5 {gsave translate 45 rotate 0 0 S5 stroke grestore} bind def
/D6 {gsave translate 45 rotate 0 0 S6 stroke grestore} bind def
/D7 {gsave translate 45 rotate 0 0 S7 stroke grestore} bind def
/D8 {gsave translate 45 rotate 0 0 S8 stroke grestore} bind def
/D9 {gsave translate 45 rotate 0 0 S9 stroke grestore} bind def
/D10 {gsave translate 45 rotate 0 0 S10 stroke grestore} bind def
/D11 {gsave translate 45 rotate 0 0 S11 stroke grestore} bind def
/D12 {gsave translate 45 rotate 0 0 S12 stroke grestore} bind def
/D13 {gsave translate 45 rotate 0 0 S13 stroke grestore} bind def
/D14 {gsave translate 45 rotate 0 0 S14 stroke grestore} bind def
/D15 {gsave translate 45 rotate 0 0 S15 stroke grestore} bind def
/DiaE {stroke [] 0 setdash vpt add M
  hpt neg vpt neg V hpt vpt neg V
  hpt vpt V hpt neg vpt V closepath stroke} def
/BoxE {stroke [] 0 setdash exch hpt sub exch vpt add M
  0 vpt2 neg V hpt2 0 V 0 vpt2 V
  hpt2 neg 0 V closepath stroke} def
/TriUE {stroke [] 0 setdash vpt 1.12 mul add M
  hpt neg vpt -1.62 mul V
  hpt 2 mul 0 V
  hpt neg vpt 1.62 mul V closepath stroke} def
/TriDE {stroke [] 0 setdash vpt 1.12 mul sub M
  hpt neg vpt 1.62 mul V
  hpt 2 mul 0 V
  hpt neg vpt -1.62 mul V closepath stroke} def
/PentE {stroke [] 0 setdash gsave
  translate 0 hpt M 4 {72 rotate 0 hpt L} repeat
  closepath stroke grestore} def
/CircE {stroke [] 0 setdash 
  hpt 0 360 arc stroke} def
/Opaque {gsave closepath 1 setgray fill grestore 0 setgray closepath} def
/DiaW {stroke [] 0 setdash vpt add M
  hpt neg vpt neg V hpt vpt neg V
  hpt vpt V hpt neg vpt V Opaque stroke} def
/BoxW {stroke [] 0 setdash exch hpt sub exch vpt add M
  0 vpt2 neg V hpt2 0 V 0 vpt2 V
  hpt2 neg 0 V Opaque stroke} def
/TriUW {stroke [] 0 setdash vpt 1.12 mul add M
  hpt neg vpt -1.62 mul V
  hpt 2 mul 0 V
  hpt neg vpt 1.62 mul V Opaque stroke} def
/TriDW {stroke [] 0 setdash vpt 1.12 mul sub M
  hpt neg vpt 1.62 mul V
  hpt 2 mul 0 V
  hpt neg vpt -1.62 mul V Opaque stroke} def
/PentW {stroke [] 0 setdash gsave
  translate 0 hpt M 4 {72 rotate 0 hpt L} repeat
  Opaque stroke grestore} def
/CircW {stroke [] 0 setdash 
  hpt 0 360 arc Opaque stroke} def
/BoxFill {gsave Rec 1 setgray fill grestore} def
/Density {
  /Fillden exch def
  currentrgbcolor
  /ColB exch def /ColG exch def /ColR exch def
  /ColR ColR Fillden mul Fillden sub 1 add def
  /ColG ColG Fillden mul Fillden sub 1 add def
  /ColB ColB Fillden mul Fillden sub 1 add def
  ColR ColG ColB setrgbcolor} def
/BoxColFill {gsave Rec PolyFill} def
/PolyFill {gsave Density fill grestore grestore} def
/h {rlineto rlineto rlineto gsave closepath fill grestore} bind def
%
% PostScript Level 1 Pattern Fill routine for rectangles
% Usage: x y w h s a XX PatternFill
%	x,y = lower left corner of box to be filled
%	w,h = width and height of box
%	  a = angle in degrees between lines and x-axis
%	 XX = 0/1 for no/yes cross-hatch
%
/PatternFill {gsave /PFa [ 9 2 roll ] def
  PFa 0 get PFa 2 get 2 div add PFa 1 get PFa 3 get 2 div add translate
  PFa 2 get -2 div PFa 3 get -2 div PFa 2 get PFa 3 get Rec
  TransparentPatterns {} {gsave 1 setgray fill grestore} ifelse
  clip
  currentlinewidth 0.5 mul setlinewidth
  /PFs PFa 2 get dup mul PFa 3 get dup mul add sqrt def
  0 0 M PFa 5 get rotate PFs -2 div dup translate
  0 1 PFs PFa 4 get div 1 add floor cvi
	{PFa 4 get mul 0 M 0 PFs V} for
  0 PFa 6 get ne {
	0 1 PFs PFa 4 get div 1 add floor cvi
	{PFa 4 get mul 0 2 1 roll M PFs 0 V} for
 } if
  stroke grestore} def
%
/languagelevel where
 {pop languagelevel} {1} ifelse
 2 lt
	{/InterpretLevel1 true def}
	{/InterpretLevel1 Level1 def}
 ifelse
%
% PostScript level 2 pattern fill definitions
%
/Level2PatternFill {
/Tile8x8 {/PaintType 2 /PatternType 1 /TilingType 1 /BBox [0 0 8 8] /XStep 8 /YStep 8}
	bind def
/KeepColor {currentrgbcolor [/Pattern /DeviceRGB] setcolorspace} bind def
<< Tile8x8
 /PaintProc {0.5 setlinewidth pop 0 0 M 8 8 L 0 8 M 8 0 L stroke} 
>> matrix makepattern
/Pat1 exch def
<< Tile8x8
 /PaintProc {0.5 setlinewidth pop 0 0 M 8 8 L 0 8 M 8 0 L stroke
	0 4 M 4 8 L 8 4 L 4 0 L 0 4 L stroke}
>> matrix makepattern
/Pat2 exch def
<< Tile8x8
 /PaintProc {0.5 setlinewidth pop 0 0 M 0 8 L
	8 8 L 8 0 L 0 0 L fill}
>> matrix makepattern
/Pat3 exch def
<< Tile8x8
 /PaintProc {0.5 setlinewidth pop -4 8 M 8 -4 L
	0 12 M 12 0 L stroke}
>> matrix makepattern
/Pat4 exch def
<< Tile8x8
 /PaintProc {0.5 setlinewidth pop -4 0 M 8 12 L
	0 -4 M 12 8 L stroke}
>> matrix makepattern
/Pat5 exch def
<< Tile8x8
 /PaintProc {0.5 setlinewidth pop -2 8 M 4 -4 L
	0 12 M 8 -4 L 4 12 M 10 0 L stroke}
>> matrix makepattern
/Pat6 exch def
<< Tile8x8
 /PaintProc {0.5 setlinewidth pop -2 0 M 4 12 L
	0 -4 M 8 12 L 4 -4 M 10 8 L stroke}
>> matrix makepattern
/Pat7 exch def
<< Tile8x8
 /PaintProc {0.5 setlinewidth pop 8 -2 M -4 4 L
	12 0 M -4 8 L 12 4 M 0 10 L stroke}
>> matrix makepattern
/Pat8 exch def
<< Tile8x8
 /PaintProc {0.5 setlinewidth pop 0 -2 M 12 4 L
	-4 0 M 12 8 L -4 4 M 8 10 L stroke}
>> matrix makepattern
/Pat9 exch def
/Pattern1 {PatternBgnd KeepColor Pat1 setpattern} bind def
/Pattern2 {PatternBgnd KeepColor Pat2 setpattern} bind def
/Pattern3 {PatternBgnd KeepColor Pat3 setpattern} bind def
/Pattern4 {PatternBgnd KeepColor Landscape {Pat5} {Pat4} ifelse setpattern} bind def
/Pattern5 {PatternBgnd KeepColor Landscape {Pat4} {Pat5} ifelse setpattern} bind def
/Pattern6 {PatternBgnd KeepColor Landscape {Pat9} {Pat6} ifelse setpattern} bind def
/Pattern7 {PatternBgnd KeepColor Landscape {Pat8} {Pat7} ifelse setpattern} bind def
} def
%
%
%End of PostScript Level 2 code
%
/PatternBgnd {
  TransparentPatterns {} {gsave 1 setgray fill grestore} ifelse
} def
%
% Substitute for Level 2 pattern fill codes with
% grayscale if Level 2 support is not selected.
%
/Level1PatternFill {
/Pattern1 {0.250 Density} bind def
/Pattern2 {0.500 Density} bind def
/Pattern3 {0.750 Density} bind def
/Pattern4 {0.125 Density} bind def
/Pattern5 {0.375 Density} bind def
/Pattern6 {0.625 Density} bind def
/Pattern7 {0.875 Density} bind def
} def
%
% Now test for support of Level 2 code
%
Level1 {Level1PatternFill} {Level2PatternFill} ifelse
%
/Symbol-Oblique /Symbol findfont [1 0 .167 1 0 0] makefont
dup length dict begin {1 index /FID eq {pop pop} {def} ifelse} forall
currentdict end definefont pop
Level1 SuppressPDFMark or 
{} {
/SDict 10 dict def
systemdict /pdfmark known not {
  userdict /pdfmark systemdict /cleartomark get put
} if
SDict begin [
  /Title (nonrandom2.tex)
  /Subject (gnuplot plot)
  /Creator (gnuplot 4.6 patchlevel 3)
  /Author (mg)
%  /Producer (gnuplot)
%  /Keywords ()
  /CreationDate (Wed Apr  2 16:36:30 2014)
  /DOCINFO pdfmark
end
} ifelse
end
%%EndProlog
%%Page: 1 1
gnudict begin
gsave
doclip
50 50 translate
0.050 0.050 scale
0 setgray
newpath
1.000 UL
LTb
1078 704 M
5725 0 R
1078 1111 M
5725 0 R
1078 1518 M
5725 0 R
1078 1925 M
5725 0 R
1078 2332 M
5725 0 R
1078 2740 M
5725 0 R
1078 3147 M
5725 0 R
1078 3554 M
5725 0 R
1078 3961 M
5725 0 R
1078 4368 M
5725 0 R
1078 4775 M
5725 0 R
1078 704 M
0 4071 R
1653 704 M
0 4071 R
2229 704 M
0 4071 R
2804 704 M
0 4071 R
3380 704 M
0 4071 R
3955 704 M
0 4071 R
4530 704 M
0 4071 R
5106 704 M
0 4071 R
5681 704 M
0 4071 R
6256 704 M
0 4071 R
stroke
1078 4775 N
0 -4071 V
5725 0 V
0 4071 V
-5725 0 V
Z stroke
1.000 UP
1.000 UL
LTb
1.000 UL
LT0
0.76 0.83 0.85 C LTb
LT0
0.76 0.83 0.85 C 1.000 5948 1262 591 110 BoxColFill
5948 1262 N
591 0 V
0 110 V
-591 0 V
0 -110 V
Z stroke
LT0
0.76 0.83 0.85 C 1078 989 N 0 -1028 29 462 0 846 h
1107 1269 N 0 -1006 29 333 0 1028 h
1136 1624 N 0 -1191 28 192 0 1006 h
1164 1631 N 0 -1259 29 35 0 1191 h
1193 1598 N 0 -1345 29 386 0 1259 h
1222 1898 N 0 -1219 29 323 0 1345 h
1251 2347 N 0 -1854 28 144 0 1219 h
1279 1856 N 0 -1425 29 346 0 1854 h
1308 2631 N 0 -910 29 -68 0 1425 h
1337 3078 N 0 -1036 29 122 0 910 h
1366 3074 N 0 -650 28 -19 0 1036 h
1394 3441 N 0 -711 29 34 0 650 h
1423 3414 N 0 -753 29 87 0 711 h
1452 3459 N 0 -989 29 96 0 753 h
1481 3319 N 0 -1191 29 6 0 989 h
1510 3123 N 0 -1432 28 48 0 1191 h
1538 2930 N 0 -790 29 -96 0 1432 h
1567 3476 N 0 -970 29 28 0 790 h
1596 3324 N 0 -895 29 39 0 970 h
1625 3438 N 0 -962 28 25 0 895 h
1653 3396 N 0 -828 29 -57 0 962 h
1682 3473 N 0 -690 29 -102 0 828 h
1711 3509 N 0 -744 29 95 0 690 h
1740 3550 N 0 -877 28 36 0 744 h
1768 3453 N 0 -1193 29 -2 0 877 h
1797 3135 N 0 -954 29 -11 0 1193 h
1826 3363 N 0 -798 29 -16 0 954 h
1855 3503 N 0 -815 29 12 0 798 h
1884 3498 N 0 -948 28 65 0 815 h
1912 3430 N 0 -1014 29 14 0 948 h
1941 3378 N 0 -1041 29 -38 0 1014 h
1970 3313 N 0 -1094 29 42 0 1041 h
1999 3302 N 0 -840 28 -83 0 1094 h
2027 3473 N 0 -718 29 -15 0 840 h
2056 3580 N 0 -1050 29 79 0 718 h
2085 3327 N 0 -1062 29 -10 0 1050 h
2114 3305 N 0 -851 28 -58 0 1062 h
2142 3458 N 0 -778 29 6 0 851 h
2171 3537 N 0 -697 29 -19 0 778 h
2200 3599 N 0 -797 29 1 0 697 h
2229 3500 N 0 -557 29 -70 0 797 h
2258 3670 N 0 -1128 28 140 0 557 h
2286 3239 N 0 -483 29 -151 0 1128 h
2315 3733 N 0 -1212 29 217 0 483 h
2344 3221 N 0 -886 29 -105 0 1212 h
2373 3442 N 0 -1207 28 67 0 886 h
2401 3188 N 0 -732 29 -95 0 1207 h
2430 3568 N 0 -975 29 96 0 732 h
2459 3421 N 0 -1023 29 -26 0 975 h
2488 3347 N 0 -930 28 -52 0 1023 h
2516 3388 N 0 -781 29 -36 0 930 h
2545 3501 N 0 -1133 29 110 0 781 h
2574 3259 N 0 -888 29 -64 0 1133 h
2603 3440 N 0 -834 29 -6 0 888 h
2632 3488 N 0 -609 28 -77 0 834 h
2660 3636 N 0 -962 29 94 0 609 h
2689 3377 N 0 -683 29 -68 0 962 h
2718 3588 N 0 -890 29 65 0 683 h
2747 3446 N 0 -616 28 -57 0 890 h
2775 3663 N 0 -968 29 87 0 616 h
2804 3398 N 0 -871 29 -30 0 968 h
2833 3465 N 0 -967 29 30 0 871 h
2862 3399 N 0 -966 28 3 0 967 h
2890 3403 N 0 -1053 29 4 0 966 h
2919 3320 N 0 -714 29 -59 0 1053 h
2948 3600 N 0 -767 29 5 0 714 h
2977 3552 N 0 -931 29 14 0 767 h
3006 3402 N 0 -750 28 -31 0 931 h
3034 3552 N 0 -697 29 -18 0 750 h
3063 3587 N 0 -899 29 72 0 697 h
3092 3457 N 0 -994 29 24 0 899 h
3121 3386 N 0 -945 28 -7 0 994 h
3149 3428 N 0 -809 29 -56 0 945 h
3178 3508 N 0 -752 29 -30 0 809 h
3207 3535 N 0 -945 29 41 0 752 h
3236 3383 N 0 -1000 28 33 0 945 h
3264 3361 N 0 -1093 29 21 0 1000 h
3293 3289 N 0 -324 29 -223 0 1093 h
3322 3835 N 0 -1049 29 266 0 324 h
3351 3376 N 0 -879 29 -56 0 1049 h
3380 3490 N 0 -854 28 -37 0 879 h
3408 3478 N 0 -773 29 -19 0 854 h
3437 3540 N 0 -1027 29 52 0 773 h
3466 3338 N 0 -978 29 -23 0 1027 h
3495 3364 N 0 -666 28 -56 0 978 h
3523 3620 N 0 -873 29 87 0 666 h
3552 3500 N 0 -816 29 -62 0 873 h
3581 3495 N 0 -592 29 -24 0 816 h
3610 3695 N 0 -577 28 -40 0 592 h
3638 3670 N 0 -737 29 35 0 577 h
3667 3545 N 0 -990 29 45 0 737 h
3696 3337 N 0 -937 29 1 0 990 h
3725 3391 N 0 -967 29 25 0 937 h
3754 3386 N 0 -1045 28 -4 0 967 h
3782 3304 N 0 -645 29 -68 0 1045 h
3811 3636 N 0 -936 29 75 0 645 h
3840 3420 N 0 -1213 29 41 0 936 h
3869 3184 N 0 -903 28 -74 0 1213 h
3897 3420 N 0 -488 29 -107 0 903 h
3926 3728 N 0 -902 29 126 0 488 h
3955 3440 N 0 -617 29 -90 0 902 h
3984 3635 N 0 -873 28 77 0 617 h
4012 3456 N 0 -1318 29 122 0 873 h
4041 3133 N 0 -729 29 -137 0 1318 h
4070 3585 N 0 -1380 29 161 0 729 h
4099 3095 N 0 -916 28 -140 0 1380 h
4127 3419 N 0 -1310 29 113 0 916 h
4156 3138 N 0 -909 29 -92 0 1310 h
4185 3447 N 0 -708 29 -58 0 909 h
4214 3590 N 0 -1019 29 60 0 708 h
4243 3339 N 0 -506 28 -114 0 1019 h
4271 3738 N 0 -923 29 99 0 506 h
4300 3420 N 0 -605 29 -68 0 923 h
4329 3670 N 0 -700 29 -4 0 605 h
4358 3571 N 0 -939 28 93 0 700 h
4386 3425 N 0 -987 29 -7 0 939 h
4415 3370 N 0 -985 29 19 0 987 h
4444 3391 N 0 -1334 29 56 0 985 h
4473 3098 N 0 -735 28 -135 0 1334 h
4501 3562 N 0 -911 29 62 0 735 h
4530 3448 N 0 -1057 29 23 0 911 h
4559 3325 N 0 -945 29 -24 0 1057 h
4588 3413 N 0 -947 29 19 0 945 h
4617 3430 N 0 -949 28 -19 0 947 h
4645 3409 N 0 -1103 29 53 0 949 h
4674 3308 N 0 -780 29 -91 0 1103 h
4703 3540 N 0 -1000 29 29 0 780 h
4732 3349 N 0 -611 28 -99 0 1000 h
4760 3639 N 0 -920 29 93 0 611 h
4789 3423 N 0 -842 29 -64 0 920 h
4818 3437 N 0 -896 29 36 0 842 h
4847 3419 N 0 -1180 28 75 0 896 h
4875 3210 N 0 -1271 29 31 0 1180 h
4904 3150 N 0 -729 29 -131 0 1271 h
4933 3561 N 0 -1132 29 102 0 729 h
4962 3260 N 0 -679 29 -118 0 1132 h
4991 3595 N 0 -934 28 101 0 679 h
5019 3441 N 0 -789 29 -54 0 934 h
5048 3532 N 0 -937 29 61 0 789 h
5077 3445 N 0 -690 29 -87 0 937 h
5106 3605 N 0 -429 28 -92 0 690 h
5134 3774 N 0 -1005 29 169 0 429 h
5163 3367 N 0 -783 29 -44 0 1005 h
5192 3545 N 0 -784 29 4 0 783 h
5221 3548 N 0 -898 28 29 0 784 h
5249 3463 N 0 -902 29 -15 0 898 h
5278 3444 N 0 -782 29 -28 0 902 h
5307 3536 N 0 -454 29 -114 0 782 h
5336 3750 N 0 -581 29 33 0 454 h
5365 3656 N 0 -998 28 133 0 581 h
5393 3372 N 0 -668 29 -74 0 998 h
5422 3628 N 0 -701 29 -7 0 668 h
5451 3588 N 0 -946 29 49 0 701 h
5480 3392 N 0 -779 28 -2 0 946 h
5508 3557 N 0 -1043 29 70 0 779 h
5537 3363 N 0 -651 29 -119 0 1043 h
5566 3636 N 0 -875 29 23 0 651 h
5595 3435 N 0 -1039 28 71 0 875 h
5623 3342 N 0 -805 29 -55 0 1039 h
5652 3521 N 0 -792 29 1 0 805 h
5681 3535 N 0 -849 29 23 0 792 h
5710 3501 N 0 -779 29 -4 0 849 h
5739 3567 N 0 -693 28 -38 0 779 h
5767 3615 N 0 -678 29 -8 0 693 h
5796 3622 N 0 -951 29 41 0 678 h
5825 3390 N 0 -805 29 -40 0 951 h
5854 3496 N 0 -1027 28 79 0 805 h
5882 3353 N 0 -1059 29 13 0 1027 h
5911 3334 N 0 -933 29 -44 0 1059 h
5940 3416 N 0 -728 29 -53 0 933 h
5969 3568 N 0 -1246 28 142 0 728 h
5997 3192 N 0 -659 29 -175 0 1246 h
6026 3604 N 0 -971 29 99 0 659 h
6055 3391 N 0 -773 29 -48 0 971 h
6084 3541 N 0 -857 29 24 0 773 h
6113 3481 N 0 -454 28 -141 0 857 h
6141 3743 N 0 -732 29 93 0 454 h
6170 3558 N 0 -908 29 75 0 732 h
6199 3457 N 0 -628 29 -95 0 908 h
6228 3642 N 0 -762 28 49 0 628 h
6256 3557 N 0 -813 29 25 0 762 h
6285 3531 N 0 -875 29 25 0 813 h
6314 3494 N 0 -1246 29 61 0 875 h
6343 3184 N 0 -794 28 -108 0 1246 h
6371 3528 N 0 -778 29 -29 0 794 h
6400 3515 N 0 -1243 29 144 0 778 h
6429 3194 N 0 -923 29 -82 0 1243 h
6458 3432 N 0 -902 29 -21 0 923 h
6487 3432 N 0 -806 28 5 0 902 h
6515 3533 N 0 -1053 29 41 0 806 h
6544 3327 N 0 -653 29 -95 0 1053 h
6573 3632 N 0 -1203 29 102 0 653 h
6602 3184 N 0 -840 28 -51 0 1203 h
6630 3496 N 0 -947 29 26 0 840 h
6659 3415 N 0 -734 29 -85 0 947 h
6688 3543 N 0 -855 29 54 0 734 h
6717 3476 N 0 -853 28 -36 0 855 h
6745 3442 N 0 -1163 29 95 0 853 h
6774 3227 N 0 -1002 29 14 0 1163 h
3.000 UL
LT0
0.47 0.60 0.71 C LTb
LT0
0.47 0.60 0.71 C 5948 1097 M
591 0 V
1078 1412 M
29 371 V
29 344 V
28 100 V
29 1 V
29 342 V
29 386 V
28 -173 V
29 560 V
29 190 V
29 59 V
28 174 V
29 3 V
29 66 V
29 -22 V
29 -95 V
28 -72 V
29 225 V
29 -62 V
29 76 V
28 -8 V
29 10 V
29 -33 V
29 68 V
28 -30 V
29 -160 V
29 108 V
29 62 V
29 4 V
28 -2 V
29 -19 V
29 -52 V
29 16 V
28 44 V
29 46 V
29 -87 V
29 -16 V
28 47 V
29 43 V
29 21 V
29 -48 V
29 49 V
28 -145 V
29 171 V
29 -147 V
29 58 V
28 -94 V
29 143 V
29 -26 V
29 -50 V
28 -5 V
29 39 V
29 -66 V
29 58 V
29 21 V
28 35 V
29 -82 V
29 72 V
29 -39 V
28 80 V
29 -89 V
29 18 V
29 -17 V
28 3 V
29 -40 V
29 111 V
29 -21 V
29 -69 V
28 60 V
29 9 V
29 -30 V
29 -23 V
28 17 V
29 12 V
29 -1 V
29 -56 V
28 6 V
29 -26 V
29 162 V
29 -96 V
29 28 V
28 -24 V
29 22 V
29 -75 V
29 1 V
28 100 V
29 -16 V
29 -34 V
29 88 V
28 -32 V
29 -45 V
29 -82 V
29 27 V
29 11 V
28 -43 V
29 132 V
29 -71 V
29 -97 V
28 80 V
29 101 V
29 -81 V
29 53 V
28 -52 V
stroke 4012 3892 M
29 -100 V
29 157 V
29 -164 V
28 92 V
29 -84 V
29 109 V
29 42 V
29 -96 V
28 143 V
29 -110 V
29 92 V
29 -52 V
28 -27 V
29 -30 V
29 19 V
29 -118 V
28 164 V
29 -26 V
29 -50 V
29 32 V
29 18 V
28 -19 V
29 -24 V
29 70 V
29 -81 V
28 95 V
29 -61 V
29 -25 V
29 9 V
28 -67 V
29 -15 V
29 141 V
29 -100 V
29 108 V
28 -26 V
29 19 V
29 -14 V
29 37 V
28 38 V
29 -119 V
29 68 V
29 3 V
28 -28 V
29 -17 V
29 32 V
29 50 V
29 -30 V
28 -76 V
29 91 V
29 -24 V
29 -73 V
28 82 V
29 -63 V
29 78 V
29 -89 V
28 -11 V
29 61 V
29 8 V
29 -6 V
29 32 V
28 4 V
29 0 V
29 -95 V
29 33 V
28 -33 V
29 -2 V
29 18 V
29 50 V
28 -117 V
29 118 V
29 -56 V
29 50 V
29 -18 V
28 61 V
29 -46 V
29 -13 V
29 45 V
28 -18 V
29 -1 V
29 -6 V
29 -124 V
28 118 V
29 -21 V
29 -88 V
29 78 V
29 -11 V
28 53 V
29 -83 V
29 105 V
29 -172 V
28 130 V
29 -28 V
29 22 V
29 -6 V
28 -35 V
29 -60 V
29 94 V
stroke
LT0
0.27 0.31 0.31 C LTb
LT0
0.27 0.31 0.31 C 5948 877 M
591 0 V
1078 2915 M
29 0 V
29 0 V
28 582 V
29 264 V
29 0 V
29 65 V
28 13 V
29 154 V
29 0 V
29 25 V
28 0 V
29 8 V
29 0 V
29 0 V
29 0 V
28 0 V
29 0 V
29 0 V
29 16 V
28 0 V
29 0 V
29 0 V
29 0 V
28 0 V
29 0 V
29 0 V
29 0 V
29 0 V
28 0 V
29 0 V
29 0 V
29 0 V
28 0 V
29 0 V
29 0 V
29 0 V
28 0 V
29 0 V
29 0 V
29 0 V
29 0 V
28 0 V
29 0 V
29 0 V
29 0 V
28 0 V
29 0 V
29 0 V
29 0 V
28 0 V
29 0 V
29 0 V
29 0 V
29 0 V
28 0 V
29 0 V
29 0 V
29 0 V
28 0 V
29 0 V
29 0 V
29 0 V
28 0 V
29 0 V
29 0 V
29 0 V
29 0 V
28 0 V
29 0 V
29 0 V
29 0 V
28 0 V
29 0 V
29 0 V
29 0 V
28 0 V
29 0 V
29 0 V
29 0 V
29 0 V
28 0 V
29 0 V
29 0 V
29 0 V
28 0 V
29 0 V
29 0 V
29 0 V
28 0 V
29 0 V
29 0 V
29 0 V
29 0 V
28 0 V
29 0 V
29 0 V
29 0 V
28 0 V
29 0 V
29 0 V
29 0 V
28 0 V
stroke 4012 4042 M
29 0 V
29 0 V
29 0 V
28 0 V
29 0 V
29 0 V
29 0 V
29 0 V
28 0 V
29 0 V
29 0 V
29 0 V
28 0 V
29 0 V
29 0 V
29 0 V
28 0 V
29 0 V
29 0 V
29 0 V
29 0 V
28 0 V
29 0 V
29 0 V
29 0 V
28 0 V
29 0 V
29 0 V
29 0 V
28 0 V
29 0 V
29 0 V
29 0 V
29 0 V
28 0 V
29 0 V
29 0 V
29 0 V
28 0 V
29 0 V
29 0 V
29 0 V
28 0 V
29 0 V
29 0 V
29 0 V
29 0 V
28 0 V
29 0 V
29 0 V
29 0 V
28 0 V
29 0 V
29 0 V
29 0 V
28 0 V
29 0 V
29 0 V
29 0 V
29 0 V
28 0 V
29 0 V
29 0 V
29 0 V
28 0 V
29 0 V
29 0 V
29 0 V
28 0 V
29 0 V
29 0 V
29 0 V
29 0 V
28 0 V
29 0 V
29 0 V
29 0 V
28 0 V
29 0 V
29 0 V
29 0 V
28 0 V
29 0 V
29 0 V
29 0 V
29 0 V
28 0 V
29 0 V
29 0 V
29 0 V
28 0 V
29 0 V
29 0 V
29 0 V
28 0 V
29 0 V
29 0 V
stroke
1.000 UL
LTb
1078 4775 N
0 -4071 V
5725 0 V
0 4071 V
-5725 0 V
Z stroke
1.000 UP
1.000 UL
LTb
stroke
grestore
end
showpage
%%Trailer
