%!PS-Adobe-2.0 EPSF-2.0
%%Title: random1.tex
%%Creator: gnuplot 4.6 patchlevel 3
%%CreationDate: Wed Apr  2 16:43:47 2014
%%DocumentFonts: 
%%BoundingBox: 50 50 410 302
%%EndComments
%%BeginProlog
/gnudict 256 dict def
gnudict begin
%
% The following true/false flags may be edited by hand if desired.
% The unit line width and grayscale image gamma correction may also be changed.
%
/Color false def
/Blacktext true def
/Solid false def
/Dashlength 1 def
/Landscape false def
/Level1 false def
/Rounded false def
/ClipToBoundingBox false def
/SuppressPDFMark false def
/TransparentPatterns false def
/gnulinewidth 5.000 def
/userlinewidth gnulinewidth def
/Gamma 1.0 def
/BackgroundColor {-1.000 -1.000 -1.000} def
%
/vshift -73 def
/dl1 {
  10.0 Dashlength mul mul
  Rounded { currentlinewidth 0.75 mul sub dup 0 le { pop 0.01 } if } if
} def
/dl2 {
  10.0 Dashlength mul mul
  Rounded { currentlinewidth 0.75 mul add } if
} def
/hpt_ 31.5 def
/vpt_ 31.5 def
/hpt hpt_ def
/vpt vpt_ def
/doclip {
  ClipToBoundingBox {
    newpath 50 50 moveto 410 50 lineto 410 302 lineto 50 302 lineto closepath
    clip
  } if
} def
%
% Gnuplot Prolog Version 4.6 (September 2012)
%
%/SuppressPDFMark true def
%
/M {moveto} bind def
/L {lineto} bind def
/R {rmoveto} bind def
/V {rlineto} bind def
/N {newpath moveto} bind def
/Z {closepath} bind def
/C {setrgbcolor} bind def
/f {rlineto fill} bind def
/g {setgray} bind def
/Gshow {show} def   % May be redefined later in the file to support UTF-8
/vpt2 vpt 2 mul def
/hpt2 hpt 2 mul def
/Lshow {currentpoint stroke M 0 vshift R 
	Blacktext {gsave 0 setgray show grestore} {show} ifelse} def
/Rshow {currentpoint stroke M dup stringwidth pop neg vshift R
	Blacktext {gsave 0 setgray show grestore} {show} ifelse} def
/Cshow {currentpoint stroke M dup stringwidth pop -2 div vshift R 
	Blacktext {gsave 0 setgray show grestore} {show} ifelse} def
/UP {dup vpt_ mul /vpt exch def hpt_ mul /hpt exch def
  /hpt2 hpt 2 mul def /vpt2 vpt 2 mul def} def
/DL {Color {setrgbcolor Solid {pop []} if 0 setdash}
 {pop pop pop 0 setgray Solid {pop []} if 0 setdash} ifelse} def
/BL {stroke userlinewidth 2 mul setlinewidth
	Rounded {1 setlinejoin 1 setlinecap} if} def
/AL {stroke userlinewidth 2 div setlinewidth
	Rounded {1 setlinejoin 1 setlinecap} if} def
/UL {dup gnulinewidth mul /userlinewidth exch def
	dup 1 lt {pop 1} if 10 mul /udl exch def} def
/PL {stroke userlinewidth setlinewidth
	Rounded {1 setlinejoin 1 setlinecap} if} def
3.8 setmiterlimit
% Default Line colors
/LCw {1 1 1} def
/LCb {0 0 0} def
/LCa {0 0 0} def
/LC0 {1 0 0} def
/LC1 {0 1 0} def
/LC2 {0 0 1} def
/LC3 {1 0 1} def
/LC4 {0 1 1} def
/LC5 {1 1 0} def
/LC6 {0 0 0} def
/LC7 {1 0.3 0} def
/LC8 {0.5 0.5 0.5} def
% Default Line Types
/LTw {PL [] 1 setgray} def
/LTb {BL [] LCb DL} def
/LTa {AL [1 udl mul 2 udl mul] 0 setdash LCa setrgbcolor} def
/LT0 {PL [] LC0 DL} def
/LT1 {PL [4 dl1 2 dl2] LC1 DL} def
/LT2 {PL [2 dl1 3 dl2] LC2 DL} def
/LT3 {PL [1 dl1 1.5 dl2] LC3 DL} def
/LT4 {PL [6 dl1 2 dl2 1 dl1 2 dl2] LC4 DL} def
/LT5 {PL [3 dl1 3 dl2 1 dl1 3 dl2] LC5 DL} def
/LT6 {PL [2 dl1 2 dl2 2 dl1 6 dl2] LC6 DL} def
/LT7 {PL [1 dl1 2 dl2 6 dl1 2 dl2 1 dl1 2 dl2] LC7 DL} def
/LT8 {PL [2 dl1 2 dl2 2 dl1 2 dl2 2 dl1 2 dl2 2 dl1 4 dl2] LC8 DL} def
/Pnt {stroke [] 0 setdash gsave 1 setlinecap M 0 0 V stroke grestore} def
/Dia {stroke [] 0 setdash 2 copy vpt add M
  hpt neg vpt neg V hpt vpt neg V
  hpt vpt V hpt neg vpt V closepath stroke
  Pnt} def
/Pls {stroke [] 0 setdash vpt sub M 0 vpt2 V
  currentpoint stroke M
  hpt neg vpt neg R hpt2 0 V stroke
 } def
/Box {stroke [] 0 setdash 2 copy exch hpt sub exch vpt add M
  0 vpt2 neg V hpt2 0 V 0 vpt2 V
  hpt2 neg 0 V closepath stroke
  Pnt} def
/Crs {stroke [] 0 setdash exch hpt sub exch vpt add M
  hpt2 vpt2 neg V currentpoint stroke M
  hpt2 neg 0 R hpt2 vpt2 V stroke} def
/TriU {stroke [] 0 setdash 2 copy vpt 1.12 mul add M
  hpt neg vpt -1.62 mul V
  hpt 2 mul 0 V
  hpt neg vpt 1.62 mul V closepath stroke
  Pnt} def
/Star {2 copy Pls Crs} def
/BoxF {stroke [] 0 setdash exch hpt sub exch vpt add M
  0 vpt2 neg V hpt2 0 V 0 vpt2 V
  hpt2 neg 0 V closepath fill} def
/TriUF {stroke [] 0 setdash vpt 1.12 mul add M
  hpt neg vpt -1.62 mul V
  hpt 2 mul 0 V
  hpt neg vpt 1.62 mul V closepath fill} def
/TriD {stroke [] 0 setdash 2 copy vpt 1.12 mul sub M
  hpt neg vpt 1.62 mul V
  hpt 2 mul 0 V
  hpt neg vpt -1.62 mul V closepath stroke
  Pnt} def
/TriDF {stroke [] 0 setdash vpt 1.12 mul sub M
  hpt neg vpt 1.62 mul V
  hpt 2 mul 0 V
  hpt neg vpt -1.62 mul V closepath fill} def
/DiaF {stroke [] 0 setdash vpt add M
  hpt neg vpt neg V hpt vpt neg V
  hpt vpt V hpt neg vpt V closepath fill} def
/Pent {stroke [] 0 setdash 2 copy gsave
  translate 0 hpt M 4 {72 rotate 0 hpt L} repeat
  closepath stroke grestore Pnt} def
/PentF {stroke [] 0 setdash gsave
  translate 0 hpt M 4 {72 rotate 0 hpt L} repeat
  closepath fill grestore} def
/Circle {stroke [] 0 setdash 2 copy
  hpt 0 360 arc stroke Pnt} def
/CircleF {stroke [] 0 setdash hpt 0 360 arc fill} def
/C0 {BL [] 0 setdash 2 copy moveto vpt 90 450 arc} bind def
/C1 {BL [] 0 setdash 2 copy moveto
	2 copy vpt 0 90 arc closepath fill
	vpt 0 360 arc closepath} bind def
/C2 {BL [] 0 setdash 2 copy moveto
	2 copy vpt 90 180 arc closepath fill
	vpt 0 360 arc closepath} bind def
/C3 {BL [] 0 setdash 2 copy moveto
	2 copy vpt 0 180 arc closepath fill
	vpt 0 360 arc closepath} bind def
/C4 {BL [] 0 setdash 2 copy moveto
	2 copy vpt 180 270 arc closepath fill
	vpt 0 360 arc closepath} bind def
/C5 {BL [] 0 setdash 2 copy moveto
	2 copy vpt 0 90 arc
	2 copy moveto
	2 copy vpt 180 270 arc closepath fill
	vpt 0 360 arc} bind def
/C6 {BL [] 0 setdash 2 copy moveto
	2 copy vpt 90 270 arc closepath fill
	vpt 0 360 arc closepath} bind def
/C7 {BL [] 0 setdash 2 copy moveto
	2 copy vpt 0 270 arc closepath fill
	vpt 0 360 arc closepath} bind def
/C8 {BL [] 0 setdash 2 copy moveto
	2 copy vpt 270 360 arc closepath fill
	vpt 0 360 arc closepath} bind def
/C9 {BL [] 0 setdash 2 copy moveto
	2 copy vpt 270 450 arc closepath fill
	vpt 0 360 arc closepath} bind def
/C10 {BL [] 0 setdash 2 copy 2 copy moveto vpt 270 360 arc closepath fill
	2 copy moveto
	2 copy vpt 90 180 arc closepath fill
	vpt 0 360 arc closepath} bind def
/C11 {BL [] 0 setdash 2 copy moveto
	2 copy vpt 0 180 arc closepath fill
	2 copy moveto
	2 copy vpt 270 360 arc closepath fill
	vpt 0 360 arc closepath} bind def
/C12 {BL [] 0 setdash 2 copy moveto
	2 copy vpt 180 360 arc closepath fill
	vpt 0 360 arc closepath} bind def
/C13 {BL [] 0 setdash 2 copy moveto
	2 copy vpt 0 90 arc closepath fill
	2 copy moveto
	2 copy vpt 180 360 arc closepath fill
	vpt 0 360 arc closepath} bind def
/C14 {BL [] 0 setdash 2 copy moveto
	2 copy vpt 90 360 arc closepath fill
	vpt 0 360 arc} bind def
/C15 {BL [] 0 setdash 2 copy vpt 0 360 arc closepath fill
	vpt 0 360 arc closepath} bind def
/Rec {newpath 4 2 roll moveto 1 index 0 rlineto 0 exch rlineto
	neg 0 rlineto closepath} bind def
/Square {dup Rec} bind def
/Bsquare {vpt sub exch vpt sub exch vpt2 Square} bind def
/S0 {BL [] 0 setdash 2 copy moveto 0 vpt rlineto BL Bsquare} bind def
/S1 {BL [] 0 setdash 2 copy vpt Square fill Bsquare} bind def
/S2 {BL [] 0 setdash 2 copy exch vpt sub exch vpt Square fill Bsquare} bind def
/S3 {BL [] 0 setdash 2 copy exch vpt sub exch vpt2 vpt Rec fill Bsquare} bind def
/S4 {BL [] 0 setdash 2 copy exch vpt sub exch vpt sub vpt Square fill Bsquare} bind def
/S5 {BL [] 0 setdash 2 copy 2 copy vpt Square fill
	exch vpt sub exch vpt sub vpt Square fill Bsquare} bind def
/S6 {BL [] 0 setdash 2 copy exch vpt sub exch vpt sub vpt vpt2 Rec fill Bsquare} bind def
/S7 {BL [] 0 setdash 2 copy exch vpt sub exch vpt sub vpt vpt2 Rec fill
	2 copy vpt Square fill Bsquare} bind def
/S8 {BL [] 0 setdash 2 copy vpt sub vpt Square fill Bsquare} bind def
/S9 {BL [] 0 setdash 2 copy vpt sub vpt vpt2 Rec fill Bsquare} bind def
/S10 {BL [] 0 setdash 2 copy vpt sub vpt Square fill 2 copy exch vpt sub exch vpt Square fill
	Bsquare} bind def
/S11 {BL [] 0 setdash 2 copy vpt sub vpt Square fill 2 copy exch vpt sub exch vpt2 vpt Rec fill
	Bsquare} bind def
/S12 {BL [] 0 setdash 2 copy exch vpt sub exch vpt sub vpt2 vpt Rec fill Bsquare} bind def
/S13 {BL [] 0 setdash 2 copy exch vpt sub exch vpt sub vpt2 vpt Rec fill
	2 copy vpt Square fill Bsquare} bind def
/S14 {BL [] 0 setdash 2 copy exch vpt sub exch vpt sub vpt2 vpt Rec fill
	2 copy exch vpt sub exch vpt Square fill Bsquare} bind def
/S15 {BL [] 0 setdash 2 copy Bsquare fill Bsquare} bind def
/D0 {gsave translate 45 rotate 0 0 S0 stroke grestore} bind def
/D1 {gsave translate 45 rotate 0 0 S1 stroke grestore} bind def
/D2 {gsave translate 45 rotate 0 0 S2 stroke grestore} bind def
/D3 {gsave translate 45 rotate 0 0 S3 stroke grestore} bind def
/D4 {gsave translate 45 rotate 0 0 S4 stroke grestore} bind def
/D5 {gsave translate 45 rotate 0 0 S5 stroke grestore} bind def
/D6 {gsave translate 45 rotate 0 0 S6 stroke grestore} bind def
/D7 {gsave translate 45 rotate 0 0 S7 stroke grestore} bind def
/D8 {gsave translate 45 rotate 0 0 S8 stroke grestore} bind def
/D9 {gsave translate 45 rotate 0 0 S9 stroke grestore} bind def
/D10 {gsave translate 45 rotate 0 0 S10 stroke grestore} bind def
/D11 {gsave translate 45 rotate 0 0 S11 stroke grestore} bind def
/D12 {gsave translate 45 rotate 0 0 S12 stroke grestore} bind def
/D13 {gsave translate 45 rotate 0 0 S13 stroke grestore} bind def
/D14 {gsave translate 45 rotate 0 0 S14 stroke grestore} bind def
/D15 {gsave translate 45 rotate 0 0 S15 stroke grestore} bind def
/DiaE {stroke [] 0 setdash vpt add M
  hpt neg vpt neg V hpt vpt neg V
  hpt vpt V hpt neg vpt V closepath stroke} def
/BoxE {stroke [] 0 setdash exch hpt sub exch vpt add M
  0 vpt2 neg V hpt2 0 V 0 vpt2 V
  hpt2 neg 0 V closepath stroke} def
/TriUE {stroke [] 0 setdash vpt 1.12 mul add M
  hpt neg vpt -1.62 mul V
  hpt 2 mul 0 V
  hpt neg vpt 1.62 mul V closepath stroke} def
/TriDE {stroke [] 0 setdash vpt 1.12 mul sub M
  hpt neg vpt 1.62 mul V
  hpt 2 mul 0 V
  hpt neg vpt -1.62 mul V closepath stroke} def
/PentE {stroke [] 0 setdash gsave
  translate 0 hpt M 4 {72 rotate 0 hpt L} repeat
  closepath stroke grestore} def
/CircE {stroke [] 0 setdash 
  hpt 0 360 arc stroke} def
/Opaque {gsave closepath 1 setgray fill grestore 0 setgray closepath} def
/DiaW {stroke [] 0 setdash vpt add M
  hpt neg vpt neg V hpt vpt neg V
  hpt vpt V hpt neg vpt V Opaque stroke} def
/BoxW {stroke [] 0 setdash exch hpt sub exch vpt add M
  0 vpt2 neg V hpt2 0 V 0 vpt2 V
  hpt2 neg 0 V Opaque stroke} def
/TriUW {stroke [] 0 setdash vpt 1.12 mul add M
  hpt neg vpt -1.62 mul V
  hpt 2 mul 0 V
  hpt neg vpt 1.62 mul V Opaque stroke} def
/TriDW {stroke [] 0 setdash vpt 1.12 mul sub M
  hpt neg vpt 1.62 mul V
  hpt 2 mul 0 V
  hpt neg vpt -1.62 mul V Opaque stroke} def
/PentW {stroke [] 0 setdash gsave
  translate 0 hpt M 4 {72 rotate 0 hpt L} repeat
  Opaque stroke grestore} def
/CircW {stroke [] 0 setdash 
  hpt 0 360 arc Opaque stroke} def
/BoxFill {gsave Rec 1 setgray fill grestore} def
/Density {
  /Fillden exch def
  currentrgbcolor
  /ColB exch def /ColG exch def /ColR exch def
  /ColR ColR Fillden mul Fillden sub 1 add def
  /ColG ColG Fillden mul Fillden sub 1 add def
  /ColB ColB Fillden mul Fillden sub 1 add def
  ColR ColG ColB setrgbcolor} def
/BoxColFill {gsave Rec PolyFill} def
/PolyFill {gsave Density fill grestore grestore} def
/h {rlineto rlineto rlineto gsave closepath fill grestore} bind def
%
% PostScript Level 1 Pattern Fill routine for rectangles
% Usage: x y w h s a XX PatternFill
%	x,y = lower left corner of box to be filled
%	w,h = width and height of box
%	  a = angle in degrees between lines and x-axis
%	 XX = 0/1 for no/yes cross-hatch
%
/PatternFill {gsave /PFa [ 9 2 roll ] def
  PFa 0 get PFa 2 get 2 div add PFa 1 get PFa 3 get 2 div add translate
  PFa 2 get -2 div PFa 3 get -2 div PFa 2 get PFa 3 get Rec
  TransparentPatterns {} {gsave 1 setgray fill grestore} ifelse
  clip
  currentlinewidth 0.5 mul setlinewidth
  /PFs PFa 2 get dup mul PFa 3 get dup mul add sqrt def
  0 0 M PFa 5 get rotate PFs -2 div dup translate
  0 1 PFs PFa 4 get div 1 add floor cvi
	{PFa 4 get mul 0 M 0 PFs V} for
  0 PFa 6 get ne {
	0 1 PFs PFa 4 get div 1 add floor cvi
	{PFa 4 get mul 0 2 1 roll M PFs 0 V} for
 } if
  stroke grestore} def
%
/languagelevel where
 {pop languagelevel} {1} ifelse
 2 lt
	{/InterpretLevel1 true def}
	{/InterpretLevel1 Level1 def}
 ifelse
%
% PostScript level 2 pattern fill definitions
%
/Level2PatternFill {
/Tile8x8 {/PaintType 2 /PatternType 1 /TilingType 1 /BBox [0 0 8 8] /XStep 8 /YStep 8}
	bind def
/KeepColor {currentrgbcolor [/Pattern /DeviceRGB] setcolorspace} bind def
<< Tile8x8
 /PaintProc {0.5 setlinewidth pop 0 0 M 8 8 L 0 8 M 8 0 L stroke} 
>> matrix makepattern
/Pat1 exch def
<< Tile8x8
 /PaintProc {0.5 setlinewidth pop 0 0 M 8 8 L 0 8 M 8 0 L stroke
	0 4 M 4 8 L 8 4 L 4 0 L 0 4 L stroke}
>> matrix makepattern
/Pat2 exch def
<< Tile8x8
 /PaintProc {0.5 setlinewidth pop 0 0 M 0 8 L
	8 8 L 8 0 L 0 0 L fill}
>> matrix makepattern
/Pat3 exch def
<< Tile8x8
 /PaintProc {0.5 setlinewidth pop -4 8 M 8 -4 L
	0 12 M 12 0 L stroke}
>> matrix makepattern
/Pat4 exch def
<< Tile8x8
 /PaintProc {0.5 setlinewidth pop -4 0 M 8 12 L
	0 -4 M 12 8 L stroke}
>> matrix makepattern
/Pat5 exch def
<< Tile8x8
 /PaintProc {0.5 setlinewidth pop -2 8 M 4 -4 L
	0 12 M 8 -4 L 4 12 M 10 0 L stroke}
>> matrix makepattern
/Pat6 exch def
<< Tile8x8
 /PaintProc {0.5 setlinewidth pop -2 0 M 4 12 L
	0 -4 M 8 12 L 4 -4 M 10 8 L stroke}
>> matrix makepattern
/Pat7 exch def
<< Tile8x8
 /PaintProc {0.5 setlinewidth pop 8 -2 M -4 4 L
	12 0 M -4 8 L 12 4 M 0 10 L stroke}
>> matrix makepattern
/Pat8 exch def
<< Tile8x8
 /PaintProc {0.5 setlinewidth pop 0 -2 M 12 4 L
	-4 0 M 12 8 L -4 4 M 8 10 L stroke}
>> matrix makepattern
/Pat9 exch def
/Pattern1 {PatternBgnd KeepColor Pat1 setpattern} bind def
/Pattern2 {PatternBgnd KeepColor Pat2 setpattern} bind def
/Pattern3 {PatternBgnd KeepColor Pat3 setpattern} bind def
/Pattern4 {PatternBgnd KeepColor Landscape {Pat5} {Pat4} ifelse setpattern} bind def
/Pattern5 {PatternBgnd KeepColor Landscape {Pat4} {Pat5} ifelse setpattern} bind def
/Pattern6 {PatternBgnd KeepColor Landscape {Pat9} {Pat6} ifelse setpattern} bind def
/Pattern7 {PatternBgnd KeepColor Landscape {Pat8} {Pat7} ifelse setpattern} bind def
} def
%
%
%End of PostScript Level 2 code
%
/PatternBgnd {
  TransparentPatterns {} {gsave 1 setgray fill grestore} ifelse
} def
%
% Substitute for Level 2 pattern fill codes with
% grayscale if Level 2 support is not selected.
%
/Level1PatternFill {
/Pattern1 {0.250 Density} bind def
/Pattern2 {0.500 Density} bind def
/Pattern3 {0.750 Density} bind def
/Pattern4 {0.125 Density} bind def
/Pattern5 {0.375 Density} bind def
/Pattern6 {0.625 Density} bind def
/Pattern7 {0.875 Density} bind def
} def
%
% Now test for support of Level 2 code
%
Level1 {Level1PatternFill} {Level2PatternFill} ifelse
%
/Symbol-Oblique /Symbol findfont [1 0 .167 1 0 0] makefont
dup length dict begin {1 index /FID eq {pop pop} {def} ifelse} forall
currentdict end definefont pop
Level1 SuppressPDFMark or 
{} {
/SDict 10 dict def
systemdict /pdfmark known not {
  userdict /pdfmark systemdict /cleartomark get put
} if
SDict begin [
  /Title (random1.tex)
  /Subject (gnuplot plot)
  /Creator (gnuplot 4.6 patchlevel 3)
  /Author (mg)
%  /Producer (gnuplot)
%  /Keywords ()
  /CreationDate (Wed Apr  2 16:43:47 2014)
  /DOCINFO pdfmark
end
} ifelse
end
%%EndProlog
%%Page: 1 1
gnudict begin
gsave
doclip
50 50 translate
0.050 0.050 scale
0 setgray
newpath
1.000 UL
LTb
1078 704 M
5725 0 R
1078 1111 M
5725 0 R
1078 1518 M
5725 0 R
1078 1925 M
5725 0 R
1078 2332 M
5725 0 R
1078 2740 M
5725 0 R
1078 3147 M
5725 0 R
1078 3554 M
5725 0 R
1078 3961 M
5725 0 R
1078 4368 M
5725 0 R
1078 4775 M
5725 0 R
1078 704 M
0 4071 R
1653 704 M
0 4071 R
2229 704 M
0 4071 R
2804 704 M
0 4071 R
3380 704 M
0 4071 R
3955 704 M
0 4071 R
4530 704 M
0 4071 R
5106 704 M
0 4071 R
5681 704 M
0 4071 R
6256 704 M
0 4071 R
stroke
1078 4775 N
0 -4071 V
5725 0 V
0 4071 V
-5725 0 V
Z stroke
1.000 UP
1.000 UL
LTb
1.000 UL
LT0
0.76 0.83 0.85 C LTb
LT0
0.76 0.83 0.85 C 1.000 5948 1262 591 110 BoxColFill
5948 1262 N
591 0 V
0 110 V
-591 0 V
0 -110 V
Z stroke
LT0
0.76 0.83 0.85 C 1078 1077 N 0 -934 29 309 0 808 h
1107 1260 N 0 -954 29 161 0 934 h
1136 1401 N 0 -1150 28 358 0 954 h
1164 1563 N 0 -1209 29 955 0 1150 h
1193 2459 N 0 -891 29 -512 0 1209 h
1222 2265 N 0 -850 29 451 0 891 h
1251 2757 N 0 -579 28 -191 0 850 h
1279 2837 N 0 -1181 29 293 0 579 h
1308 2528 N 0 -514 29 -285 0 1181 h
1337 2910 N 0 -928 29 67 0 514 h
1366 2563 N 0 -971 28 476 0 928 h
1394 2996 N 0 -662 29 -64 0 971 h
1423 3241 N 0 -924 29 -333 0 662 h
1452 2646 N 0 -563 29 -406 0 924 h
1481 2601 N 0 -1012 29 205 0 563 h
1510 2357 N 0 -773 28 227 0 1012 h
1538 2823 N 0 -594 29 -109 0 773 h
1567 2893 N 0 -679 29 467 0 594 h
1596 3275 N 0 -748 29 76 0 679 h
1625 3282 N 0 -613 28 -398 0 748 h
1653 3019 N 0 -667 29 13 0 613 h
1682 2978 N 0 -820 29 472 0 667 h
1711 3297 N 0 -572 29 -636 0 820 h
1740 2909 N 0 -595 28 118 0 572 h
1768 3004 N 0 -403 29 113 0 595 h
1797 3309 N 0 -581 29 -505 0 403 h
1826 2626 N 0 -701 29 656 0 581 h
1855 3162 N 0 -552 29 -199 0 701 h
1884 3112 N 0 -513 28 338 0 552 h
1912 3489 N 0 -593 29 -520 0 513 h
1941 2889 N 0 -562 29 268 0 593 h
1970 3188 N 0 -527 29 -370 0 562 h
1999 2853 N 0 -337 28 117 0 527 h
2027 3160 N 0 -354 29 241 0 337 h
2056 3384 N 0 -378 29 -21 0 354 h
2085 3339 N 0 -395 29 -76 0 378 h
2114 3246 N 0 -304 28 -179 0 395 h
2142 3158 N 0 -430 29 -221 0 304 h
2171 2811 N 0 -920 29 695 0 430 h
2200 3016 N 0 -379 29 -171 0 920 h
2229 3386 N 0 -570 29 -322 0 379 h
2258 2873 N 0 -287 28 19 0 570 h
2286 3175 N 0 -360 29 -113 0 287 h
2315 2989 N 0 -525 29 175 0 360 h
2344 2999 N 0 -468 29 150 0 525 h
2373 3206 N 0 -920 28 397 0 468 h
2401 3151 N 0 -483 29 -599 0 920 h
2430 2989 N 0 -370 29 -14 0 483 h
2459 3088 N 0 -1120 29 -270 0 370 h
2488 2068 N 0 -772 28 414 0 1120 h
2516 2830 N 0 -663 29 33 0 772 h
2545 2972 N 0 -391 29 174 0 663 h
2574 3418 N 0 -561 29 317 0 391 h
2603 3565 N 0 -382 29 -479 0 561 h
2632 3265 N 0 -706 28 220 0 382 h
2660 3161 N 0 -504 29 103 0 706 h
2689 3466 N 0 -625 29 -19 0 504 h
2718 3326 N 0 -495 29 -418 0 625 h
2747 3038 N 0 -412 28 -79 0 495 h
2775 3042 N 0 -493 29 403 0 412 h
2804 3364 N 0 -275 29 -39 0 493 h
2833 3543 N 0 -434 29 -572 0 275 h
2862 2812 N 0 -383 28 233 0 434 h
2890 3096 N 0 -556 29 464 0 383 h
2919 3387 N 0 -438 29 -404 0 556 h
2948 3101 N 0 -380 29 519 0 438 h
2977 3678 N 0 -464 29 -591 0 380 h
3006 3003 N 0 -580 28 192 0 464 h
3034 3079 N 0 -283 29 -88 0 580 h
3063 3288 N 0 -399 29 117 0 283 h
3092 3289 N 0 -811 29 119 0 399 h
3121 2996 N 0 -472 28 -38 0 811 h
3149 3297 N 0 -413 29 -99 0 472 h
3178 3257 N 0 -415 29 -44 0 413 h
3207 3211 N 0 -454 29 421 0 415 h
3236 3593 N 0 -437 28 -112 0 454 h
3264 3498 N 0 -370 29 -568 0 437 h
3293 2997 N 0 -508 29 333 0 370 h
3322 3192 N 0 -333 29 -218 0 508 h
3351 3149 N 0 -366 29 276 0 333 h
3380 3392 N 0 -926 28 56 0 366 h
3408 2888 N 0 -494 29 210 0 926 h
3437 3530 N 0 -780 29 -379 0 494 h
3466 2865 N 0 -730 29 52 0 780 h
3495 2967 N 0 -565 28 287 0 730 h
3523 3419 N 0 -435 29 -3 0 565 h
3552 3546 N 0 -533 29 -407 0 435 h
3581 3041 N 0 -231 29 300 0 533 h
3610 3643 N 0 -364 28 23 0 231 h
3638 3533 N 0 -553 29 -546 0 364 h
3667 2798 N 0 -565 29 326 0 553 h
3696 3112 N 0 -492 29 374 0 565 h
3725 3559 N 0 -423 29 -260 0 492 h
3754 3368 N 0 -391 28 -105 0 423 h
3782 3295 N 0 -576 29 199 0 391 h
3811 3309 N 0 -487 29 -32 0 576 h
3840 3366 N 0 -560 29 55 0 487 h
3869 3348 N 0 -682 28 370 0 560 h
3897 3596 N 0 -612 29 -184 0 682 h
3926 3482 N 0 -604 29 -255 0 612 h
3955 3235 N 0 -386 29 150 0 604 h
3984 3603 N 0 -986 28 113 0 386 h
4012 3116 N 0 -643 29 -342 0 986 h
4041 3117 N 0 -573 29 478 0 643 h
4070 3665 N 0 -384 29 -394 0 573 h
4099 3460 N 0 -437 28 -4 0 384 h
4127 3403 N 0 -220 29 73 0 437 h
4156 3693 N 0 -478 29 231 0 220 h
4185 3666 N 0 -512 29 -350 0 478 h
4214 3282 N 0 -554 29 87 0 512 h
4243 3327 N 0 -443 28 -128 0 554 h
4271 3310 N 0 -686 29 271 0 443 h
4300 3338 N 0 -397 29 -199 0 686 h
4329 3428 N 0 -512 29 79 0 397 h
4358 3392 N 0 -523 28 -79 0 512 h
4386 3302 N 0 -313 29 95 0 523 h
4415 3607 N 0 -456 29 -434 0 313 h
4444 3030 N 0 -763 29 701 0 456 h
4473 3424 N 0 -1169 28 119 0 763 h
4501 3137 N 0 -589 29 -56 0 1169 h
4530 3661 N 0 -428 29 -359 0 589 h
4559 3463 N 0 -475 29 324 0 428 h
4588 3740 N 0 -833 29 196 0 475 h
4617 3578 N 0 -693 28 -309 0 833 h
4645 3409 N 0 -891 29 266 0 693 h
4674 3477 N 0 -548 29 -615 0 891 h
4703 3205 N 0 -883 29 308 0 548 h
4732 3178 N 0 -607 28 -480 0 883 h
4760 2974 N 0 -390 29 585 0 607 h
4789 3776 N 0 -355 29 -158 0 390 h
4818 3653 N 0 -244 29 293 0 355 h
4847 4057 N 0 -492 28 22 0 244 h
4875 3831 N 0 -441 29 -180 0 492 h
4904 3702 N 0 -479 29 -210 0 441 h
4933 3454 N 0 -380 29 68 0 479 h
4962 3621 N 0 -213 29 -231 0 380 h
4991 3557 N 0 -230 28 -24 0 213 h
5019 3516 N 0 -321 29 370 0 230 h
5048 3795 N 0 -301 29 -148 0 321 h
5077 3667 N 0 -169 29 -220 0 301 h
5106 3579 N 0 -533 28 339 0 169 h
5134 3554 N 0 -466 29 248 0 533 h
5163 3869 N 0 -600 29 -87 0 466 h
5192 3648 N 0 -286 29 -396 0 600 h
5221 3566 N 0 -331 28 34 0 286 h
5249 3555 N 0 -500 29 101 0 331 h
5278 3487 N 0 -461 29 -324 0 500 h
5307 3202 N 0 -532 29 244 0 461 h
5336 3375 N 0 -322 29 -86 0 532 h
5365 3499 N 0 -329 28 155 0 322 h
5393 3647 N 0 -439 29 -306 0 329 h
5422 3231 N 0 -448 29 197 0 439 h
5451 3419 N 0 -270 29 372 0 448 h
5480 3969 N 0 -246 28 -372 0 270 h
5508 3621 N 0 -451 29 96 0 246 h
5537 3512 N 0 -486 29 -28 0 451 h
5566 3449 N 0 -260 29 -147 0 486 h
5595 3528 N 0 -473 28 -418 0 260 h
5623 2897 N 0 -572 29 1118 0 473 h
5652 3916 N 0 -558 29 -421 0 572 h
5681 3509 N 0 -620 29 -164 0 558 h
5710 3283 N 0 -444 29 333 0 620 h
5739 3792 N 0 -583 28 -73 0 444 h
5767 3580 N 0 -290 29 -57 0 583 h
5796 3816 N 0 -493 29 -105 0 290 h
5825 3508 N 0 -381 29 156 0 493 h
5854 3776 N 0 -422 28 -358 0 381 h
5882 3377 N 0 -336 29 300 0 422 h
5911 3763 N 0 -384 29 157 0 336 h
5940 3872 N 0 -466 29 -323 0 384 h
5969 3467 N 0 -291 28 -21 0 466 h
5997 3621 N 0 -470 29 169 0 291 h
6026 3611 N 0 -581 29 -161 0 470 h
6055 3339 N 0 -364 29 87 0 581 h
6084 3643 N 0 -476 29 152 0 364 h
6113 3683 N 0 -223 28 -281 0 476 h
6141 3655 N 0 -194 29 -29 0 223 h
6170 3655 N 0 -324 29 -147 0 194 h
6199 3378 N 0 -109 29 -199 0 324 h
6228 3394 N 0 -264 28 104 0 109 h
6256 3343 N 0 -396 29 338 0 264 h
6285 3549 N 0 -1002 29 206 0 396 h
6314 3149 N 0 -504 29 -122 0 1002 h
6343 3525 N 0 -402 28 64 0 504 h
6371 3691 N 0 -769 29 -106 0 402 h
6400 3218 N 0 -1031 29 160 0 769 h
6429 3116 N 0 -589 29 -491 0 1031 h
6458 3067 N 0 -714 29 511 0 589 h
6487 3453 N 0 -366 28 -423 0 714 h
6515 3378 N 0 -450 29 -151 0 366 h
6544 3143 N 0 -1097 29 628 0 450 h
6573 3124 N 0 -455 29 -340 0 1097 h
6602 3426 N 0 -113 28 306 0 455 h
6630 4074 N 0 -219 29 -259 0 113 h
6659 3709 N 0 -245 29 -328 0 219 h
6688 3355 N 0 -230 29 -260 0 245 h
6717 3110 N 0 -529 28 510 0 230 h
6745 3321 N 0 -368 29 225 0 529 h
6774 3707 N 0 -331 29 31 0 368 h
3.000 UL
LT0
0.47 0.60 0.71 C LTb
LT0
0.47 0.60 0.71 C 5948 1097 M
591 0 V
1078 1481 M
29 246 V
29 151 V
28 260 V
29 925 V
29 -353 V
29 472 V
28 -56 V
29 -7 V
29 48 V
29 -140 V
28 454 V
29 91 V
29 -464 V
29 -225 V
29 -20 V
28 346 V
29 -19 V
29 425 V
29 41 V
28 -330 V
29 -14 V
29 395 V
29 -512 V
28 106 V
29 209 V
29 -594 V
29 597 V
29 -125 V
28 357 V
29 -559 V
29 283 V
29 -353 V
28 212 V
29 233 V
29 -33 V
29 -85 V
28 -133 V
29 -284 V
29 450 V
29 100 V
29 -418 V
28 160 V
29 -149 V
29 93 V
29 178 V
28 171 V
29 -380 V
29 42 V
29 -645 V
28 588 V
29 87 V
29 311 V
29 231 V
29 -389 V
28 58 V
29 204 V
29 -79 V
29 -353 V
28 -38 V
29 362 V
29 70 V
29 -651 V
28 258 V
29 378 V
29 -345 V
29 548 V
29 -633 V
28 134 V
29 60 V
29 60 V
29 -88 V
28 132 V
29 -69 V
29 -45 V
29 401 V
28 -104 V
29 -534 V
29 264 V
29 -131 V
29 260 V
28 -224 V
29 426 V
29 -522 V
29 77 V
28 369 V
29 63 V
29 -457 V
29 452 V
28 -44 V
29 -640 V
29 319 V
29 411 V
29 -225 V
28 -89 V
29 106 V
29 12 V
29 19 V
28 309 V
29 -149 V
29 -251 V
29 259 V
28 -187 V
stroke 4012 3609 M
29 -171 V
29 514 V
29 -300 V
28 -31 V
29 182 V
29 102 V
29 -367 V
29 66 V
28 -73 V
29 150 V
29 -55 V
29 22 V
28 -84 V
29 199 V
29 -505 V
29 548 V
28 -85 V
29 234 V
29 -278 V
29 301 V
29 17 V
28 -240 V
29 167 V
29 -443 V
29 140 V
28 -342 V
29 694 V
29 -141 V
29 349 V
28 -102 V
29 -154 V
29 -229 V
29 117 V
29 -148 V
28 -32 V
29 325 V
29 -138 V
29 -155 V
28 158 V
29 281 V
29 -154 V
29 -239 V
28 12 V
29 16 V
29 -304 V
29 208 V
29 19 V
28 152 V
29 -361 V
29 192 V
29 461 V
28 -360 V
29 -6 V
29 -46 V
29 -34 V
28 -525 V
29 1069 V
29 -414 V
29 -195 V
29 421 V
28 -142 V
29 89 V
29 -206 V
29 211 V
28 -378 V
29 343 V
29 133 V
29 -364 V
28 67 V
29 79 V
29 -216 V
29 195 V
29 96 V
28 -154 V
29 -15 V
29 -212 V
29 -91 V
28 26 V
29 272 V
29 -97 V
29 127 V
28 115 V
29 -289 V
29 29 V
29 -271 V
29 449 V
28 -249 V
29 -193 V
29 304 V
29 -19 V
28 478 V
29 -313 V
29 -341 V
29 -252 V
28 361 V
29 305 V
29 50 V
stroke
LT0
0.27 0.31 0.31 C LTb
LT0
0.27 0.31 0.31 C 5948 877 M
591 0 V
1078 3045 M
29 -171 V
29 20 V
28 130 V
29 807 V
29 -460 V
29 354 V
28 -253 V
29 118 V
29 -73 V
29 163 V
28 102 V
29 69 V
29 -424 V
29 -85 V
29 265 V
28 -127 V
29 196 V
29 187 V
29 37 V
28 -383 V
29 358 V
29 127 V
29 -436 V
28 -33 V
29 143 V
29 -595 V
29 668 V
29 -252 V
28 325 V
29 -472 V
29 419 V
29 -517 V
28 220 V
29 147 V
29 -4 V
29 16 V
28 -28 V
29 -102 V
29 203 V
29 224 V
29 -488 V
28 36 V
29 21 V
29 -94 V
29 265 V
28 293 V
29 -566 V
29 94 V
29 -143 V
28 228 V
29 147 V
29 154 V
29 200 V
29 -383 V
28 183 V
29 110 V
29 -4 V
29 -480 V
28 -102 V
29 322 V
29 -4 V
29 -102 V
28 110 V
29 195 V
29 -94 V
29 171 V
29 -618 V
28 191 V
29 -33 V
29 94 V
29 -16 V
28 77 V
29 134 V
29 -199 V
29 330 V
28 -25 V
29 -301 V
29 187 V
29 -240 V
29 456 V
28 -155 V
29 180 V
29 -188 V
29 -203 V
28 329 V
29 66 V
29 -534 V
29 530 V
28 -167 V
29 -351 V
29 330 V
29 163 V
29 -142 V
28 -110 V
29 228 V
29 0 V
29 -45 V
28 228 V
29 -171 V
29 -143 V
29 245 V
28 -289 V
stroke 4012 3835 M
29 -163 V
29 484 V
29 -49 V
28 -305 V
29 143 V
29 419 V
29 -440 V
29 -89 V
28 -66 V
29 355 V
29 -338 V
29 16 V
28 -24 V
29 240 V
29 -452 V
29 456 V
28 199 V
29 -175 V
29 -236 V
29 277 V
29 16 V
28 -228 V
29 261 V
29 -314 V
29 314 V
28 -513 V
29 517 V
29 -61 V
29 269 V
28 -82 V
29 -85 V
29 -302 V
29 110 V
29 -77 V
28 -208 V
29 574 V
29 -333 V
29 -41 V
28 106 V
29 252 V
29 -12 V
29 -391 V
28 41 V
29 146 V
29 -399 V
29 293 V
29 -65 V
28 110 V
29 -281 V
29 127 V
29 354 V
28 -273 V
29 65 V
29 98 V
29 -293 V
28 -220 V
29 790 V
29 -346 V
29 -269 V
29 444 V
28 77 V
29 -175 V
29 -94 V
29 57 V
28 -309 V
29 322 V
29 113 V
29 -223 V
28 69 V
29 -29 V
29 -281 V
29 180 V
29 109 V
28 -199 V
29 49 V
29 -236 V
29 0 V
28 57 V
29 183 V
29 159 V
29 4 V
28 126 V
29 -281 V
29 138 V
29 -399 V
29 416 V
28 -122 V
29 -171 V
29 354 V
29 -293 V
28 366 V
29 -203 V
29 -265 V
29 -134 V
28 378 V
29 236 V
29 -154 V
stroke
1.000 UL
LTb
1078 4775 N
0 -4071 V
5725 0 V
0 4071 V
-5725 0 V
Z stroke
1.000 UP
1.000 UL
LTb
stroke
grestore
end
showpage
%%Trailer
