%!PS-Adobe-2.0 EPSF-2.0
%%Title: random2.tex
%%Creator: gnuplot 4.6 patchlevel 3
%%CreationDate: Wed Apr  2 16:47:30 2014
%%DocumentFonts: 
%%BoundingBox: 50 50 410 302
%%EndComments
%%BeginProlog
/gnudict 256 dict def
gnudict begin
%
% The following true/false flags may be edited by hand if desired.
% The unit line width and grayscale image gamma correction may also be changed.
%
/Color false def
/Blacktext true def
/Solid false def
/Dashlength 1 def
/Landscape false def
/Level1 false def
/Rounded false def
/ClipToBoundingBox false def
/SuppressPDFMark false def
/TransparentPatterns false def
/gnulinewidth 5.000 def
/userlinewidth gnulinewidth def
/Gamma 1.0 def
/BackgroundColor {-1.000 -1.000 -1.000} def
%
/vshift -73 def
/dl1 {
  10.0 Dashlength mul mul
  Rounded { currentlinewidth 0.75 mul sub dup 0 le { pop 0.01 } if } if
} def
/dl2 {
  10.0 Dashlength mul mul
  Rounded { currentlinewidth 0.75 mul add } if
} def
/hpt_ 31.5 def
/vpt_ 31.5 def
/hpt hpt_ def
/vpt vpt_ def
/doclip {
  ClipToBoundingBox {
    newpath 50 50 moveto 410 50 lineto 410 302 lineto 50 302 lineto closepath
    clip
  } if
} def
%
% Gnuplot Prolog Version 4.6 (September 2012)
%
%/SuppressPDFMark true def
%
/M {moveto} bind def
/L {lineto} bind def
/R {rmoveto} bind def
/V {rlineto} bind def
/N {newpath moveto} bind def
/Z {closepath} bind def
/C {setrgbcolor} bind def
/f {rlineto fill} bind def
/g {setgray} bind def
/Gshow {show} def   % May be redefined later in the file to support UTF-8
/vpt2 vpt 2 mul def
/hpt2 hpt 2 mul def
/Lshow {currentpoint stroke M 0 vshift R 
	Blacktext {gsave 0 setgray show grestore} {show} ifelse} def
/Rshow {currentpoint stroke M dup stringwidth pop neg vshift R
	Blacktext {gsave 0 setgray show grestore} {show} ifelse} def
/Cshow {currentpoint stroke M dup stringwidth pop -2 div vshift R 
	Blacktext {gsave 0 setgray show grestore} {show} ifelse} def
/UP {dup vpt_ mul /vpt exch def hpt_ mul /hpt exch def
  /hpt2 hpt 2 mul def /vpt2 vpt 2 mul def} def
/DL {Color {setrgbcolor Solid {pop []} if 0 setdash}
 {pop pop pop 0 setgray Solid {pop []} if 0 setdash} ifelse} def
/BL {stroke userlinewidth 2 mul setlinewidth
	Rounded {1 setlinejoin 1 setlinecap} if} def
/AL {stroke userlinewidth 2 div setlinewidth
	Rounded {1 setlinejoin 1 setlinecap} if} def
/UL {dup gnulinewidth mul /userlinewidth exch def
	dup 1 lt {pop 1} if 10 mul /udl exch def} def
/PL {stroke userlinewidth setlinewidth
	Rounded {1 setlinejoin 1 setlinecap} if} def
3.8 setmiterlimit
% Default Line colors
/LCw {1 1 1} def
/LCb {0 0 0} def
/LCa {0 0 0} def
/LC0 {1 0 0} def
/LC1 {0 1 0} def
/LC2 {0 0 1} def
/LC3 {1 0 1} def
/LC4 {0 1 1} def
/LC5 {1 1 0} def
/LC6 {0 0 0} def
/LC7 {1 0.3 0} def
/LC8 {0.5 0.5 0.5} def
% Default Line Types
/LTw {PL [] 1 setgray} def
/LTb {BL [] LCb DL} def
/LTa {AL [1 udl mul 2 udl mul] 0 setdash LCa setrgbcolor} def
/LT0 {PL [] LC0 DL} def
/LT1 {PL [4 dl1 2 dl2] LC1 DL} def
/LT2 {PL [2 dl1 3 dl2] LC2 DL} def
/LT3 {PL [1 dl1 1.5 dl2] LC3 DL} def
/LT4 {PL [6 dl1 2 dl2 1 dl1 2 dl2] LC4 DL} def
/LT5 {PL [3 dl1 3 dl2 1 dl1 3 dl2] LC5 DL} def
/LT6 {PL [2 dl1 2 dl2 2 dl1 6 dl2] LC6 DL} def
/LT7 {PL [1 dl1 2 dl2 6 dl1 2 dl2 1 dl1 2 dl2] LC7 DL} def
/LT8 {PL [2 dl1 2 dl2 2 dl1 2 dl2 2 dl1 2 dl2 2 dl1 4 dl2] LC8 DL} def
/Pnt {stroke [] 0 setdash gsave 1 setlinecap M 0 0 V stroke grestore} def
/Dia {stroke [] 0 setdash 2 copy vpt add M
  hpt neg vpt neg V hpt vpt neg V
  hpt vpt V hpt neg vpt V closepath stroke
  Pnt} def
/Pls {stroke [] 0 setdash vpt sub M 0 vpt2 V
  currentpoint stroke M
  hpt neg vpt neg R hpt2 0 V stroke
 } def
/Box {stroke [] 0 setdash 2 copy exch hpt sub exch vpt add M
  0 vpt2 neg V hpt2 0 V 0 vpt2 V
  hpt2 neg 0 V closepath stroke
  Pnt} def
/Crs {stroke [] 0 setdash exch hpt sub exch vpt add M
  hpt2 vpt2 neg V currentpoint stroke M
  hpt2 neg 0 R hpt2 vpt2 V stroke} def
/TriU {stroke [] 0 setdash 2 copy vpt 1.12 mul add M
  hpt neg vpt -1.62 mul V
  hpt 2 mul 0 V
  hpt neg vpt 1.62 mul V closepath stroke
  Pnt} def
/Star {2 copy Pls Crs} def
/BoxF {stroke [] 0 setdash exch hpt sub exch vpt add M
  0 vpt2 neg V hpt2 0 V 0 vpt2 V
  hpt2 neg 0 V closepath fill} def
/TriUF {stroke [] 0 setdash vpt 1.12 mul add M
  hpt neg vpt -1.62 mul V
  hpt 2 mul 0 V
  hpt neg vpt 1.62 mul V closepath fill} def
/TriD {stroke [] 0 setdash 2 copy vpt 1.12 mul sub M
  hpt neg vpt 1.62 mul V
  hpt 2 mul 0 V
  hpt neg vpt -1.62 mul V closepath stroke
  Pnt} def
/TriDF {stroke [] 0 setdash vpt 1.12 mul sub M
  hpt neg vpt 1.62 mul V
  hpt 2 mul 0 V
  hpt neg vpt -1.62 mul V closepath fill} def
/DiaF {stroke [] 0 setdash vpt add M
  hpt neg vpt neg V hpt vpt neg V
  hpt vpt V hpt neg vpt V closepath fill} def
/Pent {stroke [] 0 setdash 2 copy gsave
  translate 0 hpt M 4 {72 rotate 0 hpt L} repeat
  closepath stroke grestore Pnt} def
/PentF {stroke [] 0 setdash gsave
  translate 0 hpt M 4 {72 rotate 0 hpt L} repeat
  closepath fill grestore} def
/Circle {stroke [] 0 setdash 2 copy
  hpt 0 360 arc stroke Pnt} def
/CircleF {stroke [] 0 setdash hpt 0 360 arc fill} def
/C0 {BL [] 0 setdash 2 copy moveto vpt 90 450 arc} bind def
/C1 {BL [] 0 setdash 2 copy moveto
	2 copy vpt 0 90 arc closepath fill
	vpt 0 360 arc closepath} bind def
/C2 {BL [] 0 setdash 2 copy moveto
	2 copy vpt 90 180 arc closepath fill
	vpt 0 360 arc closepath} bind def
/C3 {BL [] 0 setdash 2 copy moveto
	2 copy vpt 0 180 arc closepath fill
	vpt 0 360 arc closepath} bind def
/C4 {BL [] 0 setdash 2 copy moveto
	2 copy vpt 180 270 arc closepath fill
	vpt 0 360 arc closepath} bind def
/C5 {BL [] 0 setdash 2 copy moveto
	2 copy vpt 0 90 arc
	2 copy moveto
	2 copy vpt 180 270 arc closepath fill
	vpt 0 360 arc} bind def
/C6 {BL [] 0 setdash 2 copy moveto
	2 copy vpt 90 270 arc closepath fill
	vpt 0 360 arc closepath} bind def
/C7 {BL [] 0 setdash 2 copy moveto
	2 copy vpt 0 270 arc closepath fill
	vpt 0 360 arc closepath} bind def
/C8 {BL [] 0 setdash 2 copy moveto
	2 copy vpt 270 360 arc closepath fill
	vpt 0 360 arc closepath} bind def
/C9 {BL [] 0 setdash 2 copy moveto
	2 copy vpt 270 450 arc closepath fill
	vpt 0 360 arc closepath} bind def
/C10 {BL [] 0 setdash 2 copy 2 copy moveto vpt 270 360 arc closepath fill
	2 copy moveto
	2 copy vpt 90 180 arc closepath fill
	vpt 0 360 arc closepath} bind def
/C11 {BL [] 0 setdash 2 copy moveto
	2 copy vpt 0 180 arc closepath fill
	2 copy moveto
	2 copy vpt 270 360 arc closepath fill
	vpt 0 360 arc closepath} bind def
/C12 {BL [] 0 setdash 2 copy moveto
	2 copy vpt 180 360 arc closepath fill
	vpt 0 360 arc closepath} bind def
/C13 {BL [] 0 setdash 2 copy moveto
	2 copy vpt 0 90 arc closepath fill
	2 copy moveto
	2 copy vpt 180 360 arc closepath fill
	vpt 0 360 arc closepath} bind def
/C14 {BL [] 0 setdash 2 copy moveto
	2 copy vpt 90 360 arc closepath fill
	vpt 0 360 arc} bind def
/C15 {BL [] 0 setdash 2 copy vpt 0 360 arc closepath fill
	vpt 0 360 arc closepath} bind def
/Rec {newpath 4 2 roll moveto 1 index 0 rlineto 0 exch rlineto
	neg 0 rlineto closepath} bind def
/Square {dup Rec} bind def
/Bsquare {vpt sub exch vpt sub exch vpt2 Square} bind def
/S0 {BL [] 0 setdash 2 copy moveto 0 vpt rlineto BL Bsquare} bind def
/S1 {BL [] 0 setdash 2 copy vpt Square fill Bsquare} bind def
/S2 {BL [] 0 setdash 2 copy exch vpt sub exch vpt Square fill Bsquare} bind def
/S3 {BL [] 0 setdash 2 copy exch vpt sub exch vpt2 vpt Rec fill Bsquare} bind def
/S4 {BL [] 0 setdash 2 copy exch vpt sub exch vpt sub vpt Square fill Bsquare} bind def
/S5 {BL [] 0 setdash 2 copy 2 copy vpt Square fill
	exch vpt sub exch vpt sub vpt Square fill Bsquare} bind def
/S6 {BL [] 0 setdash 2 copy exch vpt sub exch vpt sub vpt vpt2 Rec fill Bsquare} bind def
/S7 {BL [] 0 setdash 2 copy exch vpt sub exch vpt sub vpt vpt2 Rec fill
	2 copy vpt Square fill Bsquare} bind def
/S8 {BL [] 0 setdash 2 copy vpt sub vpt Square fill Bsquare} bind def
/S9 {BL [] 0 setdash 2 copy vpt sub vpt vpt2 Rec fill Bsquare} bind def
/S10 {BL [] 0 setdash 2 copy vpt sub vpt Square fill 2 copy exch vpt sub exch vpt Square fill
	Bsquare} bind def
/S11 {BL [] 0 setdash 2 copy vpt sub vpt Square fill 2 copy exch vpt sub exch vpt2 vpt Rec fill
	Bsquare} bind def
/S12 {BL [] 0 setdash 2 copy exch vpt sub exch vpt sub vpt2 vpt Rec fill Bsquare} bind def
/S13 {BL [] 0 setdash 2 copy exch vpt sub exch vpt sub vpt2 vpt Rec fill
	2 copy vpt Square fill Bsquare} bind def
/S14 {BL [] 0 setdash 2 copy exch vpt sub exch vpt sub vpt2 vpt Rec fill
	2 copy exch vpt sub exch vpt Square fill Bsquare} bind def
/S15 {BL [] 0 setdash 2 copy Bsquare fill Bsquare} bind def
/D0 {gsave translate 45 rotate 0 0 S0 stroke grestore} bind def
/D1 {gsave translate 45 rotate 0 0 S1 stroke grestore} bind def
/D2 {gsave translate 45 rotate 0 0 S2 stroke grestore} bind def
/D3 {gsave translate 45 rotate 0 0 S3 stroke grestore} bind def
/D4 {gsave translate 45 rotate 0 0 S4 stroke grestore} bind def
/D5 {gsave translate 45 rotate 0 0 S5 stroke grestore} bind def
/D6 {gsave translate 45 rotate 0 0 S6 stroke grestore} bind def
/D7 {gsave translate 45 rotate 0 0 S7 stroke grestore} bind def
/D8 {gsave translate 45 rotate 0 0 S8 stroke grestore} bind def
/D9 {gsave translate 45 rotate 0 0 S9 stroke grestore} bind def
/D10 {gsave translate 45 rotate 0 0 S10 stroke grestore} bind def
/D11 {gsave translate 45 rotate 0 0 S11 stroke grestore} bind def
/D12 {gsave translate 45 rotate 0 0 S12 stroke grestore} bind def
/D13 {gsave translate 45 rotate 0 0 S13 stroke grestore} bind def
/D14 {gsave translate 45 rotate 0 0 S14 stroke grestore} bind def
/D15 {gsave translate 45 rotate 0 0 S15 stroke grestore} bind def
/DiaE {stroke [] 0 setdash vpt add M
  hpt neg vpt neg V hpt vpt neg V
  hpt vpt V hpt neg vpt V closepath stroke} def
/BoxE {stroke [] 0 setdash exch hpt sub exch vpt add M
  0 vpt2 neg V hpt2 0 V 0 vpt2 V
  hpt2 neg 0 V closepath stroke} def
/TriUE {stroke [] 0 setdash vpt 1.12 mul add M
  hpt neg vpt -1.62 mul V
  hpt 2 mul 0 V
  hpt neg vpt 1.62 mul V closepath stroke} def
/TriDE {stroke [] 0 setdash vpt 1.12 mul sub M
  hpt neg vpt 1.62 mul V
  hpt 2 mul 0 V
  hpt neg vpt -1.62 mul V closepath stroke} def
/PentE {stroke [] 0 setdash gsave
  translate 0 hpt M 4 {72 rotate 0 hpt L} repeat
  closepath stroke grestore} def
/CircE {stroke [] 0 setdash 
  hpt 0 360 arc stroke} def
/Opaque {gsave closepath 1 setgray fill grestore 0 setgray closepath} def
/DiaW {stroke [] 0 setdash vpt add M
  hpt neg vpt neg V hpt vpt neg V
  hpt vpt V hpt neg vpt V Opaque stroke} def
/BoxW {stroke [] 0 setdash exch hpt sub exch vpt add M
  0 vpt2 neg V hpt2 0 V 0 vpt2 V
  hpt2 neg 0 V Opaque stroke} def
/TriUW {stroke [] 0 setdash vpt 1.12 mul add M
  hpt neg vpt -1.62 mul V
  hpt 2 mul 0 V
  hpt neg vpt 1.62 mul V Opaque stroke} def
/TriDW {stroke [] 0 setdash vpt 1.12 mul sub M
  hpt neg vpt 1.62 mul V
  hpt 2 mul 0 V
  hpt neg vpt -1.62 mul V Opaque stroke} def
/PentW {stroke [] 0 setdash gsave
  translate 0 hpt M 4 {72 rotate 0 hpt L} repeat
  Opaque stroke grestore} def
/CircW {stroke [] 0 setdash 
  hpt 0 360 arc Opaque stroke} def
/BoxFill {gsave Rec 1 setgray fill grestore} def
/Density {
  /Fillden exch def
  currentrgbcolor
  /ColB exch def /ColG exch def /ColR exch def
  /ColR ColR Fillden mul Fillden sub 1 add def
  /ColG ColG Fillden mul Fillden sub 1 add def
  /ColB ColB Fillden mul Fillden sub 1 add def
  ColR ColG ColB setrgbcolor} def
/BoxColFill {gsave Rec PolyFill} def
/PolyFill {gsave Density fill grestore grestore} def
/h {rlineto rlineto rlineto gsave closepath fill grestore} bind def
%
% PostScript Level 1 Pattern Fill routine for rectangles
% Usage: x y w h s a XX PatternFill
%	x,y = lower left corner of box to be filled
%	w,h = width and height of box
%	  a = angle in degrees between lines and x-axis
%	 XX = 0/1 for no/yes cross-hatch
%
/PatternFill {gsave /PFa [ 9 2 roll ] def
  PFa 0 get PFa 2 get 2 div add PFa 1 get PFa 3 get 2 div add translate
  PFa 2 get -2 div PFa 3 get -2 div PFa 2 get PFa 3 get Rec
  TransparentPatterns {} {gsave 1 setgray fill grestore} ifelse
  clip
  currentlinewidth 0.5 mul setlinewidth
  /PFs PFa 2 get dup mul PFa 3 get dup mul add sqrt def
  0 0 M PFa 5 get rotate PFs -2 div dup translate
  0 1 PFs PFa 4 get div 1 add floor cvi
	{PFa 4 get mul 0 M 0 PFs V} for
  0 PFa 6 get ne {
	0 1 PFs PFa 4 get div 1 add floor cvi
	{PFa 4 get mul 0 2 1 roll M PFs 0 V} for
 } if
  stroke grestore} def
%
/languagelevel where
 {pop languagelevel} {1} ifelse
 2 lt
	{/InterpretLevel1 true def}
	{/InterpretLevel1 Level1 def}
 ifelse
%
% PostScript level 2 pattern fill definitions
%
/Level2PatternFill {
/Tile8x8 {/PaintType 2 /PatternType 1 /TilingType 1 /BBox [0 0 8 8] /XStep 8 /YStep 8}
	bind def
/KeepColor {currentrgbcolor [/Pattern /DeviceRGB] setcolorspace} bind def
<< Tile8x8
 /PaintProc {0.5 setlinewidth pop 0 0 M 8 8 L 0 8 M 8 0 L stroke} 
>> matrix makepattern
/Pat1 exch def
<< Tile8x8
 /PaintProc {0.5 setlinewidth pop 0 0 M 8 8 L 0 8 M 8 0 L stroke
	0 4 M 4 8 L 8 4 L 4 0 L 0 4 L stroke}
>> matrix makepattern
/Pat2 exch def
<< Tile8x8
 /PaintProc {0.5 setlinewidth pop 0 0 M 0 8 L
	8 8 L 8 0 L 0 0 L fill}
>> matrix makepattern
/Pat3 exch def
<< Tile8x8
 /PaintProc {0.5 setlinewidth pop -4 8 M 8 -4 L
	0 12 M 12 0 L stroke}
>> matrix makepattern
/Pat4 exch def
<< Tile8x8
 /PaintProc {0.5 setlinewidth pop -4 0 M 8 12 L
	0 -4 M 12 8 L stroke}
>> matrix makepattern
/Pat5 exch def
<< Tile8x8
 /PaintProc {0.5 setlinewidth pop -2 8 M 4 -4 L
	0 12 M 8 -4 L 4 12 M 10 0 L stroke}
>> matrix makepattern
/Pat6 exch def
<< Tile8x8
 /PaintProc {0.5 setlinewidth pop -2 0 M 4 12 L
	0 -4 M 8 12 L 4 -4 M 10 8 L stroke}
>> matrix makepattern
/Pat7 exch def
<< Tile8x8
 /PaintProc {0.5 setlinewidth pop 8 -2 M -4 4 L
	12 0 M -4 8 L 12 4 M 0 10 L stroke}
>> matrix makepattern
/Pat8 exch def
<< Tile8x8
 /PaintProc {0.5 setlinewidth pop 0 -2 M 12 4 L
	-4 0 M 12 8 L -4 4 M 8 10 L stroke}
>> matrix makepattern
/Pat9 exch def
/Pattern1 {PatternBgnd KeepColor Pat1 setpattern} bind def
/Pattern2 {PatternBgnd KeepColor Pat2 setpattern} bind def
/Pattern3 {PatternBgnd KeepColor Pat3 setpattern} bind def
/Pattern4 {PatternBgnd KeepColor Landscape {Pat5} {Pat4} ifelse setpattern} bind def
/Pattern5 {PatternBgnd KeepColor Landscape {Pat4} {Pat5} ifelse setpattern} bind def
/Pattern6 {PatternBgnd KeepColor Landscape {Pat9} {Pat6} ifelse setpattern} bind def
/Pattern7 {PatternBgnd KeepColor Landscape {Pat8} {Pat7} ifelse setpattern} bind def
} def
%
%
%End of PostScript Level 2 code
%
/PatternBgnd {
  TransparentPatterns {} {gsave 1 setgray fill grestore} ifelse
} def
%
% Substitute for Level 2 pattern fill codes with
% grayscale if Level 2 support is not selected.
%
/Level1PatternFill {
/Pattern1 {0.250 Density} bind def
/Pattern2 {0.500 Density} bind def
/Pattern3 {0.750 Density} bind def
/Pattern4 {0.125 Density} bind def
/Pattern5 {0.375 Density} bind def
/Pattern6 {0.625 Density} bind def
/Pattern7 {0.875 Density} bind def
} def
%
% Now test for support of Level 2 code
%
Level1 {Level1PatternFill} {Level2PatternFill} ifelse
%
/Symbol-Oblique /Symbol findfont [1 0 .167 1 0 0] makefont
dup length dict begin {1 index /FID eq {pop pop} {def} ifelse} forall
currentdict end definefont pop
Level1 SuppressPDFMark or 
{} {
/SDict 10 dict def
systemdict /pdfmark known not {
  userdict /pdfmark systemdict /cleartomark get put
} if
SDict begin [
  /Title (random2.tex)
  /Subject (gnuplot plot)
  /Creator (gnuplot 4.6 patchlevel 3)
  /Author (mg)
%  /Producer (gnuplot)
%  /Keywords ()
  /CreationDate (Wed Apr  2 16:47:30 2014)
  /DOCINFO pdfmark
end
} ifelse
end
%%EndProlog
%%Page: 1 1
gnudict begin
gsave
doclip
50 50 translate
0.050 0.050 scale
0 setgray
newpath
1.000 UL
LTb
1078 704 M
5725 0 R
1078 1111 M
5725 0 R
1078 1518 M
5725 0 R
1078 1925 M
5725 0 R
1078 2332 M
5725 0 R
1078 2740 M
5725 0 R
1078 3147 M
5725 0 R
1078 3554 M
5725 0 R
1078 3961 M
5725 0 R
1078 4368 M
5725 0 R
1078 4775 M
5725 0 R
1078 704 M
0 4071 R
1653 704 M
0 4071 R
2229 704 M
0 4071 R
2804 704 M
0 4071 R
3380 704 M
0 4071 R
3955 704 M
0 4071 R
4530 704 M
0 4071 R
5106 704 M
0 4071 R
5681 704 M
0 4071 R
6256 704 M
0 4071 R
stroke
1078 4775 N
0 -4071 V
5725 0 V
0 4071 V
-5725 0 V
Z stroke
1.000 UP
1.000 UL
LTb
1.000 UL
LT0
0.76 0.83 0.85 C LTb
LT0
0.76 0.83 0.85 C 1.000 5948 1262 591 110 BoxColFill
5948 1262 N
591 0 V
0 110 V
-591 0 V
0 -110 V
Z stroke
LT0
0.76 0.83 0.85 C 1078 999 N 0 -983 29 502 0 666 h
1107 1184 N 0 -1001 29 415 0 983 h
1136 1581 N 0 -1060 28 326 0 1001 h
1164 1848 N 0 -1100 29 46 0 1060 h
1193 1854 N 0 -1131 29 658 0 1100 h
1222 2481 N 0 -936 29 -425 0 1131 h
1251 2251 N 0 -769 28 -77 0 936 h
1279 2341 N 0 -786 29 221 0 769 h
1308 2545 N 0 -636 29 245 0 786 h
1337 2940 N 0 -1013 29 202 0 636 h
1366 2765 N 0 -896 28 -293 0 1013 h
1394 2589 N 0 -753 29 379 0 896 h
1423 3111 N 0 -1064 29 -132 0 753 h
1452 2668 N 0 -1032 29 -179 0 1064 h
1481 2521 N 0 -884 29 357 0 1032 h
1510 3026 N 0 -1006 28 23 0 884 h
1538 2927 N 0 -938 29 -148 0 1006 h
1567 2847 N 0 -981 29 286 0 938 h
1596 3090 N 0 -753 29 -215 0 981 h
1625 3103 N 0 -1184 28 570 0 753 h
1653 3242 N 0 -465 29 -540 0 1184 h
1682 3421 N 0 -772 29 253 0 465 h
1711 3367 N 0 -983 29 -310 0 772 h
1740 2846 N 0 -461 28 31 0 983 h
1768 3399 N 0 -461 29 -187 0 461 h
1797 3212 N 0 -635 29 52 0 461 h
1826 3090 N 0 -494 29 -50 0 635 h
1855 3181 N 0 -722 29 93 0 494 h
1884 3046 N 0 -869 28 -181 0 722 h
1912 2718 N 0 -907 29 367 0 869 h
1941 3047 N 0 -1051 29 -301 0 907 h
1970 2602 N 0 -814 29 403 0 1051 h
1999 3242 N 0 -296 28 -560 0 814 h
2027 3200 N 0 -449 29 324 0 296 h
2056 3371 N 0 -576 29 370 0 449 h
2085 3614 N 0 -411 29 -961 0 576 h
2114 2818 N 0 -720 28 983 0 411 h
2142 3492 N 0 -595 29 -79 0 720 h
2171 3538 N 0 -699 29 -384 0 595 h
2200 3050 N 0 -464 29 -421 0 699 h
2229 2864 N 0 -907 29 534 0 464 h
2258 2955 N 0 -700 28 304 0 907 h
2286 3466 N 0 -1280 29 -152 0 700 h
2315 2734 N 0 -970 29 -200 0 1280 h
2344 2844 N 0 -429 29 294 0 970 h
2373 3679 N 0 -839 28 -203 0 429 h
2401 3066 N 0 -889 29 470 0 839 h
2430 3486 N 0 -1106 29 -52 0 889 h
2459 3217 N 0 -901 29 23 0 1106 h
2488 3445 N 0 -1040 28 225 0 901 h
2516 3531 N 0 -781 29 -561 0 1040 h
2545 3229 N 0 -565 29 433 0 781 h
2574 3878 N 0 -901 29 -399 0 565 h
2603 3143 N 0 -583 29 441 0 901 h
2632 3902 N 0 -211 28 -556 0 583 h
2660 3718 N 0 -483 29 209 0 211 h
2689 3655 N 0 -416 29 -243 0 483 h
2718 3479 N 0 -430 29 121 0 416 h
2747 3586 N 0 -712 28 506 0 430 h
2775 3810 N 0 -308 29 -943 0 712 h
2804 3271 N 0 -304 29 213 0 308 h
2833 3488 N 0 -600 29 364 0 304 h
2862 3556 N 0 -590 28 -20 0 600 h
2890 3546 N 0 -678 29 -14 0 590 h
2919 3444 N 0 -623 29 -88 0 678 h
2948 3411 N 0 -305 29 276 0 623 h
2977 4005 N 0 -693 29 58 0 305 h
3006 3675 N 0 -684 28 -282 0 693 h
3034 3402 N 0 -1467 29 298 0 684 h
3063 2917 N 0 -373 29 -584 0 1467 h
3092 3427 N 0 -334 29 154 0 373 h
3121 3620 N 0 -517 28 -285 0 334 h
3149 3152 N 0 -718 29 369 0 517 h
3178 3320 N 0 -616 29 37 0 718 h
3207 3459 N 0 -464 29 -275 0 616 h
3236 3336 N 0 -550 28 38 0 464 h
3264 3288 N 0 -563 29 324 0 550 h
3293 3599 N 0 -493 29 -114 0 563 h
3322 3555 N 0 -422 29 -265 0 493 h
3351 3361 N 0 -441 29 61 0 422 h
3380 3403 N 0 -458 28 -192 0 441 h
3408 3194 N 0 -393 29 522 0 458 h
3437 3781 N 0 -733 29 31 0 393 h
3466 3472 N 0 -389 29 -383 0 733 h
3495 3433 N 0 -499 28 439 0 389 h
3523 3762 N 0 -844 29 -519 0 499 h
3552 2898 N 0 -691 29 426 0 844 h
3581 3477 N 0 -470 29 -281 0 691 h
3610 3417 N 0 -965 28 219 0 470 h
3638 3141 N 0 -854 29 356 0 965 h
3667 3608 N 0 -254 29 -694 0 854 h
3696 3514 N 0 -374 29 94 0 254 h
3725 3488 N 0 -539 29 -381 0 374 h
3754 2942 N 0 -976 28 419 0 539 h
3782 2924 N 0 -634 29 132 0 976 h
3811 3398 N 0 -496 29 -300 0 634 h
3840 3236 N 0 -303 29 251 0 496 h
3869 3680 N 0 -542 28 -76 0 303 h
3897 3365 N 0 -417 29 -49 0 542 h
3926 3441 N 0 -708 29 -54 0 417 h
3955 3096 N 0 -602 29 -32 0 708 h
3984 3170 N 0 -850 28 451 0 602 h
4012 3373 N 0 -622 29 23 0 850 h
4041 3624 N 0 -331 29 -484 0 622 h
4070 3431 N 0 -548 29 -444 0 331 h
4099 2770 N 0 -1013 28 775 0 548 h
4127 3080 N 0 -425 29 -416 0 1013 h
4156 3252 N 0 -710 29 369 0 425 h
4185 3336 N 0 -653 29 -227 0 710 h
4214 3166 N 0 -460 29 -384 0 653 h
4243 2975 N 0 -184 28 534 0 460 h
4271 3785 N 0 -819 29 -8 0 184 h
4300 3142 N 0 -295 29 193 0 819 h
4329 3859 N 0 -392 29 -240 0 295 h
4358 3522 N 0 -212 28 -15 0 392 h
4386 3687 N 0 -529 29 123 0 212 h
4415 3493 N 0 -438 29 -683 0 529 h
4444 2901 N 0 -504 29 546 0 438 h
4473 3381 N 0 -348 28 -4 0 504 h
4501 3533 N 0 -559 29 161 0 348 h
4530 3483 N 0 -392 29 -403 0 559 h
4559 3247 N 0 -328 29 176 0 392 h
4588 3487 N 0 -443 29 -189 0 328 h
4617 3183 N 0 -666 28 122 0 443 h
4645 3082 N 0 -1074 29 183 0 666 h
4674 2857 N 0 -861 29 93 0 1074 h
4703 3163 N 0 -843 29 191 0 861 h
4732 3372 N 0 -888 28 -90 0 843 h
4760 3237 N 0 -783 29 -277 0 888 h
4789 3065 N 0 -428 29 80 0 783 h
4818 3500 N 0 -471 29 -362 0 428 h
4847 3095 N 0 -895 28 452 0 471 h
4875 3123 N 0 -634 29 -110 0 895 h
4904 3274 N 0 -902 29 -71 0 634 h
4933 2935 N 0 -591 29 137 0 902 h
4962 3383 N 0 -856 29 -38 0 591 h
4991 3080 N 0 -411 28 53 0 856 h
5019 3578 N 0 -589 29 -42 0 411 h
5048 3358 N 0 -623 29 255 0 589 h
5077 3579 N 0 -446 29 -726 0 623 h
5106 3030 N 0 -802 28 785 0 446 h
5134 3459 N 0 -340 29 -207 0 802 h
5163 3714 N 0 -732 29 -154 0 340 h
5192 3168 N 0 -484 29 -425 0 732 h
5221 2991 N 0 -370 28 651 0 484 h
5249 3756 N 0 -571 29 -65 0 370 h
5278 3490 N 0 -745 29 -132 0 571 h
5307 3184 N 0 -518 29 6 0 745 h
5336 3417 N 0 -520 29 47 0 518 h
5365 3462 N 0 -741 28 56 0 520 h
5393 3297 N 0 -803 29 326 0 741 h
5422 3561 N 0 -336 29 -670 0 803 h
5451 3358 N 0 -383 29 404 0 336 h
5480 3715 N 0 -553 28 -171 0 383 h
5508 3374 N 0 -427 29 -152 0 553 h
5537 3348 N 0 -924 29 294 0 427 h
5566 3145 N 0 -542 29 -213 0 924 h
5595 3314 N 0 -621 28 113 0 542 h
5623 3348 N 0 -713 29 -58 0 621 h
5652 3198 N 0 -1250 29 275 0 713 h
5681 2936 N 0 -775 29 -188 0 1250 h
5710 3223 N 0 -919 29 280 0 775 h
5739 3359 N 0 -477 28 -557 0 919 h
5767 3244 N 0 -1173 29 414 0 477 h
5796 2962 N 0 -454 29 -160 0 1173 h
5825 3521 N 0 -865 29 49 0 454 h
5854 3159 N 0 -720 28 60 0 865 h
5882 3364 N 0 -422 29 135 0 720 h
5911 3797 N 0 -727 29 -198 0 422 h
5940 3294 N 0 -496 29 130 0 727 h
5969 3655 N 0 -1471 28 78 0 496 h
5997 2758 N 0 -737 29 -243 0 1471 h
6026 3249 N 0 -500 29 -287 0 737 h
6055 3199 N 0 -500 29 210 0 500 h
6084 3409 N 0 -416 29 73 0 500 h
6113 3566 N 0 -457 28 -323 0 416 h
6141 3202 N 0 -731 29 607 0 457 h
6170 3535 N 0 -273 29 -669 0 731 h
6199 3324 N 0 -270 29 277 0 273 h
6228 3604 N 0 -311 28 114 0 270 h
6256 3677 N 0 -384 29 -62 0 311 h
6285 3542 N 0 -291 29 233 0 384 h
6314 3868 N 0 -652 29 -179 0 291 h
6343 3328 N 0 -639 28 106 0 652 h
6371 3447 N 0 -249 29 -106 0 639 h
6400 3731 N 0 -633 29 -634 0 249 h
6429 2713 N 0 -571 29 293 0 633 h
6458 3068 N 0 -301 29 -195 0 571 h
6487 3143 N 0 -403 28 348 0 301 h
6515 3389 N 0 -517 29 360 0 403 h
6544 3635 N 0 -876 29 94 0 517 h
6573 3370 N 0 -449 29 -311 0 876 h
6602 3486 N 0 -337 28 307 0 449 h
6630 3905 N 0 -777 29 147 0 337 h
6659 3612 N 0 -368 29 -410 0 777 h
6688 3611 N 0 -475 29 273 0 368 h
6717 3777 N 0 -600 28 -160 0 475 h
6745 3492 N 0 -632 29 324 0 600 h
6774 3784 N 0 -421 29 -471 0 632 h
3.000 UL
LT0
0.47 0.60 0.71 C LTb
LT0
0.47 0.60 0.71 C 5948 1097 M
591 0 V
1078 1332 M
29 343 V
29 406 V
28 297 V
29 26 V
29 642 V
29 -327 V
28 7 V
29 212 V
29 320 V
29 14 V
28 -235 V
29 450 V
29 -287 V
29 -163 V
29 431 V
28 -38 V
29 -114 V
29 264 V
29 -100 V
28 354 V
29 -181 V
29 100 V
29 -416 V
28 293 V
29 -188 V
29 -35 V
29 21 V
29 -21 V
28 -254 V
29 347 V
29 -373 V
29 522 V
28 -301 V
29 247 V
29 307 V
29 -878 V
28 828 V
29 -17 V
29 -436 V
29 -303 V
29 312 V
28 408 V
29 -442 V
29 -45 V
29 564 V
28 -408 V
29 445 V
29 -160 V
29 126 V
28 155 V
29 -431 V
29 540 V
29 -567 V
29 600 V
28 -370 V
29 74 V
29 -210 V
29 114 V
28 365 V
29 -741 V
29 215 V
29 216 V
28 -15 V
29 -58 V
29 -60 V
29 435 V
29 -136 V
28 -278 V
29 -94 V
29 -37 V
29 174 V
28 -377 V
29 269 V
29 88 V
29 -199 V
28 -5 V
29 318 V
29 -80 V
29 -229 V
29 51 V
28 -200 V
29 554 V
29 -139 V
29 -210 V
28 383 V
29 -691 V
29 502 V
29 -170 V
28 -29 V
29 412 V
29 -394 V
29 34 V
29 -464 V
28 201 V
29 303 V
29 -231 V
29 348 V
28 -196 V
29 13 V
29 -199 V
29 21 V
28 327 V
stroke 4012 3798 M
29 137 V
29 -339 V
29 -552 V
28 543 V
29 -123 V
29 227 V
29 -198 V
29 -288 V
28 672 V
29 -325 V
29 455 V
29 -289 V
28 75 V
29 -35 V
29 -638 V
29 513 V
28 74 V
29 56 V
29 -320 V
29 208 V
29 -246 V
28 10 V
29 -21 V
29 199 V
29 201 V
28 -113 V
29 -225 V
29 258 V
29 -384 V
28 240 V
29 21 V
29 -205 V
29 292 V
29 -170 V
28 275 V
29 -131 V
29 238 V
29 -637 V
28 607 V
29 24 V
29 -350 V
29 -301 V
28 708 V
29 -165 V
29 -219 V
29 119 V
29 46 V
28 -54 V
29 295 V
29 -437 V
29 380 V
28 -256 V
29 -89 V
29 46 V
29 -22 V
28 74 V
29 -105 V
29 7 V
29 49 V
29 209 V
28 -337 V
29 67 V
29 199 V
29 -156 V
28 132 V
29 284 V
29 -351 V
29 246 V
28 -409 V
29 124 V
29 -169 V
29 210 V
29 115 V
28 -343 V
29 470 V
29 -440 V
29 278 V
28 93 V
29 -98 V
29 279 V
29 -359 V
28 113 V
29 88 V
29 -826 V
29 325 V
29 -60 V
28 297 V
29 302 V
29 -85 V
29 -98 V
28 364 V
29 -73 V
29 -206 V
29 220 V
28 -223 V
29 308 V
29 -366 V
stroke
LT0
0.27 0.31 0.31 C LTb
LT0
0.27 0.31 0.31 C 5948 877 M
591 0 V
1078 2898 M
29 -45 V
29 233 V
28 44 V
29 94 V
29 517 V
29 -155 V
28 -407 V
29 525 V
29 139 V
29 268 V
28 -565 V
29 297 V
29 28 V
29 -350 V
29 684 V
28 -53 V
29 -142 V
29 138 V
29 -322 V
28 493 V
29 -456 V
29 179 V
29 -134 V
28 12 V
29 -77 V
29 126 V
29 -252 V
29 166 V
28 -313 V
29 366 V
29 -240 V
29 289 V
28 -187 V
29 216 V
29 244 V
29 -782 V
28 631 V
29 70 V
29 -277 V
29 -269 V
29 415 V
28 253 V
29 -379 V
29 -151 V
29 346 V
28 -215 V
29 464 V
29 -261 V
29 204 V
28 159 V
29 -526 V
29 424 V
29 -472 V
29 533 V
28 -411 V
29 20 V
29 -191 V
29 382 V
28 216 V
29 -757 V
29 281 V
29 179 V
28 -12 V
29 -25 V
29 -44 V
29 321 V
29 -106 V
28 -179 V
29 65 V
29 -305 V
29 143 V
28 -273 V
29 350 V
29 -90 V
29 -154 V
28 16 V
29 725 V
29 -440 V
29 -375 V
29 57 V
28 -85 V
29 439 V
29 216 V
29 -553 V
28 529 V
29 -639 V
29 378 V
29 -93 V
28 28 V
29 314 V
29 -538 V
29 110 V
29 -142 V
28 8 V
29 228 V
29 -240 V
29 325 V
28 -81 V
29 -159 V
29 20 V
29 -162 V
28 390 V
stroke 4012 4111 M
29 66 V
29 -131 V
29 -671 V
28 606 V
29 -36 V
29 154 V
29 -313 V
29 -342 V
28 521 V
29 -130 V
29 439 V
29 -415 V
28 138 V
29 -20 V
29 -411 V
29 195 V
28 175 V
29 188 V
29 -74 V
29 -118 V
29 -142 V
28 146 V
29 98 V
29 195 V
29 106 V
28 -301 V
29 -297 V
29 240 V
29 -73 V
28 85 V
29 -118 V
29 -130 V
29 273 V
29 65 V
28 -73 V
29 -45 V
29 191 V
29 -415 V
28 431 V
29 -20 V
29 -346 V
29 -90 V
28 432 V
29 -85 V
29 -216 V
29 220 V
29 -175 V
28 -53 V
29 285 V
29 -383 V
29 269 V
28 -188 V
29 228 V
29 -85 V
29 134 V
28 -130 V
29 -106 V
29 179 V
29 -16 V
29 155 V
28 -481 V
29 204 V
29 122 V
29 -61 V
28 159 V
29 73 V
29 -253 V
29 167 V
28 57 V
29 -57 V
29 -276 V
29 228 V
29 52 V
28 -456 V
29 570 V
29 -460 V
29 200 V
28 65 V
29 -45 V
29 200 V
29 -228 V
28 65 V
29 85 V
29 -513 V
29 98 V
29 4 V
28 175 V
29 273 V
29 69 V
29 -220 V
28 261 V
29 -4 V
29 -216 V
29 204 V
28 -82 V
29 118 V
29 -309 V
stroke
1.000 UL
LTb
1078 4775 N
0 -4071 V
5725 0 V
0 4071 V
-5725 0 V
Z stroke
1.000 UP
1.000 UL
LTb
stroke
grestore
end
showpage
%%Trailer
