%!PS-Adobe-2.0 EPSF-2.0
%%Title: onemax-fp-A_I-350i-099-001.tex
%%Creator: gnuplot 4.6 patchlevel 3
%%CreationDate: Thu Feb 20 14:08:27 2014
%%DocumentFonts: 
%%BoundingBox: 50 50 410 302
%%EndComments
%%BeginProlog
/gnudict 256 dict def
gnudict begin
%
% The following true/false flags may be edited by hand if desired.
% The unit line width and grayscale image gamma correction may also be changed.
%
/Color false def
/Blacktext true def
/Solid false def
/Dashlength 1 def
/Landscape false def
/Level1 false def
/Rounded false def
/ClipToBoundingBox false def
/SuppressPDFMark false def
/TransparentPatterns false def
/gnulinewidth 5.000 def
/userlinewidth gnulinewidth def
/Gamma 1.0 def
/BackgroundColor {-1.000 -1.000 -1.000} def
%
/vshift -73 def
/dl1 {
  10.0 Dashlength mul mul
  Rounded { currentlinewidth 0.75 mul sub dup 0 le { pop 0.01 } if } if
} def
/dl2 {
  10.0 Dashlength mul mul
  Rounded { currentlinewidth 0.75 mul add } if
} def
/hpt_ 31.5 def
/vpt_ 31.5 def
/hpt hpt_ def
/vpt vpt_ def
/doclip {
  ClipToBoundingBox {
    newpath 50 50 moveto 410 50 lineto 410 302 lineto 50 302 lineto closepath
    clip
  } if
} def
%
% Gnuplot Prolog Version 4.6 (September 2012)
%
%/SuppressPDFMark true def
%
/M {moveto} bind def
/L {lineto} bind def
/R {rmoveto} bind def
/V {rlineto} bind def
/N {newpath moveto} bind def
/Z {closepath} bind def
/C {setrgbcolor} bind def
/f {rlineto fill} bind def
/g {setgray} bind def
/Gshow {show} def   % May be redefined later in the file to support UTF-8
/vpt2 vpt 2 mul def
/hpt2 hpt 2 mul def
/Lshow {currentpoint stroke M 0 vshift R 
	Blacktext {gsave 0 setgray show grestore} {show} ifelse} def
/Rshow {currentpoint stroke M dup stringwidth pop neg vshift R
	Blacktext {gsave 0 setgray show grestore} {show} ifelse} def
/Cshow {currentpoint stroke M dup stringwidth pop -2 div vshift R 
	Blacktext {gsave 0 setgray show grestore} {show} ifelse} def
/UP {dup vpt_ mul /vpt exch def hpt_ mul /hpt exch def
  /hpt2 hpt 2 mul def /vpt2 vpt 2 mul def} def
/DL {Color {setrgbcolor Solid {pop []} if 0 setdash}
 {pop pop pop 0 setgray Solid {pop []} if 0 setdash} ifelse} def
/BL {stroke userlinewidth 2 mul setlinewidth
	Rounded {1 setlinejoin 1 setlinecap} if} def
/AL {stroke userlinewidth 2 div setlinewidth
	Rounded {1 setlinejoin 1 setlinecap} if} def
/UL {dup gnulinewidth mul /userlinewidth exch def
	dup 1 lt {pop 1} if 10 mul /udl exch def} def
/PL {stroke userlinewidth setlinewidth
	Rounded {1 setlinejoin 1 setlinecap} if} def
3.8 setmiterlimit
% Default Line colors
/LCw {1 1 1} def
/LCb {0 0 0} def
/LCa {0 0 0} def
/LC0 {1 0 0} def
/LC1 {0 1 0} def
/LC2 {0 0 1} def
/LC3 {1 0 1} def
/LC4 {0 1 1} def
/LC5 {1 1 0} def
/LC6 {0 0 0} def
/LC7 {1 0.3 0} def
/LC8 {0.5 0.5 0.5} def
% Default Line Types
/LTw {PL [] 1 setgray} def
/LTb {BL [] LCb DL} def
/LTa {AL [1 udl mul 2 udl mul] 0 setdash LCa setrgbcolor} def
/LT0 {PL [] LC0 DL} def
/LT1 {PL [4 dl1 2 dl2] LC1 DL} def
/LT2 {PL [2 dl1 3 dl2] LC2 DL} def
/LT3 {PL [1 dl1 1.5 dl2] LC3 DL} def
/LT4 {PL [6 dl1 2 dl2 1 dl1 2 dl2] LC4 DL} def
/LT5 {PL [3 dl1 3 dl2 1 dl1 3 dl2] LC5 DL} def
/LT6 {PL [2 dl1 2 dl2 2 dl1 6 dl2] LC6 DL} def
/LT7 {PL [1 dl1 2 dl2 6 dl1 2 dl2 1 dl1 2 dl2] LC7 DL} def
/LT8 {PL [2 dl1 2 dl2 2 dl1 2 dl2 2 dl1 2 dl2 2 dl1 4 dl2] LC8 DL} def
/Pnt {stroke [] 0 setdash gsave 1 setlinecap M 0 0 V stroke grestore} def
/Dia {stroke [] 0 setdash 2 copy vpt add M
  hpt neg vpt neg V hpt vpt neg V
  hpt vpt V hpt neg vpt V closepath stroke
  Pnt} def
/Pls {stroke [] 0 setdash vpt sub M 0 vpt2 V
  currentpoint stroke M
  hpt neg vpt neg R hpt2 0 V stroke
 } def
/Box {stroke [] 0 setdash 2 copy exch hpt sub exch vpt add M
  0 vpt2 neg V hpt2 0 V 0 vpt2 V
  hpt2 neg 0 V closepath stroke
  Pnt} def
/Crs {stroke [] 0 setdash exch hpt sub exch vpt add M
  hpt2 vpt2 neg V currentpoint stroke M
  hpt2 neg 0 R hpt2 vpt2 V stroke} def
/TriU {stroke [] 0 setdash 2 copy vpt 1.12 mul add M
  hpt neg vpt -1.62 mul V
  hpt 2 mul 0 V
  hpt neg vpt 1.62 mul V closepath stroke
  Pnt} def
/Star {2 copy Pls Crs} def
/BoxF {stroke [] 0 setdash exch hpt sub exch vpt add M
  0 vpt2 neg V hpt2 0 V 0 vpt2 V
  hpt2 neg 0 V closepath fill} def
/TriUF {stroke [] 0 setdash vpt 1.12 mul add M
  hpt neg vpt -1.62 mul V
  hpt 2 mul 0 V
  hpt neg vpt 1.62 mul V closepath fill} def
/TriD {stroke [] 0 setdash 2 copy vpt 1.12 mul sub M
  hpt neg vpt 1.62 mul V
  hpt 2 mul 0 V
  hpt neg vpt -1.62 mul V closepath stroke
  Pnt} def
/TriDF {stroke [] 0 setdash vpt 1.12 mul sub M
  hpt neg vpt 1.62 mul V
  hpt 2 mul 0 V
  hpt neg vpt -1.62 mul V closepath fill} def
/DiaF {stroke [] 0 setdash vpt add M
  hpt neg vpt neg V hpt vpt neg V
  hpt vpt V hpt neg vpt V closepath fill} def
/Pent {stroke [] 0 setdash 2 copy gsave
  translate 0 hpt M 4 {72 rotate 0 hpt L} repeat
  closepath stroke grestore Pnt} def
/PentF {stroke [] 0 setdash gsave
  translate 0 hpt M 4 {72 rotate 0 hpt L} repeat
  closepath fill grestore} def
/Circle {stroke [] 0 setdash 2 copy
  hpt 0 360 arc stroke Pnt} def
/CircleF {stroke [] 0 setdash hpt 0 360 arc fill} def
/C0 {BL [] 0 setdash 2 copy moveto vpt 90 450 arc} bind def
/C1 {BL [] 0 setdash 2 copy moveto
	2 copy vpt 0 90 arc closepath fill
	vpt 0 360 arc closepath} bind def
/C2 {BL [] 0 setdash 2 copy moveto
	2 copy vpt 90 180 arc closepath fill
	vpt 0 360 arc closepath} bind def
/C3 {BL [] 0 setdash 2 copy moveto
	2 copy vpt 0 180 arc closepath fill
	vpt 0 360 arc closepath} bind def
/C4 {BL [] 0 setdash 2 copy moveto
	2 copy vpt 180 270 arc closepath fill
	vpt 0 360 arc closepath} bind def
/C5 {BL [] 0 setdash 2 copy moveto
	2 copy vpt 0 90 arc
	2 copy moveto
	2 copy vpt 180 270 arc closepath fill
	vpt 0 360 arc} bind def
/C6 {BL [] 0 setdash 2 copy moveto
	2 copy vpt 90 270 arc closepath fill
	vpt 0 360 arc closepath} bind def
/C7 {BL [] 0 setdash 2 copy moveto
	2 copy vpt 0 270 arc closepath fill
	vpt 0 360 arc closepath} bind def
/C8 {BL [] 0 setdash 2 copy moveto
	2 copy vpt 270 360 arc closepath fill
	vpt 0 360 arc closepath} bind def
/C9 {BL [] 0 setdash 2 copy moveto
	2 copy vpt 270 450 arc closepath fill
	vpt 0 360 arc closepath} bind def
/C10 {BL [] 0 setdash 2 copy 2 copy moveto vpt 270 360 arc closepath fill
	2 copy moveto
	2 copy vpt 90 180 arc closepath fill
	vpt 0 360 arc closepath} bind def
/C11 {BL [] 0 setdash 2 copy moveto
	2 copy vpt 0 180 arc closepath fill
	2 copy moveto
	2 copy vpt 270 360 arc closepath fill
	vpt 0 360 arc closepath} bind def
/C12 {BL [] 0 setdash 2 copy moveto
	2 copy vpt 180 360 arc closepath fill
	vpt 0 360 arc closepath} bind def
/C13 {BL [] 0 setdash 2 copy moveto
	2 copy vpt 0 90 arc closepath fill
	2 copy moveto
	2 copy vpt 180 360 arc closepath fill
	vpt 0 360 arc closepath} bind def
/C14 {BL [] 0 setdash 2 copy moveto
	2 copy vpt 90 360 arc closepath fill
	vpt 0 360 arc} bind def
/C15 {BL [] 0 setdash 2 copy vpt 0 360 arc closepath fill
	vpt 0 360 arc closepath} bind def
/Rec {newpath 4 2 roll moveto 1 index 0 rlineto 0 exch rlineto
	neg 0 rlineto closepath} bind def
/Square {dup Rec} bind def
/Bsquare {vpt sub exch vpt sub exch vpt2 Square} bind def
/S0 {BL [] 0 setdash 2 copy moveto 0 vpt rlineto BL Bsquare} bind def
/S1 {BL [] 0 setdash 2 copy vpt Square fill Bsquare} bind def
/S2 {BL [] 0 setdash 2 copy exch vpt sub exch vpt Square fill Bsquare} bind def
/S3 {BL [] 0 setdash 2 copy exch vpt sub exch vpt2 vpt Rec fill Bsquare} bind def
/S4 {BL [] 0 setdash 2 copy exch vpt sub exch vpt sub vpt Square fill Bsquare} bind def
/S5 {BL [] 0 setdash 2 copy 2 copy vpt Square fill
	exch vpt sub exch vpt sub vpt Square fill Bsquare} bind def
/S6 {BL [] 0 setdash 2 copy exch vpt sub exch vpt sub vpt vpt2 Rec fill Bsquare} bind def
/S7 {BL [] 0 setdash 2 copy exch vpt sub exch vpt sub vpt vpt2 Rec fill
	2 copy vpt Square fill Bsquare} bind def
/S8 {BL [] 0 setdash 2 copy vpt sub vpt Square fill Bsquare} bind def
/S9 {BL [] 0 setdash 2 copy vpt sub vpt vpt2 Rec fill Bsquare} bind def
/S10 {BL [] 0 setdash 2 copy vpt sub vpt Square fill 2 copy exch vpt sub exch vpt Square fill
	Bsquare} bind def
/S11 {BL [] 0 setdash 2 copy vpt sub vpt Square fill 2 copy exch vpt sub exch vpt2 vpt Rec fill
	Bsquare} bind def
/S12 {BL [] 0 setdash 2 copy exch vpt sub exch vpt sub vpt2 vpt Rec fill Bsquare} bind def
/S13 {BL [] 0 setdash 2 copy exch vpt sub exch vpt sub vpt2 vpt Rec fill
	2 copy vpt Square fill Bsquare} bind def
/S14 {BL [] 0 setdash 2 copy exch vpt sub exch vpt sub vpt2 vpt Rec fill
	2 copy exch vpt sub exch vpt Square fill Bsquare} bind def
/S15 {BL [] 0 setdash 2 copy Bsquare fill Bsquare} bind def
/D0 {gsave translate 45 rotate 0 0 S0 stroke grestore} bind def
/D1 {gsave translate 45 rotate 0 0 S1 stroke grestore} bind def
/D2 {gsave translate 45 rotate 0 0 S2 stroke grestore} bind def
/D3 {gsave translate 45 rotate 0 0 S3 stroke grestore} bind def
/D4 {gsave translate 45 rotate 0 0 S4 stroke grestore} bind def
/D5 {gsave translate 45 rotate 0 0 S5 stroke grestore} bind def
/D6 {gsave translate 45 rotate 0 0 S6 stroke grestore} bind def
/D7 {gsave translate 45 rotate 0 0 S7 stroke grestore} bind def
/D8 {gsave translate 45 rotate 0 0 S8 stroke grestore} bind def
/D9 {gsave translate 45 rotate 0 0 S9 stroke grestore} bind def
/D10 {gsave translate 45 rotate 0 0 S10 stroke grestore} bind def
/D11 {gsave translate 45 rotate 0 0 S11 stroke grestore} bind def
/D12 {gsave translate 45 rotate 0 0 S12 stroke grestore} bind def
/D13 {gsave translate 45 rotate 0 0 S13 stroke grestore} bind def
/D14 {gsave translate 45 rotate 0 0 S14 stroke grestore} bind def
/D15 {gsave translate 45 rotate 0 0 S15 stroke grestore} bind def
/DiaE {stroke [] 0 setdash vpt add M
  hpt neg vpt neg V hpt vpt neg V
  hpt vpt V hpt neg vpt V closepath stroke} def
/BoxE {stroke [] 0 setdash exch hpt sub exch vpt add M
  0 vpt2 neg V hpt2 0 V 0 vpt2 V
  hpt2 neg 0 V closepath stroke} def
/TriUE {stroke [] 0 setdash vpt 1.12 mul add M
  hpt neg vpt -1.62 mul V
  hpt 2 mul 0 V
  hpt neg vpt 1.62 mul V closepath stroke} def
/TriDE {stroke [] 0 setdash vpt 1.12 mul sub M
  hpt neg vpt 1.62 mul V
  hpt 2 mul 0 V
  hpt neg vpt -1.62 mul V closepath stroke} def
/PentE {stroke [] 0 setdash gsave
  translate 0 hpt M 4 {72 rotate 0 hpt L} repeat
  closepath stroke grestore} def
/CircE {stroke [] 0 setdash 
  hpt 0 360 arc stroke} def
/Opaque {gsave closepath 1 setgray fill grestore 0 setgray closepath} def
/DiaW {stroke [] 0 setdash vpt add M
  hpt neg vpt neg V hpt vpt neg V
  hpt vpt V hpt neg vpt V Opaque stroke} def
/BoxW {stroke [] 0 setdash exch hpt sub exch vpt add M
  0 vpt2 neg V hpt2 0 V 0 vpt2 V
  hpt2 neg 0 V Opaque stroke} def
/TriUW {stroke [] 0 setdash vpt 1.12 mul add M
  hpt neg vpt -1.62 mul V
  hpt 2 mul 0 V
  hpt neg vpt 1.62 mul V Opaque stroke} def
/TriDW {stroke [] 0 setdash vpt 1.12 mul sub M
  hpt neg vpt 1.62 mul V
  hpt 2 mul 0 V
  hpt neg vpt -1.62 mul V Opaque stroke} def
/PentW {stroke [] 0 setdash gsave
  translate 0 hpt M 4 {72 rotate 0 hpt L} repeat
  Opaque stroke grestore} def
/CircW {stroke [] 0 setdash 
  hpt 0 360 arc Opaque stroke} def
/BoxFill {gsave Rec 1 setgray fill grestore} def
/Density {
  /Fillden exch def
  currentrgbcolor
  /ColB exch def /ColG exch def /ColR exch def
  /ColR ColR Fillden mul Fillden sub 1 add def
  /ColG ColG Fillden mul Fillden sub 1 add def
  /ColB ColB Fillden mul Fillden sub 1 add def
  ColR ColG ColB setrgbcolor} def
/BoxColFill {gsave Rec PolyFill} def
/PolyFill {gsave Density fill grestore grestore} def
/h {rlineto rlineto rlineto gsave closepath fill grestore} bind def
%
% PostScript Level 1 Pattern Fill routine for rectangles
% Usage: x y w h s a XX PatternFill
%	x,y = lower left corner of box to be filled
%	w,h = width and height of box
%	  a = angle in degrees between lines and x-axis
%	 XX = 0/1 for no/yes cross-hatch
%
/PatternFill {gsave /PFa [ 9 2 roll ] def
  PFa 0 get PFa 2 get 2 div add PFa 1 get PFa 3 get 2 div add translate
  PFa 2 get -2 div PFa 3 get -2 div PFa 2 get PFa 3 get Rec
  TransparentPatterns {} {gsave 1 setgray fill grestore} ifelse
  clip
  currentlinewidth 0.5 mul setlinewidth
  /PFs PFa 2 get dup mul PFa 3 get dup mul add sqrt def
  0 0 M PFa 5 get rotate PFs -2 div dup translate
  0 1 PFs PFa 4 get div 1 add floor cvi
	{PFa 4 get mul 0 M 0 PFs V} for
  0 PFa 6 get ne {
	0 1 PFs PFa 4 get div 1 add floor cvi
	{PFa 4 get mul 0 2 1 roll M PFs 0 V} for
 } if
  stroke grestore} def
%
/languagelevel where
 {pop languagelevel} {1} ifelse
 2 lt
	{/InterpretLevel1 true def}
	{/InterpretLevel1 Level1 def}
 ifelse
%
% PostScript level 2 pattern fill definitions
%
/Level2PatternFill {
/Tile8x8 {/PaintType 2 /PatternType 1 /TilingType 1 /BBox [0 0 8 8] /XStep 8 /YStep 8}
	bind def
/KeepColor {currentrgbcolor [/Pattern /DeviceRGB] setcolorspace} bind def
<< Tile8x8
 /PaintProc {0.5 setlinewidth pop 0 0 M 8 8 L 0 8 M 8 0 L stroke} 
>> matrix makepattern
/Pat1 exch def
<< Tile8x8
 /PaintProc {0.5 setlinewidth pop 0 0 M 8 8 L 0 8 M 8 0 L stroke
	0 4 M 4 8 L 8 4 L 4 0 L 0 4 L stroke}
>> matrix makepattern
/Pat2 exch def
<< Tile8x8
 /PaintProc {0.5 setlinewidth pop 0 0 M 0 8 L
	8 8 L 8 0 L 0 0 L fill}
>> matrix makepattern
/Pat3 exch def
<< Tile8x8
 /PaintProc {0.5 setlinewidth pop -4 8 M 8 -4 L
	0 12 M 12 0 L stroke}
>> matrix makepattern
/Pat4 exch def
<< Tile8x8
 /PaintProc {0.5 setlinewidth pop -4 0 M 8 12 L
	0 -4 M 12 8 L stroke}
>> matrix makepattern
/Pat5 exch def
<< Tile8x8
 /PaintProc {0.5 setlinewidth pop -2 8 M 4 -4 L
	0 12 M 8 -4 L 4 12 M 10 0 L stroke}
>> matrix makepattern
/Pat6 exch def
<< Tile8x8
 /PaintProc {0.5 setlinewidth pop -2 0 M 4 12 L
	0 -4 M 8 12 L 4 -4 M 10 8 L stroke}
>> matrix makepattern
/Pat7 exch def
<< Tile8x8
 /PaintProc {0.5 setlinewidth pop 8 -2 M -4 4 L
	12 0 M -4 8 L 12 4 M 0 10 L stroke}
>> matrix makepattern
/Pat8 exch def
<< Tile8x8
 /PaintProc {0.5 setlinewidth pop 0 -2 M 12 4 L
	-4 0 M 12 8 L -4 4 M 8 10 L stroke}
>> matrix makepattern
/Pat9 exch def
/Pattern1 {PatternBgnd KeepColor Pat1 setpattern} bind def
/Pattern2 {PatternBgnd KeepColor Pat2 setpattern} bind def
/Pattern3 {PatternBgnd KeepColor Pat3 setpattern} bind def
/Pattern4 {PatternBgnd KeepColor Landscape {Pat5} {Pat4} ifelse setpattern} bind def
/Pattern5 {PatternBgnd KeepColor Landscape {Pat4} {Pat5} ifelse setpattern} bind def
/Pattern6 {PatternBgnd KeepColor Landscape {Pat9} {Pat6} ifelse setpattern} bind def
/Pattern7 {PatternBgnd KeepColor Landscape {Pat8} {Pat7} ifelse setpattern} bind def
} def
%
%
%End of PostScript Level 2 code
%
/PatternBgnd {
  TransparentPatterns {} {gsave 1 setgray fill grestore} ifelse
} def
%
% Substitute for Level 2 pattern fill codes with
% grayscale if Level 2 support is not selected.
%
/Level1PatternFill {
/Pattern1 {0.250 Density} bind def
/Pattern2 {0.500 Density} bind def
/Pattern3 {0.750 Density} bind def
/Pattern4 {0.125 Density} bind def
/Pattern5 {0.375 Density} bind def
/Pattern6 {0.625 Density} bind def
/Pattern7 {0.875 Density} bind def
} def
%
% Now test for support of Level 2 code
%
Level1 {Level1PatternFill} {Level2PatternFill} ifelse
%
/Symbol-Oblique /Symbol findfont [1 0 .167 1 0 0] makefont
dup length dict begin {1 index /FID eq {pop pop} {def} ifelse} forall
currentdict end definefont pop
Level1 SuppressPDFMark or 
{} {
/SDict 10 dict def
systemdict /pdfmark known not {
  userdict /pdfmark systemdict /cleartomark get put
} if
SDict begin [
  /Title (onemax-fp-A_I-350i-099-001.tex)
  /Subject (gnuplot plot)
  /Creator (gnuplot 4.6 patchlevel 3)
  /Author (mg)
%  /Producer (gnuplot)
%  /Keywords ()
  /CreationDate (Thu Feb 20 14:08:27 2014)
  /DOCINFO pdfmark
end
} ifelse
end
%%EndProlog
%%Page: 1 1
gnudict begin
gsave
doclip
50 50 translate
0.050 0.050 scale
0 setgray
newpath
1.000 UL
LTb
946 704 M
5857 0 R
946 1518 M
5857 0 R
946 2332 M
5857 0 R
946 3147 M
5857 0 R
946 3961 M
5857 0 R
946 4775 M
5857 0 R
946 704 M
0 4071 R
2375 704 M
0 4071 R
3803 704 M
0 4071 R
5232 704 M
0 4071 R
6660 704 M
0 4071 R
stroke
946 4775 N
946 704 L
5857 0 V
0 4071 V
-5857 0 V
Z stroke
1.000 UP
1.000 UL
LTb
1.000 UL
LT0
0.76 0.83 0.85 C LTb
LT0
0.76 0.83 0.85 C 1.000 5948 1262 591 110 BoxColFill
5948 1262 N
591 0 V
0 110 V
-591 0 V
0 -110 V
Z stroke
LT0
0.76 0.83 0.85 C 946 1062 N 0 -952 29 85 0 983 h
975 1178 N 0 -948 28 50 0 952 h
1003 1232 N 0 -970 29 61 0 948 h
1032 1271 N 0 -999 28 69 0 970 h
1060 1311 N 0 -1003 29 65 0 999 h
1089 1372 N 0 -998 28 14 0 1003 h
1117 1391 N 0 -990 29 118 0 998 h
1146 1517 N 0 -846 29 16 0 990 h
1175 1677 N 0 -841 28 62 0 846 h
1203 1744 N 0 -847 29 27 0 841 h
1232 1765 N 0 -910 28 54 0 847 h
1260 1756 N 0 -968 29 47 0 910 h
1289 1745 N 0 -948 28 -2 0 968 h
1317 1763 N 0 -952 29 51 0 948 h
1346 1810 N 0 -986 29 83 0 952 h
1375 1859 N 0 -950 28 84 0 986 h
1403 1979 N 0 -898 29 -7 0 950 h
1432 2024 N 0 -903 28 37 0 898 h
1460 2056 N 0 -932 29 3 0 903 h
1489 2030 N 0 -903 28 12 0 932 h
1517 2071 N 0 -869 29 -12 0 903 h
1546 2093 N 0 -906 29 13 0 869 h
1575 2069 N 0 -857 28 2 0 906 h
1603 2120 N 0 -878 29 40 0 857 h
1632 2139 N 0 -877 28 39 0 878 h
1660 2179 N 0 -841 29 13 0 877 h
1689 2228 N 0 -850 28 43 0 841 h
1717 2262 N 0 -865 29 54 0 850 h
1746 2301 N 0 -865 29 56 0 865 h
1775 2357 N 0 -873 28 17 0 865 h
1803 2366 N 0 -880 29 -16 0 873 h
1832 2343 N 0 -848 28 21 0 880 h
1860 2396 N 0 -842 29 -27 0 848 h
1889 2375 N 0 -880 28 16 0 842 h
1917 2353 N 0 -867 29 17 0 880 h
1946 2383 N 0 -821 29 -19 0 867 h
1975 2410 N 0 -803 28 -17 0 821 h
2003 2411 N 0 -828 29 29 0 803 h
2032 2415 N 0 -787 28 -21 0 828 h
2060 2435 N 0 -794 29 12 0 787 h
2089 2440 N 0 -798 28 2 0 794 h
2117 2438 N 0 -828 29 10 0 798 h
2146 2418 N 0 -782 29 0 0 828 h
2175 2464 N 0 -811 28 1 0 782 h
2203 2436 N 0 -895 29 36 0 811 h
2232 2388 N 0 -901 28 23 0 895 h
2260 2405 N 0 -914 29 -7 0 901 h
2289 2385 N 0 -913 28 2 0 914 h
2317 2388 N 0 -823 29 17 0 913 h
2346 2495 N 0 -827 29 -19 0 823 h
2375 2472 N 0 -856 28 -34 0 827 h
2403 2409 N 0 -886 29 -21 0 856 h
2432 2358 N 0 -857 28 1 0 886 h
2460 2388 N 0 -897 29 32 0 857 h
2489 2380 N 0 -937 28 16 0 897 h
2517 2356 N 0 -938 29 30 0 937 h
2546 2385 N 0 -888 29 -12 0 938 h
2575 2423 N 0 -843 28 6 0 888 h
2603 2474 N 0 -801 29 -36 0 843 h
2632 2480 N 0 -827 28 2 0 801 h
2660 2456 N 0 -794 29 16 0 827 h
2689 2505 N 0 -835 28 14 0 794 h
2717 2478 N 0 -800 29 1 0 835 h
2746 2514 N 0 -739 29 -31 0 800 h
2775 2544 N 0 -826 28 78 0 739 h
2803 2535 N 0 -881 29 44 0 826 h
2832 2524 N 0 -819 28 -45 0 881 h
2860 2541 N 0 -814 29 -23 0 819 h
2889 2523 N 0 -887 28 9 0 814 h
2917 2459 N 0 -822 29 -34 0 887 h
2946 2490 N 0 -860 29 21 0 822 h
2975 2473 N 0 -858 28 -5 0 860 h
3003 2470 N 0 -861 29 -14 0 858 h
3032 2453 N 0 -891 28 69 0 861 h
3060 2492 N 0 -877 29 -3 0 891 h
3089 2503 N 0 -841 28 18 0 877 h
3117 2557 N 0 -853 29 -3 0 841 h
3146 2542 N 0 -880 29 57 0 853 h
3175 2572 N 0 -890 28 3 0 880 h
3203 2565 N 0 -887 29 -22 0 890 h
3232 2546 N 0 -879 28 -5 0 887 h
3260 2549 N 0 -867 29 28 0 879 h
3289 2589 N 0 -840 28 -18 0 867 h
3317 2598 N 0 -886 29 33 0 840 h
3346 2585 N 0 -867 29 -11 0 886 h
3375 2593 N 0 -899 28 18 0 867 h
3403 2579 N 0 -869 29 -24 0 899 h
3432 2585 N 0 -877 28 -17 0 869 h
3460 2560 N 0 -909 29 11 0 877 h
3489 2539 N 0 -904 28 -40 0 909 h
3517 2504 N 0 -930 29 19 0 904 h
3546 2497 N 0 -913 29 56 0 930 h
3575 2570 N 0 -929 28 14 0 913 h
3603 2568 N 0 -941 29 12 0 929 h
3632 2568 N 0 -936 28 11 0 941 h
3660 2584 N 0 -985 29 29 0 936 h
3689 2564 N 0 -998 28 -12 0 985 h
3717 2539 N 0 -974 29 -21 0 998 h
3746 2542 N 0 -916 29 35 0 974 h
3775 2635 N 0 -900 28 9 0 916 h
3803 2660 N 0 -895 29 4 0 900 h
3832 2669 N 0 -843 28 -59 0 895 h
3860 2662 N 0 -828 29 -33 0 843 h
3889 2644 N 0 -842 28 19 0 828 h
3917 2649 N 0 -857 29 19 0 842 h
3946 2653 N 0 -835 28 30 0 857 h
3974 2705 N 0 -880 29 19 0 835 h
4003 2679 N 0 -876 29 32 0 880 h
4032 2715 N 0 -901 28 40 0 876 h
4060 2730 N 0 -870 29 28 0 901 h
4089 2789 N 0 -874 28 64 0 870 h
4117 2849 N 0 -861 29 19 0 874 h
4146 2881 N 0 -910 28 20 0 861 h
4174 2852 N 0 -864 29 -40 0 910 h
4203 2858 N 0 -858 29 -18 0 864 h
4232 2846 N 0 -887 28 38 0 858 h
4260 2855 N 0 -857 29 -28 0 887 h
4289 2857 N 0 -842 28 -10 0 857 h
4317 2862 N 0 -793 29 -13 0 842 h
4346 2898 N 0 -865 28 48 0 793 h
4374 2874 N 0 -834 29 -16 0 865 h
4403 2889 N 0 -841 29 2 0 834 h
4432 2884 N 0 -836 28 1 0 841 h
4460 2890 N 0 -818 29 -29 0 836 h
4489 2879 N 0 -827 28 -6 0 818 h
4517 2864 N 0 -838 29 -3 0 827 h
4546 2850 N 0 -828 28 -10 0 838 h
4574 2850 N 0 -872 29 26 0 828 h
4603 2832 N 0 -882 29 35 0 872 h
4632 2857 N 0 -914 28 -17 0 882 h
4660 2808 N 0 -939 29 -56 0 914 h
4689 2727 N 0 -986 28 32 0 939 h
4717 2712 N 0 -1003 29 28 0 986 h
4746 2723 N 0 -1029 28 23 0 1003 h
4774 2720 N 0 -1016 29 -26 0 1029 h
4803 2707 N 0 -941 29 -38 0 1016 h
4832 2744 N 0 -930 28 -28 0 941 h
4860 2727 N 0 -843 29 -40 0 930 h
4889 2774 N 0 -808 28 13 0 843 h
4917 2822 N 0 -812 29 23 0 808 h
4946 2841 N 0 -789 28 -43 0 812 h
4974 2821 N 0 -808 29 -22 0 789 h
5003 2780 N 0 -782 29 -1 0 808 h
5032 2805 N 0 -831 28 -6 0 782 h
5060 2750 N 0 -802 29 -14 0 831 h
5089 2765 N 0 -753 28 -10 0 802 h
5117 2804 N 0 -746 29 13 0 753 h
5146 2824 N 0 -760 28 41 0 746 h
5174 2851 N 0 -774 29 10 0 760 h
5203 2847 N 0 -822 29 5 0 774 h
5232 2804 N 0 -868 28 42 0 822 h
5260 2800 N 0 -785 29 -33 0 868 h
5289 2850 N 0 -793 28 9 0 785 h
5317 2851 N 0 -825 29 0 0 793 h
5346 2819 N 0 -771 28 -16 0 825 h
5374 2857 N 0 -780 29 35 0 771 h
5403 2883 N 0 -842 29 6 0 780 h
5432 2827 N 0 -812 28 -21 0 842 h
5460 2836 N 0 -805 29 -5 0 812 h
5489 2838 N 0 -871 28 23 0 805 h
5517 2795 N 0 -869 29 19 0 871 h
5546 2816 N 0 -837 28 -36 0 869 h
5574 2812 N 0 -836 29 19 0 837 h
5603 2832 N 0 -823 29 -3 0 836 h
5632 2842 N 0 -844 28 5 0 823 h
5660 2826 N 0 -829 29 16 0 844 h
5689 2857 N 0 -787 28 3 0 829 h
5717 2902 N 0 -808 29 15 0 787 h
5746 2896 N 0 -800 28 -36 0 808 h
5774 2868 N 0 -818 29 45 0 800 h
5803 2895 N 0 -753 29 -37 0 818 h
5832 2923 N 0 -793 28 -19 0 753 h
5860 2864 N 0 -793 29 -1 0 793 h
5889 2863 N 0 -848 28 57 0 793 h
5917 2865 N 0 -869 29 -7 0 848 h
5946 2837 N 0 -819 28 -69 0 869 h
5974 2818 N 0 -830 29 -12 0 819 h
6003 2795 N 0 -843 29 44 0 830 h
6032 2826 N 0 -879 28 15 0 843 h
6060 2805 N 0 -868 29 -18 0 879 h
6089 2798 N 0 -839 28 -16 0 868 h
6117 2811 N 0 -838 29 -6 0 839 h
6146 2806 N 0 -806 28 -17 0 838 h
6174 2821 N 0 -898 29 43 0 806 h
6203 2772 N 0 -844 29 3 0 898 h
6232 2829 N 0 -863 28 3 0 844 h
6260 2813 N 0 -852 29 10 0 863 h
6289 2834 N 0 -870 28 -5 0 852 h
6317 2811 N 0 -887 29 -13 0 870 h
6346 2781 N 0 -838 28 13 0 887 h
6374 2843 N 0 -839 29 -16 0 838 h
6403 2826 N 0 -877 29 25 0 839 h
6432 2813 N 0 -840 28 -12 0 877 h
6460 2838 N 0 -865 29 -13 0 840 h
6489 2800 N 0 -887 28 27 0 865 h
6517 2805 N 0 -911 29 5 0 887 h
6546 2786 N 0 -881 28 -15 0 911 h
6574 2801 N 0 -924 29 30 0 881 h
6603 2788 N 0 -917 29 -4 0 924 h
6632 2791 N 0 -905 28 -8 0 917 h
6660 2795 N 0 -960 29 -2 0 905 h
6689 2738 N 0 -994 28 56 0 960 h
6717 2760 N 0 -981 29 -10 0 994 h
6746 2763 N 0 -983 28 36 0 981 h
6774 2797 N 0 -943 29 -26 0 983 h
3.000 UL
LT0
0.47 0.60 0.71 C LTb
LT0
0.47 0.60 0.71 C 5948 1097 M
591 0 V
946 1554 M
29 100 V
28 52 V
29 50 V
28 54 V
29 63 V
28 17 V
29 122 V
29 88 V
28 64 V
29 25 V
28 22 V
29 18 V
28 8 V
29 49 V
29 66 V
28 102 V
29 19 V
28 35 V
29 -12 V
28 27 V
29 4 V
29 -5 V
28 26 V
29 30 V
28 40 V
29 30 V
28 39 V
29 46 V
29 57 V
28 12 V
29 -19 V
28 37 V
29 -24 V
28 -3 V
29 24 V
29 3 V
28 -7 V
29 16 V
28 -1 V
29 9 V
28 0 V
29 -5 V
29 23 V
28 -13 V
29 -6 V
28 19 V
29 -13 V
28 3 V
29 62 V
29 -22 V
28 -48 V
29 -36 V
28 15 V
29 12 V
28 -3 V
29 29 V
29 13 V
28 28 V
29 -15 V
28 -11 V
29 33 V
28 -7 V
29 19 V
29 0 V
28 34 V
29 16 V
28 -13 V
29 -21 V
28 -28 V
29 -1 V
29 2 V
28 -4 V
29 -15 V
28 54 V
29 3 V
28 36 V
29 -8 V
29 43 V
28 -2 V
29 -21 V
28 -1 V
29 34 V
28 -4 V
29 10 V
29 -1 V
28 2 V
29 -9 V
28 -21 V
29 -5 V
28 -38 V
29 6 V
29 64 V
28 7 V
29 5 V
28 14 V
29 5 V
28 -19 V
29 -9 V
29 64 V
28 17 V
29 6 V
28 -33 V
stroke 3860 3083 M
29 -25 V
28 12 V
29 11 V
28 41 V
29 -3 V
29 34 V
28 28 V
29 43 V
28 62 V
29 25 V
28 -4 V
29 -17 V
29 -15 V
28 24 V
29 -13 V
28 -3 V
29 12 V
28 12 V
29 -1 V
29 -2 V
28 4 V
29 -20 V
28 -11 V
29 -8 V
28 -5 V
29 4 V
29 30 V
28 -33 V
29 -69 V
28 9 V
29 20 V
28 10 V
29 -20 V
29 0 V
28 -23 V
29 3 V
28 31 V
29 21 V
28 -32 V
29 -31 V
29 12 V
28 -31 V
29 1 V
28 15 V
29 16 V
28 34 V
29 3 V
29 -19 V
28 19 V
29 8 V
28 6 V
29 -16 V
28 10 V
29 31 V
29 -25 V
28 -6 V
29 -2 V
28 -10 V
29 20 V
28 -20 V
29 20 V
29 4 V
28 -6 V
29 23 V
28 24 V
29 5 V
28 -32 V
29 36 V
29 -5 V
28 -38 V
29 -1 V
28 29 V
29 -18 V
28 -43 V
29 -18 V
29 38 V
28 -4 V
29 -12 V
28 -2 V
29 -5 V
28 -1 V
29 -3 V
29 30 V
28 -6 V
29 15 V
28 -14 V
29 -22 V
28 38 V
29 -16 V
29 5 V
28 7 V
29 -26 V
28 16 V
29 -6 V
28 0 V
29 8 V
29 -1 V
28 -1 V
29 -30 V
28 39 V
29 -3 V
28 35 V
29 -7 V
stroke
LT0
0.27 0.31 0.31 C LTb
LT0
0.27 0.31 0.31 C 5948 877 M
591 0 V
946 3147 M
29 0 V
28 -163 V
29 0 V
28 325 V
29 0 V
28 0 V
29 163 V
29 -163 V
28 0 V
29 163 V
28 0 V
29 163 V
28 -163 V
29 163 V
29 0 V
28 163 V
29 -163 V
28 163 V
29 0 V
28 -163 V
29 163 V
29 0 V
28 326 V
29 -163 V
28 -163 V
29 0 V
28 0 V
29 163 V
29 0 V
28 -163 V
29 163 V
28 0 V
29 -163 V
28 163 V
29 0 V
29 -163 V
28 163 V
29 -163 V
28 326 V
29 -163 V
28 -163 V
29 326 V
29 -326 V
28 0 V
29 0 V
28 163 V
29 0 V
28 163 V
29 -163 V
29 0 V
28 0 V
29 -163 V
28 0 V
29 0 V
28 326 V
29 162 V
29 -325 V
28 -163 V
29 0 V
28 0 V
29 326 V
28 0 V
29 -163 V
29 -163 V
28 326 V
29 -163 V
28 325 V
29 0 V
28 0 V
29 -162 V
29 0 V
28 0 V
29 -163 V
28 163 V
29 0 V
28 0 V
29 162 V
29 -162 V
28 162 V
29 -162 V
28 162 V
29 -325 V
28 163 V
29 162 V
29 -162 V
28 162 V
29 0 V
28 0 V
29 -162 V
28 325 V
29 -163 V
29 0 V
28 0 V
29 0 V
28 163 V
29 -163 V
28 0 V
29 0 V
29 0 V
28 0 V
29 0 V
28 -162 V
stroke 3860 4124 M
29 0 V
28 0 V
29 162 V
28 -162 V
29 0 V
29 0 V
28 325 V
29 -163 V
28 0 V
29 0 V
28 163 V
29 -163 V
29 -162 V
28 325 V
29 0 V
28 -163 V
29 -162 V
28 162 V
29 0 V
29 163 V
28 -163 V
29 163 V
28 -163 V
29 0 V
28 163 V
29 163 V
29 0 V
28 -163 V
29 0 V
28 0 V
29 0 V
28 163 V
29 -163 V
29 -163 V
28 0 V
29 -162 V
28 0 V
29 162 V
28 163 V
29 -325 V
29 162 V
28 -162 V
29 162 V
28 0 V
29 -162 V
28 325 V
29 0 V
29 163 V
28 -326 V
29 0 V
28 -162 V
29 0 V
28 162 V
29 -162 V
29 162 V
28 163 V
29 -163 V
28 0 V
29 0 V
28 163 V
29 -163 V
29 -162 V
28 162 V
29 -162 V
28 162 V
29 163 V
28 -163 V
29 163 V
29 0 V
28 -163 V
29 -162 V
28 162 V
29 0 V
28 0 V
29 0 V
29 0 V
28 -162 V
29 162 V
28 -162 V
29 0 V
28 0 V
29 162 V
29 0 V
28 0 V
29 0 V
28 163 V
29 -163 V
28 163 V
29 -325 V
29 325 V
28 -163 V
29 0 V
28 0 V
29 163 V
28 -163 V
29 163 V
29 -163 V
28 163 V
29 0 V
28 0 V
29 -163 V
28 0 V
29 489 V
stroke
1.000 UL
LTb
946 4775 N
946 704 L
5857 0 V
0 4071 V
-5857 0 V
Z stroke
1.000 UP
1.000 UL
LTb
stroke
grestore
end
showpage
%%Trailer
