%!PS-Adobe-2.0 EPSF-2.0
%%Title: fulltrackerfit.tex
%%Creator: gnuplot 4.6 patchlevel 3
%%CreationDate: Thu Apr  3 05:05:02 2014
%%DocumentFonts: 
%%BoundingBox: 50 50 410 302
%%EndComments
%%BeginProlog
/gnudict 256 dict def
gnudict begin
%
% The following true/false flags may be edited by hand if desired.
% The unit line width and grayscale image gamma correction may also be changed.
%
/Color false def
/Blacktext true def
/Solid false def
/Dashlength 1 def
/Landscape false def
/Level1 false def
/Rounded false def
/ClipToBoundingBox false def
/SuppressPDFMark false def
/TransparentPatterns false def
/gnulinewidth 5.000 def
/userlinewidth gnulinewidth def
/Gamma 1.0 def
/BackgroundColor {-1.000 -1.000 -1.000} def
%
/vshift -73 def
/dl1 {
  10.0 Dashlength mul mul
  Rounded { currentlinewidth 0.75 mul sub dup 0 le { pop 0.01 } if } if
} def
/dl2 {
  10.0 Dashlength mul mul
  Rounded { currentlinewidth 0.75 mul add } if
} def
/hpt_ 31.5 def
/vpt_ 31.5 def
/hpt hpt_ def
/vpt vpt_ def
/doclip {
  ClipToBoundingBox {
    newpath 50 50 moveto 410 50 lineto 410 302 lineto 50 302 lineto closepath
    clip
  } if
} def
%
% Gnuplot Prolog Version 4.6 (September 2012)
%
%/SuppressPDFMark true def
%
/M {moveto} bind def
/L {lineto} bind def
/R {rmoveto} bind def
/V {rlineto} bind def
/N {newpath moveto} bind def
/Z {closepath} bind def
/C {setrgbcolor} bind def
/f {rlineto fill} bind def
/g {setgray} bind def
/Gshow {show} def   % May be redefined later in the file to support UTF-8
/vpt2 vpt 2 mul def
/hpt2 hpt 2 mul def
/Lshow {currentpoint stroke M 0 vshift R 
	Blacktext {gsave 0 setgray show grestore} {show} ifelse} def
/Rshow {currentpoint stroke M dup stringwidth pop neg vshift R
	Blacktext {gsave 0 setgray show grestore} {show} ifelse} def
/Cshow {currentpoint stroke M dup stringwidth pop -2 div vshift R 
	Blacktext {gsave 0 setgray show grestore} {show} ifelse} def
/UP {dup vpt_ mul /vpt exch def hpt_ mul /hpt exch def
  /hpt2 hpt 2 mul def /vpt2 vpt 2 mul def} def
/DL {Color {setrgbcolor Solid {pop []} if 0 setdash}
 {pop pop pop 0 setgray Solid {pop []} if 0 setdash} ifelse} def
/BL {stroke userlinewidth 2 mul setlinewidth
	Rounded {1 setlinejoin 1 setlinecap} if} def
/AL {stroke userlinewidth 2 div setlinewidth
	Rounded {1 setlinejoin 1 setlinecap} if} def
/UL {dup gnulinewidth mul /userlinewidth exch def
	dup 1 lt {pop 1} if 10 mul /udl exch def} def
/PL {stroke userlinewidth setlinewidth
	Rounded {1 setlinejoin 1 setlinecap} if} def
3.8 setmiterlimit
% Default Line colors
/LCw {1 1 1} def
/LCb {0 0 0} def
/LCa {0 0 0} def
/LC0 {1 0 0} def
/LC1 {0 1 0} def
/LC2 {0 0 1} def
/LC3 {1 0 1} def
/LC4 {0 1 1} def
/LC5 {1 1 0} def
/LC6 {0 0 0} def
/LC7 {1 0.3 0} def
/LC8 {0.5 0.5 0.5} def
% Default Line Types
/LTw {PL [] 1 setgray} def
/LTb {BL [] LCb DL} def
/LTa {AL [1 udl mul 2 udl mul] 0 setdash LCa setrgbcolor} def
/LT0 {PL [] LC0 DL} def
/LT1 {PL [4 dl1 2 dl2] LC1 DL} def
/LT2 {PL [2 dl1 3 dl2] LC2 DL} def
/LT3 {PL [1 dl1 1.5 dl2] LC3 DL} def
/LT4 {PL [6 dl1 2 dl2 1 dl1 2 dl2] LC4 DL} def
/LT5 {PL [3 dl1 3 dl2 1 dl1 3 dl2] LC5 DL} def
/LT6 {PL [2 dl1 2 dl2 2 dl1 6 dl2] LC6 DL} def
/LT7 {PL [1 dl1 2 dl2 6 dl1 2 dl2 1 dl1 2 dl2] LC7 DL} def
/LT8 {PL [2 dl1 2 dl2 2 dl1 2 dl2 2 dl1 2 dl2 2 dl1 4 dl2] LC8 DL} def
/Pnt {stroke [] 0 setdash gsave 1 setlinecap M 0 0 V stroke grestore} def
/Dia {stroke [] 0 setdash 2 copy vpt add M
  hpt neg vpt neg V hpt vpt neg V
  hpt vpt V hpt neg vpt V closepath stroke
  Pnt} def
/Pls {stroke [] 0 setdash vpt sub M 0 vpt2 V
  currentpoint stroke M
  hpt neg vpt neg R hpt2 0 V stroke
 } def
/Box {stroke [] 0 setdash 2 copy exch hpt sub exch vpt add M
  0 vpt2 neg V hpt2 0 V 0 vpt2 V
  hpt2 neg 0 V closepath stroke
  Pnt} def
/Crs {stroke [] 0 setdash exch hpt sub exch vpt add M
  hpt2 vpt2 neg V currentpoint stroke M
  hpt2 neg 0 R hpt2 vpt2 V stroke} def
/TriU {stroke [] 0 setdash 2 copy vpt 1.12 mul add M
  hpt neg vpt -1.62 mul V
  hpt 2 mul 0 V
  hpt neg vpt 1.62 mul V closepath stroke
  Pnt} def
/Star {2 copy Pls Crs} def
/BoxF {stroke [] 0 setdash exch hpt sub exch vpt add M
  0 vpt2 neg V hpt2 0 V 0 vpt2 V
  hpt2 neg 0 V closepath fill} def
/TriUF {stroke [] 0 setdash vpt 1.12 mul add M
  hpt neg vpt -1.62 mul V
  hpt 2 mul 0 V
  hpt neg vpt 1.62 mul V closepath fill} def
/TriD {stroke [] 0 setdash 2 copy vpt 1.12 mul sub M
  hpt neg vpt 1.62 mul V
  hpt 2 mul 0 V
  hpt neg vpt -1.62 mul V closepath stroke
  Pnt} def
/TriDF {stroke [] 0 setdash vpt 1.12 mul sub M
  hpt neg vpt 1.62 mul V
  hpt 2 mul 0 V
  hpt neg vpt -1.62 mul V closepath fill} def
/DiaF {stroke [] 0 setdash vpt add M
  hpt neg vpt neg V hpt vpt neg V
  hpt vpt V hpt neg vpt V closepath fill} def
/Pent {stroke [] 0 setdash 2 copy gsave
  translate 0 hpt M 4 {72 rotate 0 hpt L} repeat
  closepath stroke grestore Pnt} def
/PentF {stroke [] 0 setdash gsave
  translate 0 hpt M 4 {72 rotate 0 hpt L} repeat
  closepath fill grestore} def
/Circle {stroke [] 0 setdash 2 copy
  hpt 0 360 arc stroke Pnt} def
/CircleF {stroke [] 0 setdash hpt 0 360 arc fill} def
/C0 {BL [] 0 setdash 2 copy moveto vpt 90 450 arc} bind def
/C1 {BL [] 0 setdash 2 copy moveto
	2 copy vpt 0 90 arc closepath fill
	vpt 0 360 arc closepath} bind def
/C2 {BL [] 0 setdash 2 copy moveto
	2 copy vpt 90 180 arc closepath fill
	vpt 0 360 arc closepath} bind def
/C3 {BL [] 0 setdash 2 copy moveto
	2 copy vpt 0 180 arc closepath fill
	vpt 0 360 arc closepath} bind def
/C4 {BL [] 0 setdash 2 copy moveto
	2 copy vpt 180 270 arc closepath fill
	vpt 0 360 arc closepath} bind def
/C5 {BL [] 0 setdash 2 copy moveto
	2 copy vpt 0 90 arc
	2 copy moveto
	2 copy vpt 180 270 arc closepath fill
	vpt 0 360 arc} bind def
/C6 {BL [] 0 setdash 2 copy moveto
	2 copy vpt 90 270 arc closepath fill
	vpt 0 360 arc closepath} bind def
/C7 {BL [] 0 setdash 2 copy moveto
	2 copy vpt 0 270 arc closepath fill
	vpt 0 360 arc closepath} bind def
/C8 {BL [] 0 setdash 2 copy moveto
	2 copy vpt 270 360 arc closepath fill
	vpt 0 360 arc closepath} bind def
/C9 {BL [] 0 setdash 2 copy moveto
	2 copy vpt 270 450 arc closepath fill
	vpt 0 360 arc closepath} bind def
/C10 {BL [] 0 setdash 2 copy 2 copy moveto vpt 270 360 arc closepath fill
	2 copy moveto
	2 copy vpt 90 180 arc closepath fill
	vpt 0 360 arc closepath} bind def
/C11 {BL [] 0 setdash 2 copy moveto
	2 copy vpt 0 180 arc closepath fill
	2 copy moveto
	2 copy vpt 270 360 arc closepath fill
	vpt 0 360 arc closepath} bind def
/C12 {BL [] 0 setdash 2 copy moveto
	2 copy vpt 180 360 arc closepath fill
	vpt 0 360 arc closepath} bind def
/C13 {BL [] 0 setdash 2 copy moveto
	2 copy vpt 0 90 arc closepath fill
	2 copy moveto
	2 copy vpt 180 360 arc closepath fill
	vpt 0 360 arc closepath} bind def
/C14 {BL [] 0 setdash 2 copy moveto
	2 copy vpt 90 360 arc closepath fill
	vpt 0 360 arc} bind def
/C15 {BL [] 0 setdash 2 copy vpt 0 360 arc closepath fill
	vpt 0 360 arc closepath} bind def
/Rec {newpath 4 2 roll moveto 1 index 0 rlineto 0 exch rlineto
	neg 0 rlineto closepath} bind def
/Square {dup Rec} bind def
/Bsquare {vpt sub exch vpt sub exch vpt2 Square} bind def
/S0 {BL [] 0 setdash 2 copy moveto 0 vpt rlineto BL Bsquare} bind def
/S1 {BL [] 0 setdash 2 copy vpt Square fill Bsquare} bind def
/S2 {BL [] 0 setdash 2 copy exch vpt sub exch vpt Square fill Bsquare} bind def
/S3 {BL [] 0 setdash 2 copy exch vpt sub exch vpt2 vpt Rec fill Bsquare} bind def
/S4 {BL [] 0 setdash 2 copy exch vpt sub exch vpt sub vpt Square fill Bsquare} bind def
/S5 {BL [] 0 setdash 2 copy 2 copy vpt Square fill
	exch vpt sub exch vpt sub vpt Square fill Bsquare} bind def
/S6 {BL [] 0 setdash 2 copy exch vpt sub exch vpt sub vpt vpt2 Rec fill Bsquare} bind def
/S7 {BL [] 0 setdash 2 copy exch vpt sub exch vpt sub vpt vpt2 Rec fill
	2 copy vpt Square fill Bsquare} bind def
/S8 {BL [] 0 setdash 2 copy vpt sub vpt Square fill Bsquare} bind def
/S9 {BL [] 0 setdash 2 copy vpt sub vpt vpt2 Rec fill Bsquare} bind def
/S10 {BL [] 0 setdash 2 copy vpt sub vpt Square fill 2 copy exch vpt sub exch vpt Square fill
	Bsquare} bind def
/S11 {BL [] 0 setdash 2 copy vpt sub vpt Square fill 2 copy exch vpt sub exch vpt2 vpt Rec fill
	Bsquare} bind def
/S12 {BL [] 0 setdash 2 copy exch vpt sub exch vpt sub vpt2 vpt Rec fill Bsquare} bind def
/S13 {BL [] 0 setdash 2 copy exch vpt sub exch vpt sub vpt2 vpt Rec fill
	2 copy vpt Square fill Bsquare} bind def
/S14 {BL [] 0 setdash 2 copy exch vpt sub exch vpt sub vpt2 vpt Rec fill
	2 copy exch vpt sub exch vpt Square fill Bsquare} bind def
/S15 {BL [] 0 setdash 2 copy Bsquare fill Bsquare} bind def
/D0 {gsave translate 45 rotate 0 0 S0 stroke grestore} bind def
/D1 {gsave translate 45 rotate 0 0 S1 stroke grestore} bind def
/D2 {gsave translate 45 rotate 0 0 S2 stroke grestore} bind def
/D3 {gsave translate 45 rotate 0 0 S3 stroke grestore} bind def
/D4 {gsave translate 45 rotate 0 0 S4 stroke grestore} bind def
/D5 {gsave translate 45 rotate 0 0 S5 stroke grestore} bind def
/D6 {gsave translate 45 rotate 0 0 S6 stroke grestore} bind def
/D7 {gsave translate 45 rotate 0 0 S7 stroke grestore} bind def
/D8 {gsave translate 45 rotate 0 0 S8 stroke grestore} bind def
/D9 {gsave translate 45 rotate 0 0 S9 stroke grestore} bind def
/D10 {gsave translate 45 rotate 0 0 S10 stroke grestore} bind def
/D11 {gsave translate 45 rotate 0 0 S11 stroke grestore} bind def
/D12 {gsave translate 45 rotate 0 0 S12 stroke grestore} bind def
/D13 {gsave translate 45 rotate 0 0 S13 stroke grestore} bind def
/D14 {gsave translate 45 rotate 0 0 S14 stroke grestore} bind def
/D15 {gsave translate 45 rotate 0 0 S15 stroke grestore} bind def
/DiaE {stroke [] 0 setdash vpt add M
  hpt neg vpt neg V hpt vpt neg V
  hpt vpt V hpt neg vpt V closepath stroke} def
/BoxE {stroke [] 0 setdash exch hpt sub exch vpt add M
  0 vpt2 neg V hpt2 0 V 0 vpt2 V
  hpt2 neg 0 V closepath stroke} def
/TriUE {stroke [] 0 setdash vpt 1.12 mul add M
  hpt neg vpt -1.62 mul V
  hpt 2 mul 0 V
  hpt neg vpt 1.62 mul V closepath stroke} def
/TriDE {stroke [] 0 setdash vpt 1.12 mul sub M
  hpt neg vpt 1.62 mul V
  hpt 2 mul 0 V
  hpt neg vpt -1.62 mul V closepath stroke} def
/PentE {stroke [] 0 setdash gsave
  translate 0 hpt M 4 {72 rotate 0 hpt L} repeat
  closepath stroke grestore} def
/CircE {stroke [] 0 setdash 
  hpt 0 360 arc stroke} def
/Opaque {gsave closepath 1 setgray fill grestore 0 setgray closepath} def
/DiaW {stroke [] 0 setdash vpt add M
  hpt neg vpt neg V hpt vpt neg V
  hpt vpt V hpt neg vpt V Opaque stroke} def
/BoxW {stroke [] 0 setdash exch hpt sub exch vpt add M
  0 vpt2 neg V hpt2 0 V 0 vpt2 V
  hpt2 neg 0 V Opaque stroke} def
/TriUW {stroke [] 0 setdash vpt 1.12 mul add M
  hpt neg vpt -1.62 mul V
  hpt 2 mul 0 V
  hpt neg vpt 1.62 mul V Opaque stroke} def
/TriDW {stroke [] 0 setdash vpt 1.12 mul sub M
  hpt neg vpt 1.62 mul V
  hpt 2 mul 0 V
  hpt neg vpt -1.62 mul V Opaque stroke} def
/PentW {stroke [] 0 setdash gsave
  translate 0 hpt M 4 {72 rotate 0 hpt L} repeat
  Opaque stroke grestore} def
/CircW {stroke [] 0 setdash 
  hpt 0 360 arc Opaque stroke} def
/BoxFill {gsave Rec 1 setgray fill grestore} def
/Density {
  /Fillden exch def
  currentrgbcolor
  /ColB exch def /ColG exch def /ColR exch def
  /ColR ColR Fillden mul Fillden sub 1 add def
  /ColG ColG Fillden mul Fillden sub 1 add def
  /ColB ColB Fillden mul Fillden sub 1 add def
  ColR ColG ColB setrgbcolor} def
/BoxColFill {gsave Rec PolyFill} def
/PolyFill {gsave Density fill grestore grestore} def
/h {rlineto rlineto rlineto gsave closepath fill grestore} bind def
%
% PostScript Level 1 Pattern Fill routine for rectangles
% Usage: x y w h s a XX PatternFill
%	x,y = lower left corner of box to be filled
%	w,h = width and height of box
%	  a = angle in degrees between lines and x-axis
%	 XX = 0/1 for no/yes cross-hatch
%
/PatternFill {gsave /PFa [ 9 2 roll ] def
  PFa 0 get PFa 2 get 2 div add PFa 1 get PFa 3 get 2 div add translate
  PFa 2 get -2 div PFa 3 get -2 div PFa 2 get PFa 3 get Rec
  TransparentPatterns {} {gsave 1 setgray fill grestore} ifelse
  clip
  currentlinewidth 0.5 mul setlinewidth
  /PFs PFa 2 get dup mul PFa 3 get dup mul add sqrt def
  0 0 M PFa 5 get rotate PFs -2 div dup translate
  0 1 PFs PFa 4 get div 1 add floor cvi
	{PFa 4 get mul 0 M 0 PFs V} for
  0 PFa 6 get ne {
	0 1 PFs PFa 4 get div 1 add floor cvi
	{PFa 4 get mul 0 2 1 roll M PFs 0 V} for
 } if
  stroke grestore} def
%
/languagelevel where
 {pop languagelevel} {1} ifelse
 2 lt
	{/InterpretLevel1 true def}
	{/InterpretLevel1 Level1 def}
 ifelse
%
% PostScript level 2 pattern fill definitions
%
/Level2PatternFill {
/Tile8x8 {/PaintType 2 /PatternType 1 /TilingType 1 /BBox [0 0 8 8] /XStep 8 /YStep 8}
	bind def
/KeepColor {currentrgbcolor [/Pattern /DeviceRGB] setcolorspace} bind def
<< Tile8x8
 /PaintProc {0.5 setlinewidth pop 0 0 M 8 8 L 0 8 M 8 0 L stroke} 
>> matrix makepattern
/Pat1 exch def
<< Tile8x8
 /PaintProc {0.5 setlinewidth pop 0 0 M 8 8 L 0 8 M 8 0 L stroke
	0 4 M 4 8 L 8 4 L 4 0 L 0 4 L stroke}
>> matrix makepattern
/Pat2 exch def
<< Tile8x8
 /PaintProc {0.5 setlinewidth pop 0 0 M 0 8 L
	8 8 L 8 0 L 0 0 L fill}
>> matrix makepattern
/Pat3 exch def
<< Tile8x8
 /PaintProc {0.5 setlinewidth pop -4 8 M 8 -4 L
	0 12 M 12 0 L stroke}
>> matrix makepattern
/Pat4 exch def
<< Tile8x8
 /PaintProc {0.5 setlinewidth pop -4 0 M 8 12 L
	0 -4 M 12 8 L stroke}
>> matrix makepattern
/Pat5 exch def
<< Tile8x8
 /PaintProc {0.5 setlinewidth pop -2 8 M 4 -4 L
	0 12 M 8 -4 L 4 12 M 10 0 L stroke}
>> matrix makepattern
/Pat6 exch def
<< Tile8x8
 /PaintProc {0.5 setlinewidth pop -2 0 M 4 12 L
	0 -4 M 8 12 L 4 -4 M 10 8 L stroke}
>> matrix makepattern
/Pat7 exch def
<< Tile8x8
 /PaintProc {0.5 setlinewidth pop 8 -2 M -4 4 L
	12 0 M -4 8 L 12 4 M 0 10 L stroke}
>> matrix makepattern
/Pat8 exch def
<< Tile8x8
 /PaintProc {0.5 setlinewidth pop 0 -2 M 12 4 L
	-4 0 M 12 8 L -4 4 M 8 10 L stroke}
>> matrix makepattern
/Pat9 exch def
/Pattern1 {PatternBgnd KeepColor Pat1 setpattern} bind def
/Pattern2 {PatternBgnd KeepColor Pat2 setpattern} bind def
/Pattern3 {PatternBgnd KeepColor Pat3 setpattern} bind def
/Pattern4 {PatternBgnd KeepColor Landscape {Pat5} {Pat4} ifelse setpattern} bind def
/Pattern5 {PatternBgnd KeepColor Landscape {Pat4} {Pat5} ifelse setpattern} bind def
/Pattern6 {PatternBgnd KeepColor Landscape {Pat9} {Pat6} ifelse setpattern} bind def
/Pattern7 {PatternBgnd KeepColor Landscape {Pat8} {Pat7} ifelse setpattern} bind def
} def
%
%
%End of PostScript Level 2 code
%
/PatternBgnd {
  TransparentPatterns {} {gsave 1 setgray fill grestore} ifelse
} def
%
% Substitute for Level 2 pattern fill codes with
% grayscale if Level 2 support is not selected.
%
/Level1PatternFill {
/Pattern1 {0.250 Density} bind def
/Pattern2 {0.500 Density} bind def
/Pattern3 {0.750 Density} bind def
/Pattern4 {0.125 Density} bind def
/Pattern5 {0.375 Density} bind def
/Pattern6 {0.625 Density} bind def
/Pattern7 {0.875 Density} bind def
} def
%
% Now test for support of Level 2 code
%
Level1 {Level1PatternFill} {Level2PatternFill} ifelse
%
/Symbol-Oblique /Symbol findfont [1 0 .167 1 0 0] makefont
dup length dict begin {1 index /FID eq {pop pop} {def} ifelse} forall
currentdict end definefont pop
Level1 SuppressPDFMark or 
{} {
/SDict 10 dict def
systemdict /pdfmark known not {
  userdict /pdfmark systemdict /cleartomark get put
} if
SDict begin [
  /Title (fulltrackerfit.tex)
  /Subject (gnuplot plot)
  /Creator (gnuplot 4.6 patchlevel 3)
  /Author (mg)
%  /Producer (gnuplot)
%  /Keywords ()
  /CreationDate (Thu Apr  3 05:05:02 2014)
  /DOCINFO pdfmark
end
} ifelse
end
%%EndProlog
%%Page: 1 1
gnudict begin
gsave
doclip
50 50 translate
0.050 0.050 scale
0 setgray
newpath
1.000 UL
LTb
946 704 M
5857 0 R
946 1213 M
5857 0 R
946 1722 M
5857 0 R
946 2231 M
5857 0 R
946 2740 M
5857 0 R
946 3248 M
5857 0 R
946 3757 M
5857 0 R
946 4266 M
5857 0 R
946 4775 M
5857 0 R
946 704 M
0 4071 R
1533 704 M
0 4071 R
2120 704 M
0 4071 R
2707 704 M
0 4071 R
3293 704 M
0 4071 R
3880 704 M
0 4071 R
4467 704 M
0 4071 R
5054 704 M
0 4071 R
5641 704 M
0 4071 R
6228 704 M
0 4071 R
stroke
946 4775 N
946 704 L
5857 0 V
0 4071 V
-5857 0 V
Z stroke
1.000 UP
1.000 UL
LTb
1.000 UL
LT0
0.76 0.83 0.85 C LTb
LT0
0.76 0.83 0.85 C 1.000 5948 1262 591 110 BoxColFill
5948 1262 N
591 0 V
0 110 V
-591 0 V
0 -110 V
Z stroke
LT0
0.76 0.83 0.85 C 946 1198 N 0 -345 12 25 0 329 h
958 1207 N 0 -409 11 45 0 345 h
969 1188 N 0 -306 12 -77 0 409 h
981 1214 N 0 -368 12 38 0 306 h
993 1190 N 0 -381 12 49 0 368 h
1005 1226 N 0 -351 11 -7 0 381 h
1016 1249 N 0 -392 12 35 0 351 h
1028 1243 N 0 -345 12 -29 0 392 h
1040 1261 N 0 -388 12 2 0 345 h
1052 1220 N 0 -446 11 37 0 388 h
1063 1199 N 0 -492 12 26 0 446 h
1075 1179 N 0 -501 12 14 0 492 h
1087 1184 N 0 -493 12 -21 0 501 h
1099 1171 N 0 -540 11 29 0 493 h
1110 1153 N 0 -474 12 -28 0 540 h
1122 1191 N 0 -431 12 -40 0 474 h
1134 1194 N 0 -470 12 50 0 431 h
1146 1205 N 0 -489 11 37 0 470 h
1157 1223 N 0 -482 12 24 0 489 h
1169 1254 N 0 -497 12 -41 0 482 h
1181 1198 N 0 -507 11 5 0 497 h
1192 1193 N 0 -534 12 42 0 507 h
1204 1208 N 0 -519 12 -8 0 534 h
1216 1215 N 0 -496 12 -16 0 519 h
1228 1222 N 0 -529 11 42 0 496 h
1239 1231 N 0 -552 12 -6 0 529 h
1251 1202 N 0 -486 12 -92 0 552 h
1263 1176 N 0 -591 12 99 0 486 h
1275 1170 N 0 -582 11 -11 0 591 h
1286 1168 N 0 -494 12 -59 0 582 h
1298 1197 N 0 -528 12 39 0 494 h
1310 1202 N 0 -585 12 17 0 528 h
1322 1162 N 0 -614 11 92 0 585 h
1333 1225 N 0 -577 12 14 0 614 h
1345 1276 N 0 -617 12 -26 0 577 h
1357 1210 N 0 -618 12 31 0 617 h
1369 1240 N 0 -776 11 155 0 618 h
1380 1237 N 0 -762 12 -12 0 776 h
1392 1239 N 0 -675 12 -85 0 762 h
1404 1241 N 0 -615 11 8 0 675 h
1415 1309 N 0 -718 12 75 0 615 h
1427 1281 N 0 -757 12 18 0 718 h
1439 1260 N 0 -732 12 -3 0 757 h
1451 1282 N 0 -760 11 31 0 732 h
1462 1285 N 0 -811 12 122 0 760 h
1474 1356 N 0 -844 12 8 0 811 h
1486 1331 N 0 -838 12 -18 0 844 h
1498 1319 N 0 -824 11 -11 0 838 h
1509 1322 N 0 -841 12 79 0 824 h
1521 1384 N 0 -828 12 -112 0 841 h
1533 1285 N 0 -858 12 101 0 828 h
1545 1356 N 0 -918 11 137 0 858 h
1556 1433 N 0 -879 12 -71 0 918 h
1568 1401 N 0 -977 12 98 0 879 h
1580 1401 N 0 -922 12 65 0 977 h
1592 1521 N 0 -905 11 -41 0 922 h
1603 1497 N 0 -1047 12 115 0 905 h
1615 1470 N 0 -1039 12 9 0 1047 h
1627 1487 N 0 -992 12 67 0 1039 h
1639 1601 N 0 -1082 11 -24 0 992 h
1650 1487 N 0 -1026 12 20 0 1082 h
1662 1563 N 0 -1108 12 79 0 1026 h
1674 1560 N 0 -1076 11 67 0 1108 h
1685 1659 N 0 -980 12 -23 0 1076 h
1697 1732 N 0 -1001 12 44 0 980 h
1709 1755 N 0 -970 12 -33 0 1001 h
1721 1753 N 0 -957 11 67 0 970 h
1732 1833 N 0 -836 12 21 0 957 h
1744 1975 N 0 -956 12 -12 0 836 h
1756 1843 N 0 -915 12 67 0 956 h
1768 1951 N 0 -1004 11 12 0 915 h
1779 1874 N 0 -942 12 -14 0 1004 h
1791 1922 N 0 -946 12 -9 0 942 h
1803 1909 N 0 -880 12 -57 0 946 h
1815 1918 N 0 -1009 11 104 0 880 h
1826 1893 N 0 -942 12 -13 0 1009 h
1838 1947 N 0 -815 12 -98 0 942 h
1850 1976 N 0 -779 12 16 0 815 h
1862 2028 N 0 -897 11 110 0 779 h
1873 2020 N 0 -903 12 57 0 897 h
1885 2071 N 0 -943 12 44 0 903 h
1897 2075 N 0 -742 11 -8 0 943 h
1908 2268 N 0 -807 12 54 0 742 h
1920 2257 N 0 -831 12 -45 0 807 h
1932 2188 N 0 -781 12 1 0 831 h
1944 2239 N 0 -813 11 55 0 781 h
1955 2262 N 0 -623 12 -96 0 813 h
1967 2356 N 0 -836 12 157 0 623 h
1979 2300 N 0 -852 12 8 0 836 h
1991 2292 N 0 -851 11 57 0 852 h
2002 2350 N 0 -846 12 -11 0 851 h
2014 2344 N 0 -928 12 -6 0 846 h
2026 2256 N 0 -824 12 29 0 928 h
2038 2389 N 0 -850 11 43 0 824 h
2049 2406 N 0 -820 12 15 0 850 h
2061 2451 N 0 -873 12 -20 0 820 h
2073 2378 N 0 -756 12 -76 0 873 h
2085 2419 N 0 -816 11 -15 0 756 h
2096 2344 N 0 -828 12 45 0 816 h
2108 2377 N 0 -828 12 77 0 828 h
2120 2454 N 0 -843 11 -69 0 828 h
2131 2370 N 0 -783 12 -42 0 843 h
2143 2388 N 0 -736 12 74 0 783 h
2155 2509 N 0 -831 12 16 0 736 h
2167 2430 N 0 -751 11 -54 0 831 h
2178 2456 N 0 -813 12 61 0 751 h
2190 2455 N 0 -1038 12 -50 0 813 h
2202 2180 N 0 -955 12 32 0 1038 h
2214 2295 N 0 -967 11 -3 0 955 h
2225 2280 N 0 -950 12 -2 0 967 h
2237 2295 N 0 -973 12 20 0 950 h
2249 2292 N 0 -935 12 62 0 973 h
2261 2392 N 0 -847 11 -10 0 935 h
2272 2470 N 0 -884 12 14 0 847 h
2284 2447 N 0 -859 12 -5 0 884 h
2296 2467 N 0 -864 12 58 0 859 h
2308 2520 N 0 -863 11 28 0 864 h
2319 2549 N 0 -887 12 -14 0 863 h
2331 2511 N 0 -1037 12 -17 0 887 h
2343 2344 N 0 -909 11 -12 0 1037 h
2354 2460 N 0 -1019 12 57 0 909 h
2366 2407 N 0 -1019 12 84 0 1019 h
2378 2491 N 0 -959 12 -6 0 1019 h
2390 2545 N 0 -1047 11 46 0 959 h
2401 2503 N 0 -1069 12 -16 0 1047 h
2413 2465 N 0 -954 12 2 0 1069 h
2425 2582 N 0 -720 12 -55 0 954 h
2437 2761 N 0 -799 11 4 0 720 h
2448 2686 N 0 -773 12 8 0 799 h
2460 2720 N 0 -759 12 19 0 773 h
2472 2753 N 0 -739 12 -67 0 759 h
2484 2706 N 0 -860 11 36 0 739 h
2495 2621 N 0 -714 12 -28 0 860 h
2507 2739 N 0 -859 12 70 0 714 h
2519 2664 N 0 -824 12 -64 0 859 h
2531 2635 N 0 -807 11 6 0 824 h
2542 2658 N 0 -900 12 -36 0 807 h
2554 2529 N 0 -766 12 11 0 900 h
2566 2674 N 0 -890 12 -4 0 766 h
2578 2546 N 0 -833 11 -43 0 890 h
2589 2560 N 0 -928 12 91 0 833 h
2601 2556 N 0 -803 12 -67 0 928 h
2613 2614 N 0 -836 11 66 0 803 h
2624 2647 N 0 -924 12 3 0 836 h
2636 2562 N 0 -1076 12 93 0 924 h
2648 2503 N 0 -967 12 -22 0 1076 h
2660 2590 N 0 -842 11 -10 0 967 h
2671 2705 N 0 -660 12 -90 0 842 h
2683 2797 N 0 -768 12 63 0 660 h
2695 2752 N 0 -878 12 23 0 768 h
2707 2665 N 0 -993 11 54 0 878 h
2718 2604 N 0 -1107 12 -4 0 993 h
2730 2486 N 0 -1000 12 -4 0 1107 h
2742 2589 N 0 -836 12 -79 0 1000 h
2754 2674 N 0 -866 11 -2 0 836 h
2765 2642 N 0 -866 12 -35 0 866 h
2777 2607 N 0 -786 12 -12 0 866 h
2789 2675 N 0 -784 12 2 0 786 h
2801 2679 N 0 -716 11 10 0 784 h
2812 2757 N 0 -882 12 45 0 716 h
2824 2636 N 0 -841 12 -31 0 882 h
2836 2646 N 0 -630 11 -3 0 841 h
2847 2854 N 0 -717 12 85 0 630 h
2859 2852 N 0 -861 12 13 0 717 h
2871 2721 N 0 -902 12 12 0 861 h
2883 2692 N 0 -799 11 -25 0 902 h
2894 2770 N 0 -845 12 16 0 799 h
2906 2740 N 0 -749 12 -5 0 845 h
2918 2831 N 0 -817 12 -37 0 749 h
2930 2726 N 0 -677 11 -65 0 817 h
2941 2801 N 0 -889 12 140 0 677 h
2953 2729 N 0 -954 12 125 0 889 h
2965 2789 N 0 -986 12 -43 0 954 h
2977 2714 N 0 -1037 11 23 0 986 h
2988 2686 N 0 -854 12 -48 0 1037 h
3000 2821 N 0 -860 12 130 0 854 h
3012 2945 N 0 -961 12 32 0 860 h
3024 2876 N 0 -888 11 36 0 961 h
3035 2985 N 0 -1260 12 106 0 888 h
3047 2719 N 0 -1230 12 -46 0 1260 h
3059 2703 N 0 -1314 11 15 0 1230 h
3070 2634 N 0 -1068 12 -113 0 1314 h
3082 2767 N 0 -1055 12 91 0 1068 h
3094 2871 N 0 -995 12 -5 0 1055 h
3106 2926 N 0 -1019 11 44 0 995 h
3117 2946 N 0 -1255 12 93 0 1019 h
3129 2803 N 0 -1062 12 25 0 1255 h
3141 3021 N 0 -1135 12 34 0 1062 h
3153 2982 N 0 -1169 11 19 0 1135 h
3164 2967 N 0 -1153 12 26 0 1169 h
3176 3009 N 0 -1219 12 3 0 1153 h
3188 2946 N 0 -1226 12 -3 0 1219 h
3200 2936 N 0 -1197 11 0 0 1226 h
3211 2965 N 0 -1328 12 6 0 1197 h
3223 2840 N 0 -1326 12 -64 0 1328 h
3235 2778 N 0 -1239 12 10 0 1326 h
3247 2875 N 0 -1133 11 -20 0 1239 h
3258 2961 N 0 -1125 12 157 0 1133 h
3270 3126 N 0 -1140 12 30 0 1125 h
3282 3141 N 0 -1225 11 17 0 1140 h
3293 3073 N 0 -1145 12 -11 0 1225 h
3305 3142 N 0 -1331 12 97 0 1145 h
3317 3053 N 0 -1068 12 -67 0 1331 h
3329 3249 N 0 -904 11 -37 0 1068 h
3340 3376 N 0 -873 12 24 0 904 h
3352 3431 N 0 -1110 12 61 0 873 h
3364 3255 N 0 -1218 12 -26 0 1110 h
3376 3121 N 0 -1015 11 -60 0 1218 h
3387 3264 N 0 -1251 12 55 0 1015 h
3399 3083 N 0 -997 12 -102 0 1251 h
3411 3235 N 0 -1125 12 47 0 997 h
3423 3154 N 0 -1388 11 87 0 1125 h
3434 2978 N 0 -1302 12 -39 0 1388 h
3446 3025 N 0 -1503 12 -9 0 1302 h
3458 2815 N 0 -1340 12 -84 0 1503 h
3470 2894 N 0 -1404 11 56 0 1340 h
3481 2886 N 0 -1242 12 37 0 1404 h
3493 3085 N 0 -1072 12 -63 0 1242 h
3505 3192 N 0 -1095 12 44 0 1072 h
3517 3213 N 0 -1174 11 76 0 1095 h
3528 3210 N 0 -748 12 -82 0 1174 h
3540 3554 N 0 -1152 12 121 0 748 h
3552 3271 N 0 -1229 11 -19 0 1152 h
3563 3175 N 0 -1287 12 4 0 1229 h
3575 3121 N 0 -1023 12 -58 0 1287 h
3587 3327 N 0 -1299 12 83 0 1023 h
3599 3134 N 0 -1208 11 -72 0 1299 h
3610 3153 N 0 -1222 12 12 0 1208 h
3622 3151 N 0 -1311 12 41 0 1222 h
3634 3103 N 0 -958 12 -96 0 1311 h
3646 3360 N 0 -1012 11 43 0 958 h
3657 3349 N 0 -973 12 -21 0 1012 h
3669 3367 N 0 -1157 12 11 0 973 h
3681 3194 N 0 -1055 12 0 0 1157 h
3693 3296 N 0 -993 11 -16 0 1055 h
3704 3342 N 0 -941 12 -42 0 993 h
3716 3352 N 0 -938 12 -14 0 941 h
3728 3341 N 0 -858 12 -24 0 938 h
3740 3397 N 0 -1093 11 61 0 858 h
3751 3223 N 0 -721 12 -105 0 1093 h
3763 3490 N 0 -1123 12 129 0 721 h
3775 3217 N 0 -1103 11 -13 0 1123 h
3786 3224 N 0 -806 12 -69 0 1103 h
3798 3452 N 0 -1066 12 96 0 806 h
3810 3288 N 0 -979 12 7 0 1066 h
3822 3382 N 0 -866 11 -32 0 979 h
3833 3463 N 0 -988 12 59 0 866 h
3845 3400 N 0 -1178 12 -20 0 988 h
3857 3190 N 0 -888 12 -43 0 1178 h
3869 3437 N 0 -936 11 11 0 888 h
3880 3400 N 0 -1275 12 83 0 936 h
3892 3144 N 0 -1280 12 -4 0 1275 h
3904 3135 N 0 -1194 12 8 0 1280 h
3916 3229 N 0 -1195 11 28 0 1194 h
3927 3256 N 0 -1131 12 -49 0 1195 h
3939 3271 N 0 -1123 12 -35 0 1131 h
3951 3244 N 0 -940 12 -51 0 1123 h
3963 3376 N 0 -991 11 42 0 940 h
3974 3367 N 0 -1153 12 33 0 991 h
3986 3238 N 0 -1251 12 58 0 1153 h
3998 3198 N 0 -1137 11 -97 0 1251 h
4009 3215 N 0 -851 12 -22 0 1137 h
4021 3479 N 0 -1067 12 43 0 851 h
4033 3306 N 0 -1097 12 -47 0 1067 h
4045 3229 N 0 -1225 11 -19 0 1097 h
4056 3082 N 0 -1105 12 26 0 1225 h
4068 3228 N 0 -1107 12 26 0 1105 h
4080 3252 N 0 -1167 12 -82 0 1107 h
4092 3110 N 0 -916 11 -16 0 1167 h
4103 3345 N 0 -1230 12 114 0 916 h
4115 3145 N 0 -1042 12 -22 0 1230 h
4127 3311 N 0 -961 12 -6 0 1042 h
4139 3386 N 0 -875 11 -17 0 961 h
4150 3455 N 0 -1062 12 54 0 875 h
4162 3322 N 0 -1043 12 -3 0 1062 h
4174 3338 N 0 -1065 12 -6 0 1043 h
4186 3310 N 0 -1063 11 5 0 1065 h
4197 3317 N 0 -992 12 32 0 1063 h
4209 3420 N 0 -1302 12 72 0 992 h
4221 3182 N 0 -1271 11 29 0 1302 h
4232 3242 N 0 -1166 12 20 0 1271 h
4244 3367 N 0 -970 12 -21 0 1166 h
4256 3542 N 0 -1004 12 5 0 970 h
4268 3513 N 0 -1214 11 -3 0 1004 h
4279 3300 N 0 -1347 12 -9 0 1214 h
4291 3158 N 0 -1241 12 47 0 1347 h
4303 3311 N 0 -1189 12 -8 0 1241 h
4315 3355 N 0 -1172 11 27 0 1189 h
4326 3399 N 0 -1047 12 63 0 1172 h
4338 3587 N 0 -1219 12 4 0 1047 h
4350 3419 N 0 -1220 12 -47 0 1219 h
4362 3371 N 0 -1214 11 -39 0 1220 h
4373 3338 N 0 -1571 12 83 0 1214 h
4385 3064 N 0 -1659 12 2 0 1571 h
4397 2978 N 0 -1245 12 -25 0 1659 h
4409 3367 N 0 -1273 11 -8 0 1245 h
4420 3331 N 0 -1118 12 -33 0 1273 h
4432 3453 N 0 -1216 12 28 0 1118 h
4444 3383 N 0 -1237 12 -44 0 1216 h
4456 3318 N 0 -1228 11 -10 0 1237 h
4467 3317 N 0 -1220 12 -37 0 1228 h
4479 3288 N 0 -983 12 27 0 1220 h
4491 3552 N 0 -1107 11 -14 0 983 h
4502 3414 N 0 -1251 12 55 0 1107 h
4514 3325 N 0 -1378 12 23 0 1251 h
4526 3221 N 0 -1135 12 -37 0 1378 h
4538 3427 N 0 -1153 11 -29 0 1135 h
4549 3380 N 0 -1272 12 76 0 1153 h
4561 3337 N 0 -1207 12 -14 0 1272 h
4573 3388 N 0 -1149 12 -28 0 1207 h
4585 3418 N 0 -1249 11 7 0 1149 h
4596 3325 N 0 -1197 12 -2 0 1249 h
4608 3375 N 0 -1153 12 -18 0 1197 h
4620 3401 N 0 -1224 12 34 0 1153 h
4632 3364 N 0 -1349 11 -7 0 1224 h
4643 3232 N 0 -1427 12 21 0 1349 h
4655 3175 N 0 -1316 12 28 0 1427 h
4667 3314 N 0 -1025 12 -35 0 1316 h
4679 3570 N 0 -1092 11 -5 0 1025 h
4690 3498 N 0 -1219 12 44 0 1092 h
4702 3415 N 0 -1499 12 18 0 1219 h
4714 3153 N 0 -1470 11 10 0 1499 h
4725 3192 N 0 -1432 12 10 0 1470 h
4737 3240 N 0 -1442 12 -21 0 1432 h
4749 3209 N 0 -1699 12 -32 0 1442 h
4761 2920 N 0 -1407 11 -12 0 1699 h
4772 3200 N 0 -1378 12 16 0 1407 h
4784 3245 N 0 -1324 12 56 0 1378 h
4796 3355 N 0 -1393 12 32 0 1324 h
4808 3318 N 0 -1456 11 -52 0 1393 h
4819 3203 N 0 -1604 12 53 0 1456 h
4831 3108 N 0 -1272 12 -75 0 1604 h
4843 3365 N 0 -1441 12 7 0 1272 h
4855 3203 N 0 -1259 11 -36 0 1441 h
4866 3349 N 0 -1314 12 -39 0 1259 h
4878 3255 N 0 -1257 12 23 0 1314 h
4890 3335 N 0 -1312 12 3 0 1257 h
4902 3283 N 0 -1322 11 25 0 1312 h
4913 3298 N 0 -1337 12 -5 0 1322 h
4925 3278 N 0 -1219 12 51 0 1337 h
4937 3447 N 0 -1197 11 9 0 1219 h
4948 3478 N 0 -1452 12 33 0 1197 h
4960 3256 N 0 -1481 12 -35 0 1452 h
4972 3192 N 0 -1322 12 -90 0 1481 h
4984 3261 N 0 -1158 11 -17 0 1322 h
4995 3408 N 0 -1352 12 20 0 1158 h
5007 3234 N 0 -1233 12 -4 0 1352 h
5019 3349 N 0 -1346 12 80 0 1233 h
5031 3316 N 0 -1469 11 -42 0 1346 h
5042 3151 N 0 -1372 12 -37 0 1469 h
5054 3211 N 0 -1266 12 25 0 1372 h
5066 3342 N 0 -1393 12 -5 0 1266 h
5078 3210 N 0 -1552 11 11 0 1393 h
5089 3062 N 0 -1642 12 -49 0 1552 h
5101 2923 N 0 -1630 12 -23 0 1642 h
5113 2912 N 0 -1719 12 -2 0 1630 h
5125 2821 N 0 -1675 11 -44 0 1719 h
5136 2821 N 0 -1550 12 4 0 1675 h
5148 2950 N 0 -1473 12 103 0 1550 h
5160 3130 N 0 -1286 11 -23 0 1473 h
5171 3294 N 0 -1317 12 -50 0 1286 h
5183 3213 N 0 -1335 12 10 0 1317 h
5195 3205 N 0 -1465 12 33 0 1335 h
5207 3108 N 0 -1407 11 33 0 1465 h
5218 3199 N 0 -1178 12 -14 0 1407 h
5230 3414 N 0 -1222 12 -15 0 1178 h
5242 3355 N 0 -1293 12 37 0 1222 h
5254 3321 N 0 -1418 11 -17 0 1293 h
5265 3179 N 0 -1301 12 -127 0 1418 h
5277 3169 N 0 -1336 12 106 0 1301 h
5289 3240 N 0 -1475 12 -12 0 1336 h
5301 3089 N 0 -1627 11 -2 0 1475 h
5312 2935 N 0 -1339 12 13 0 1627 h
5324 3236 N 0 -1162 12 -48 0 1339 h
5336 3365 N 0 -1020 12 -4 0 1162 h
5348 3503 N 0 -1312 11 69 0 1020 h
5359 3280 N 0 -1407 12 -51 0 1312 h
5371 3134 N 0 -1353 12 -21 0 1407 h
5383 3167 N 0 -1309 12 12 0 1353 h
5395 3223 N 0 -1340 11 14 0 1309 h
5406 3206 N 0 -1377 12 -26 0 1340 h
5418 3143 N 0 -1203 12 -27 0 1377 h
5430 3290 N 0 -1110 11 83 0 1203 h
5441 3466 N 0 -1331 12 73 0 1110 h
5453 3318 N 0 -1290 12 3 0 1331 h
5465 3362 N 0 -1552 12 15 0 1290 h
5477 3115 N 0 -1545 11 16 0 1552 h
5488 3138 N 0 -1625 12 -12 0 1545 h
5500 3046 N 0 -1735 12 -45 0 1625 h
5512 2891 N 0 -1817 12 15 0 1735 h
5524 2824 N 0 -1406 11 -16 0 1817 h
5535 3219 N 0 -1239 12 -3 0 1406 h
5547 3383 N 0 -1208 12 2 0 1239 h
5559 3416 N 0 -1361 12 -12 0 1208 h
5571 3251 N 0 -1387 11 33 0 1361 h
5582 3258 N 0 -1517 12 9 0 1387 h
5594 3137 N 0 -1512 12 41 0 1517 h
5606 3183 N 0 -1405 12 -9 0 1512 h
5618 3281 N 0 -1281 11 -5 0 1405 h
5629 3400 N 0 -1069 12 -45 0 1281 h
5641 3567 N 0 -1481 12 81 0 1069 h
5653 3236 N 0 -1591 11 33 0 1481 h
5664 3159 N 0 -1481 12 -40 0 1591 h
5676 3229 N 0 -1432 12 -21 0 1481 h
5688 3257 N 0 -1161 12 -47 0 1432 h
5700 3481 N 0 -1156 11 22 0 1161 h
5711 3508 N 0 -1366 12 -30 0 1156 h
5723 3268 N 0 -1160 12 -48 0 1366 h
5735 3426 N 0 -1333 12 47 0 1160 h
5747 3300 N 0 -1110 11 -37 0 1333 h
5758 3486 N 0 -1109 12 -30 0 1110 h
5770 3457 N 0 -1088 12 97 0 1109 h
5782 3575 N 0 -979 12 -53 0 1088 h
5794 3631 N 0 -1330 11 35 0 979 h
5805 3315 N 0 -1617 12 38 0 1330 h
5817 3066 N 0 -1413 12 -5 0 1617 h
5829 3265 N 0 -1587 12 -34 0 1413 h
5841 3057 N 0 -1594 11 44 0 1587 h
5852 3094 N 0 -1365 12 -71 0 1594 h
5864 3252 N 0 -1109 12 -35 0 1365 h
5876 3473 N 0 -1053 11 38 0 1109 h
5887 3567 N 0 -1005 12 -7 0 1053 h
5899 3608 N 0 -1090 12 33 0 1005 h
5911 3556 N 0 -1176 12 5 0 1090 h
5923 3475 N 0 -1126 11 -85 0 1176 h
5934 3440 N 0 -1237 12 -23 0 1126 h
5946 3306 N 0 -1328 12 73 0 1237 h
5958 3288 N 0 -1410 12 59 0 1328 h
5970 3265 N 0 -1206 11 -58 0 1410 h
5981 3411 N 0 -1338 12 22 0 1206 h
5993 3301 N 0 -1553 12 59 0 1338 h
6005 3145 N 0 -1378 12 -74 0 1553 h
6017 3246 N 0 -1390 11 -6 0 1378 h
6028 3228 N 0 -1514 12 -3 0 1390 h
6040 3101 N 0 -1132 12 -9 0 1514 h
6052 3474 N 0 -1217 12 10 0 1132 h
6064 3399 N 0 -1320 11 -26 0 1217 h
6075 3270 N 0 -1357 12 6 0 1320 h
6087 3239 N 0 -1406 12 28 0 1357 h
6099 3218 N 0 -1381 11 -27 0 1406 h
6110 3216 N 0 -1380 12 20 0 1381 h
6122 3237 N 0 -1443 12 9 0 1380 h
6134 3183 N 0 -1393 12 -18 0 1443 h
6146 3215 N 0 -1465 11 -25 0 1393 h
6157 3118 N 0 -1544 12 -10 0 1465 h
6169 3029 N 0 -1330 12 -13 0 1544 h
6181 3230 N 0 -1358 12 49 0 1330 h
6193 3251 N 0 -1503 11 32 0 1358 h
6204 3138 N 0 -1424 12 -42 0 1503 h
6216 3175 N 0 -1617 12 -114 0 1424 h
6228 2868 N 0 -1795 12 51 0 1617 h
6240 2741 N 0 -1706 11 54 0 1795 h
6251 2884 N 0 -1737 12 -48 0 1706 h
6263 2805 N 0 -1701 12 47 0 1737 h
6275 2888 N 0 -1501 12 -11 0 1701 h
6287 3077 N 0 -1550 11 -63 0 1501 h
6298 2965 N 0 -1819 12 77 0 1550 h
6310 2773 N 0 -1498 12 11 0 1819 h
6322 3105 N 0 -1575 12 -21 0 1498 h
6334 3007 N 0 -1404 11 36 0 1575 h
6345 3214 N 0 -1409 12 -3 0 1404 h
6357 3206 N 0 -1453 12 -58 0 1409 h
6369 3104 N 0 -1422 11 15 0 1453 h
6380 3150 N 0 -1452 12 18 0 1422 h
6392 3138 N 0 -1378 12 79 0 1452 h
6404 3291 N 0 -1297 12 -52 0 1378 h
6416 3320 N 0 -1338 11 -23 0 1297 h
6427 3256 N 0 -1361 12 -8 0 1338 h
6439 3225 N 0 -1534 12 82 0 1361 h
6451 3134 N 0 -1305 12 13 0 1534 h
6463 3376 N 0 -1178 11 -25 0 1305 h
6474 3478 N 0 -1195 12 -28 0 1178 h
6486 3433 N 0 -1072 12 -68 0 1195 h
6498 3488 N 0 -1369 12 61 0 1072 h
6510 3252 N 0 -1216 11 -109 0 1369 h
6521 3296 N 0 -1020 12 59 0 1216 h
6533 3551 N 0 -1066 12 -48 0 1020 h
6545 3457 N 0 -1079 12 47 0 1066 h
6557 3491 N 0 -1179 11 -5 0 1079 h
6568 3386 N 0 -1171 12 -78 0 1179 h
6580 3316 N 0 -1075 12 13 0 1171 h
6592 3425 N 0 -1058 11 43 0 1075 h
6603 3485 N 0 -1197 12 100 0 1058 h
6615 3446 N 0 -1185 12 1 0 1197 h
6627 3459 N 0 -1188 12 -46 0 1185 h
6639 3410 N 0 -1143 11 -22 0 1188 h
6650 3433 N 0 -1163 12 -25 0 1143 h
6662 3388 N 0 -1317 12 -37 0 1163 h
6674 3197 N 0 -1496 12 37 0 1317 h
6686 3055 N 0 -1531 11 8 0 1496 h
6697 3028 N 0 -1418 12 19 0 1531 h
6709 3160 N 0 -1307 12 -41 0 1418 h
6721 3230 N 0 -1253 12 91 0 1307 h
6733 3375 N 0 -1381 11 76 0 1253 h
6744 3323 N 0 -1473 12 -21 0 1381 h
6756 3210 N 0 -1271 12 -143 0 1473 h
6768 3269 N 0 -1158 12 -11 0 1271 h
6780 3371 N 0 -1063 11 56 0 1158 h
6791 3522 N 0 -984 12 -42 0 1063 h
3.000 UL
LT0
0.47 0.60 0.71 C LTb
LT0
0.47 0.60 0.71 C 5948 1097 M
591 0 V
946 1363 M
12 16 V
11 13 V
12 -25 V
12 7 V
12 43 V
11 8 V
12 14 V
12 -5 V
12 -20 V
11 8 V
12 3 V
12 10 V
12 -17 V
11 5 V
12 5 V
12 -19 V
12 31 V
11 28 V
12 27 V
12 -48 V
11 -1 V
12 29 V
12 -1 V
12 -4 V
11 26 V
12 -18 V
12 -59 V
12 47 V
11 -7 V
12 -15 V
12 22 V
12 -12 V
11 78 V
12 32 V
12 -45 V
12 30 V
11 76 V
12 -5 V
12 -41 V
11 38 V
12 23 V
12 -2 V
12 10 V
11 17 V
12 97 V
12 -9 V
12 -15 V
11 -4 V
12 71 V
12 -106 V
12 86 V
11 107 V
12 -51 V
12 49 V
12 92 V
11 -32 V
12 44 V
12 13 V
12 90 V
11 -69 V
12 48 V
12 38 V
11 83 V
12 25 V
12 34 V
12 -18 V
11 74 V
12 81 V
12 -72 V
12 87 V
11 -32 V
12 17 V
12 -11 V
12 -24 V
11 39 V
12 21 V
12 -35 V
12 34 V
11 51 V
12 55 V
12 23 V
11 93 V
12 22 V
12 -57 V
12 25 V
11 40 V
12 -2 V
12 51 V
12 0 V
11 57 V
12 -8 V
12 -47 V
12 81 V
11 30 V
12 30 V
12 -47 V
12 -17 V
11 -45 V
12 39 V
12 77 V
11 -76 V
12 -13 V
stroke 2143 2779 M
12 98 V
12 -32 V
11 -13 V
12 29 V
12 -162 V
12 74 V
11 -10 V
12 7 V
12 8 V
12 82 V
11 34 V
12 -5 V
12 7 V
12 56 V
11 29 V
12 -26 V
12 -93 V
11 52 V
12 2 V
12 84 V
12 24 V
11 3 V
12 -27 V
12 59 V
12 62 V
11 -35 V
12 21 V
12 26 V
12 -58 V
11 -24 V
12 45 V
12 -3 V
12 -46 V
11 15 V
12 -83 V
12 78 V
12 -66 V
11 -15 V
12 44 V
12 -5 V
11 50 V
12 -41 V
12 17 V
12 33 V
11 52 V
12 1 V
12 9 V
12 -32 V
11 -3 V
12 -61 V
12 49 V
12 3 V
11 -17 V
12 -35 V
12 28 V
12 3 V
11 44 V
12 -38 V
12 -11 V
11 103 V
12 42 V
12 -60 V
12 -8 V
11 27 V
12 -8 V
12 44 V
12 -72 V
11 6 V
12 34 V
12 92 V
12 -59 V
11 -3 V
12 44 V
12 127 V
12 -19 V
11 73 V
12 -80 V
12 -31 V
11 -27 V
12 10 V
12 97 V
12 25 V
11 33 V
12 -25 V
12 121 V
12 -3 V
11 3 V
12 34 V
12 -31 V
12 -6 V
11 14 V
12 -59 V
12 -63 V
12 54 V
11 32 V
12 162 V
12 22 V
11 -26 V
12 29 V
12 4 V
12 65 V
11 45 V
12 39 V
12 -57 V
stroke 3364 3810 M
12 -80 V
11 41 V
12 -63 V
12 26 V
12 -18 V
11 -44 V
12 4 V
12 -109 V
12 -3 V
11 24 V
12 118 V
12 22 V
12 33 V
11 36 V
12 131 V
12 -81 V
11 -57 V
12 -26 V
12 74 V
12 -55 V
11 -26 V
12 5 V
12 -4 V
12 81 V
11 16 V
12 -1 V
12 -81 V
12 50 V
11 16 V
12 -17 V
12 -12 V
12 16 V
11 -57 V
12 82 V
12 -72 V
11 -4 V
12 80 V
12 -34 V
12 51 V
11 24 V
12 -2 V
12 -115 V
12 102 V
11 -13 V
12 -86 V
12 -7 V
12 51 V
11 27 V
12 -16 V
12 -31 V
12 40 V
11 16 V
12 -47 V
12 9 V
11 -40 V
12 121 V
12 -65 V
12 -63 V
11 -83 V
12 87 V
12 24 V
12 -112 V
11 110 V
12 -43 V
12 72 V
12 35 V
11 25 V
12 -39 V
12 7 V
12 -18 V
11 6 V
12 68 V
12 -83 V
11 44 V
12 73 V
12 77 V
12 -12 V
11 -108 V
12 -75 V
12 100 V
12 17 V
11 36 V
12 125 V
12 -82 V
12 -47 V
11 -36 V
12 -95 V
12 -43 V
12 183 V
11 -23 V
12 45 V
12 -21 V
12 -55 V
11 -5 V
12 -33 V
12 145 V
11 -75 V
12 -17 V
12 -41 V
12 84 V
11 -38 V
12 17 V
12 18 V
12 2 V
stroke 4585 3993 M
11 -43 V
12 24 V
12 3 V
12 -1 V
11 -70 V
12 -17 V
12 83 V
12 110 V
11 -38 V
12 -19 V
12 -123 V
11 25 V
12 29 V
12 -26 V
12 -161 V
11 135 V
12 30 V
12 83 V
12 -2 V
11 -84 V
12 -21 V
12 91 V
12 -77 V
11 55 V
12 -67 V
12 52 V
12 -25 V
11 20 V
12 -12 V
12 110 V
11 20 V
12 -95 V
12 -50 V
12 -10 V
11 65 V
12 -77 V
12 55 V
12 24 V
11 -103 V
12 11 V
12 78 V
12 -69 V
11 -68 V
12 -94 V
12 -17 V
12 -46 V
11 -23 V
12 67 V
12 142 V
11 70 V
12 -65 V
12 1 V
12 -32 V
11 61 V
12 101 V
12 -37 V
12 2 V
11 -80 V
12 -69 V
12 89 V
12 -81 V
11 -79 V
12 157 V
12 41 V
12 67 V
11 -77 V
12 -99 V
12 7 V
12 33 V
11 -1 V
12 -45 V
12 60 V
11 130 V
12 -38 V
12 24 V
12 -116 V
11 20 V
12 -53 V
12 -100 V
12 -26 V
11 190 V
12 81 V
12 17 V
12 -89 V
11 20 V
12 -55 V
12 43 V
12 45 V
11 56 V
12 62 V
12 -125 V
11 -22 V
12 14 V
12 4 V
12 88 V
11 25 V
12 -135 V
12 55 V
12 -40 V
11 75 V
12 -30 V
12 108 V
12 1 V
11 -140 V
stroke 5805 3980 M
12 -105 V
12 97 V
12 -121 V
11 40 V
12 44 V
12 92 V
11 66 V
12 18 V
12 -10 V
12 -38 V
11 -60 V
12 -79 V
12 28 V
12 18 V
11 44 V
12 -44 V
12 -48 V
12 13 V
11 -12 V
12 -65 V
12 182 V
12 -33 V
11 -77 V
12 -12 V
12 3 V
11 -15 V
12 21 V
12 -22 V
12 6 V
11 -60 V
12 -50 V
12 94 V
12 35 V
11 -40 V
12 -3 V
12 -211 V
12 -38 V
11 99 V
12 -63 V
12 65 V
12 89 V
11 -88 V
12 -58 V
12 172 V
12 -59 V
11 121 V
12 -6 V
12 -79 V
11 30 V
12 3 V
12 116 V
12 -11 V
11 -44 V
12 -19 V
12 -5 V
12 128 V
11 38 V
12 -36 V
12 -7 V
12 -88 V
11 -32 V
12 157 V
12 -71 V
12 41 V
11 -56 V
12 -74 V
12 62 V
11 51 V
12 31 V
12 7 V
12 -48 V
11 1 V
12 -36 V
12 -113 V
12 -53 V
11 -10 V
12 76 V
12 15 V
12 117 V
11 13 V
12 -68 V
12 -41 V
12 45 V
11 103 V
12 -2 V
stroke
LT0
0.27 0.31 0.31 C LTb
LT0
0.27 0.31 0.31 C 5948 877 M
591 0 V
946 2017 M
12 0 V
11 153 V
12 0 V
12 0 V
12 0 V
11 0 V
12 0 V
12 0 V
12 0 V
11 0 V
12 0 V
12 234 V
12 0 V
11 112 V
12 0 V
12 0 V
12 0 V
11 0 V
12 0 V
12 0 V
11 0 V
12 0 V
12 0 V
12 0 V
11 0 V
12 0 V
12 0 V
12 0 V
11 0 V
12 0 V
12 0 V
12 0 V
11 0 V
12 0 V
12 335 V
12 0 V
11 0 V
12 0 V
12 0 V
11 0 V
12 0 V
12 0 V
12 0 V
11 0 V
12 0 V
12 0 V
12 0 V
11 21 V
12 0 V
12 0 V
12 112 V
11 71 V
12 0 V
12 51 V
12 0 V
11 254 V
12 51 V
12 0 V
12 0 V
11 0 V
12 0 V
12 0 V
11 0 V
12 0 V
12 0 V
12 0 V
11 0 V
12 0 V
12 10 V
12 112 V
11 0 V
12 0 V
12 0 V
12 0 V
11 0 V
12 0 V
12 0 V
12 0 V
11 0 V
12 0 V
12 0 V
11 0 V
12 0 V
12 0 V
12 0 V
11 0 V
12 0 V
12 0 V
12 61 V
11 0 V
12 51 V
12 0 V
12 0 V
11 0 V
12 0 V
12 0 V
12 0 V
11 0 V
12 0 V
12 0 V
11 0 V
12 0 V
stroke 2143 3645 M
12 0 V
12 0 V
11 0 V
12 0 V
12 0 V
12 0 V
11 0 V
12 0 V
12 0 V
12 0 V
11 0 V
12 61 V
12 0 V
12 0 V
11 0 V
12 0 V
12 0 V
11 51 V
12 102 V
12 0 V
12 0 V
11 61 V
12 0 V
12 0 V
12 0 V
11 0 V
12 0 V
12 0 V
12 0 V
11 10 V
12 0 V
12 0 V
12 0 V
11 0 V
12 0 V
12 0 V
12 0 V
11 0 V
12 0 V
12 0 V
11 0 V
12 0 V
12 112 V
12 0 V
11 0 V
12 0 V
12 0 V
12 0 V
11 0 V
12 0 V
12 0 V
12 0 V
11 0 V
12 0 V
12 0 V
12 0 V
11 0 V
12 0 V
12 0 V
11 0 V
12 0 V
12 0 V
12 0 V
11 0 V
12 0 V
12 0 V
12 0 V
11 0 V
12 0 V
12 0 V
12 51 V
11 0 V
12 0 V
12 0 V
12 0 V
11 0 V
12 0 V
12 0 V
11 0 V
12 0 V
12 61 V
12 0 V
11 0 V
12 0 V
12 51 V
12 0 V
11 0 V
12 0 V
12 0 V
12 0 V
11 0 V
12 0 V
12 0 V
12 0 V
11 0 V
12 0 V
12 0 V
11 0 V
12 0 V
12 0 V
12 0 V
11 0 V
12 0 V
12 0 V
stroke 3364 4205 M
12 0 V
11 0 V
12 0 V
12 51 V
12 0 V
11 0 V
12 0 V
12 0 V
12 0 V
11 0 V
12 0 V
12 0 V
12 0 V
11 0 V
12 0 V
12 112 V
11 0 V
12 0 V
12 0 V
12 0 V
11 0 V
12 0 V
12 0 V
12 0 V
11 0 V
12 0 V
12 0 V
12 0 V
11 0 V
12 0 V
12 0 V
12 0 V
11 0 V
12 0 V
12 0 V
11 0 V
12 0 V
12 0 V
12 0 V
11 0 V
12 0 V
12 0 V
12 0 V
11 0 V
12 0 V
12 0 V
12 0 V
11 0 V
12 0 V
12 0 V
12 0 V
11 0 V
12 0 V
12 0 V
11 0 V
12 0 V
12 0 V
12 0 V
11 0 V
12 0 V
12 0 V
12 0 V
11 0 V
12 0 V
12 0 V
12 0 V
11 0 V
12 0 V
12 0 V
12 0 V
11 0 V
12 0 V
12 0 V
11 0 V
12 0 V
12 0 V
12 0 V
11 0 V
12 0 V
12 0 V
12 0 V
11 0 V
12 0 V
12 0 V
12 0 V
11 0 V
12 0 V
12 0 V
12 0 V
11 0 V
12 0 V
12 0 V
12 0 V
11 0 V
12 0 V
12 0 V
11 0 V
12 0 V
12 0 V
12 0 V
11 0 V
12 0 V
12 0 V
12 0 V
stroke 4585 4368 M
11 0 V
12 0 V
12 0 V
12 0 V
11 0 V
12 0 V
12 0 V
12 0 V
11 0 V
12 0 V
12 0 V
11 0 V
12 0 V
12 0 V
12 0 V
11 0 V
12 0 V
12 0 V
12 0 V
11 0 V
12 0 V
12 0 V
12 0 V
11 0 V
12 0 V
12 0 V
12 0 V
11 0 V
12 0 V
12 0 V
11 0 V
12 0 V
12 0 V
12 0 V
11 0 V
12 0 V
12 0 V
12 0 V
11 0 V
12 0 V
12 0 V
12 0 V
11 0 V
12 0 V
12 0 V
12 0 V
11 0 V
12 0 V
12 0 V
11 0 V
12 0 V
12 0 V
12 0 V
11 0 V
12 0 V
12 0 V
12 0 V
11 0 V
12 0 V
12 0 V
12 0 V
11 0 V
12 0 V
12 0 V
12 0 V
11 0 V
12 0 V
12 0 V
12 0 V
11 0 V
12 0 V
12 0 V
11 0 V
12 0 V
12 0 V
12 0 V
11 0 V
12 0 V
12 0 V
12 0 V
11 0 V
12 0 V
12 0 V
12 0 V
11 0 V
12 0 V
12 0 V
12 0 V
11 0 V
12 0 V
12 0 V
11 0 V
12 0 V
12 0 V
12 0 V
11 0 V
12 0 V
12 0 V
12 0 V
11 0 V
12 0 V
12 0 V
12 0 V
11 0 V
stroke 5805 4368 M
12 0 V
12 0 V
12 0 V
11 0 V
12 0 V
12 0 V
11 0 V
12 0 V
12 0 V
12 0 V
11 0 V
12 0 V
12 0 V
12 0 V
11 0 V
12 0 V
12 0 V
12 0 V
11 0 V
12 0 V
12 0 V
12 0 V
11 0 V
12 0 V
12 0 V
11 0 V
12 0 V
12 0 V
12 0 V
11 0 V
12 0 V
12 0 V
12 0 V
11 0 V
12 0 V
12 0 V
12 0 V
11 0 V
12 0 V
12 0 V
12 0 V
11 0 V
12 0 V
12 0 V
12 0 V
11 0 V
12 0 V
12 0 V
11 0 V
12 0 V
12 0 V
12 0 V
11 0 V
12 0 V
12 0 V
12 0 V
11 0 V
12 0 V
12 0 V
12 0 V
11 0 V
12 0 V
12 0 V
12 0 V
11 0 V
12 0 V
12 0 V
11 0 V
12 0 V
12 0 V
12 0 V
11 0 V
12 0 V
12 0 V
12 0 V
11 0 V
12 0 V
12 0 V
12 0 V
11 0 V
12 0 V
12 0 V
12 0 V
11 0 V
12 0 V
stroke
1.000 UL
LTb
946 4775 N
946 704 L
5857 0 V
0 4071 V
-5857 0 V
Z stroke
1.000 UP
1.000 UL
LTb
stroke
grestore
end
showpage
%%Trailer
